Event,Sex,Division,WeightClassKg,Best3BenchKg,Best3DeadliftKg,Deadlift4Kg,TotalKg,Name,State,Equipment,Place
B,M,Class 1,110,217.5,,,217.5,Samuel Swift,TX,Single-ply,1
B,M,Disabled 1 13-19,56,137.5,,,137.5,Michael Saldivar,TX,Multi-ply,1
B,M,Disabled 2 20-39,82.5,60,,,60,Jeremy Page,TX,Single-ply,1
B,M,Disabled 2 20-39,125,215,,,215,Matthew Keating,TX,Multi-ply,1
B,M,Disabled 2 40-59,117.5,117.5,,,117.5,Mark Gibson,TX,Single-ply,1
B,M,Juniors 20-25,75,145,,,145,Trevor Banaszak,TX,Multi-ply,1
B,M,Juniors 20-25,100,227.5,,,227.5,Michael Sullivan,TX,Multi-ply,1
B,M,Juniors 20-25,110,184.5,,,184.5,Brandon Waltmon,TX,Multi-ply,1
B,M,Law-Fire Submasters,100,137.5,,,137.5,Justin White,TX,Single-ply,1
B,M,Masters 47-53,82.5,182.5,,,182.5,John Burke,TX,Single-ply,1
B,M,Masters 47-53,90,207.5,,,207.5,Patrick Rocha,TX,Multi-ply,1
B,M,Masters 54-60,90,172.5,,,172.5,John DeBose,TX,Single-ply,1
B,M,Open,75,145,,,145,Trevor Banaszak,TX,Multi-ply,1
B,M,Open,90,207.5,,,207.5,Patrick Rocha,TX,Multi-ply,1
B,M,Open,100,227.5,,,227.5,Michael Sullivan,TX,Multi-ply,1
B,M,Submasters 33-39,90,167.5,,,167.5,Joseph Fabela,TX,Single-ply,1
B,M,Teen 12-13,44,37.5,,,37.5,Gavin Garner,TX,Single-ply,1
B,M,Teen 16-17,60,100,,,100,Derek Clark,TX,Single-ply,1
B,M,Teen 16-17,75,97.5,,,97.5,Jared Hatcher,TX,Single-ply,1
B,M,Teen 18-19,56,137.5,,,137.5,Michael Saldivar,TX,Single-ply,1
B,M,Teen 16-17,140+,127.5,,,127.5,Bobby Denard,TX,Single-ply,1
D,M,Class 1,140,,255,,255,Tymon Gallien,TX,Single-ply,1
D,M,Disabled 2 20-39,82.5,,162.5,,162.5,Jeremy Page,TX,Single-ply,1
D,M,Disabled 2 20-39,125,,232.5,245,232.5,Matthew Keating,TX,Multi-ply,1
D,M,Juniors 20-25,75,,205,215,205,Trevor Banaszak,TX,Multi-ply,1
D,M,Juniors 20-25,100,,257.5,272.5,257.5,Michael Sullivan,TX,Multi-ply,1
D,M,Juniors 20-25,110,,210,,210,Brandon Waltmon,TX,Single-ply,1
D,M,Law-Fire 48-55,90,,252.5,,252.5,Joseph Lee Chaney,TX,Single-ply,1
D,M,Law-Fire Open,90,,252.5,,252.5,Joseph Lee Chaney,TX,Single-ply,1
D,M,Law-Fire Submasters,100,,240,247.5,240,Justin White,TX,Single-ply,1
D,M,Masters 61-67,100,,215,,215,Bob Hafner,TX,Single-ply,1
D,M,Masters 68-74,75,,187.5,190.5,187.5,James Christian,TX,Single-ply,1
D,M,Open,75,,205,215,205,Trevor Banaszak,TX,Multi-ply,1
D,M,Open,100,,257.5,272.5,257.5,Michael Sullivan,TX,Multi-ply,1
D,M,Open,110,,237.5,,237.5,Samuel Swift,TX,Multi-ply,1
D,M,Submasters 33-39,90,,260,,260,Joseph Fabela,TX,Single-ply,1
D,M,Submasters 33-39,140,,255,,255,Tymon Gallien,TX,Single-ply,1
D,M,Teen 12-13,44,,62.5,,62.5,Gavin Garner,TX,Single-ply,1
D,M,Teen 12-13,44,,60,,60,Zane Turco,TX,Single-ply,2
D,M,Teen 16-17,60,,155,,155,Derek Clark,TX,Single-ply,1
D,M,Teen 16-17,75,,162.5,,162.5,Jared Hatcher,TX,Single-ply,1
D,M,Teen 16-17,140+,,150,,150,Bobby Denard,TX,Single-ply,1
BD,M,Disabled 2 20-39,82.5,60,162.5,,222.5,Jeremy Page,TX,Single-ply,1
BD,M,Juniors 20-25,75,145,205,215,350,Trevor Banaszak,TX,Multi-ply,1
BD,M,Juniors 20-25,100,227.5,257.5,272.5,485,Michael Sullivan,TX,Multi-ply,1
BD,M,Open,75,145,205,215,350,Trevor Banaszak,TX,Multi-ply,1
BD,M,Open,100,227.5,257.5,272.5,485,Michael Sullivan,TX,Multi-ply,1
BD,M,Submasters 33-39,90,167.5,260,,427.5,Joseph Fabela,TX,Single-ply,1
BD,M,Teen 12-13,44,37.5,62.5,,100,Gavin Garner,TX,Single-ply,1
BD,M,Teen 16-17,60,100,155,,255,Derek Clark,TX,Single-ply,1
BD,M,Teen 16-17,75,97.5,162.5,,260,Jared Hatcher,TX,Single-ply,1
BD,M,Teen 16-17,140+,127.5,150,,277.5,Bobby Denard,TX,Single-ply,1
B,F,Masters 40-46,56,67.5,,,67.5,Cara Fong,TX,Single-ply,1
B,F,Masters 40-46,90,62.5,,,62.5,Krystal Morris,TX,Multi-ply,1
B,F,Open,90,62.5,,,62.5,Krystal Morris,TX,Multi-ply,1
B,F,Teen 14-15,56,60,,,60,Jayci Robicheaux,TX,Single-ply,1
B,F,Teen 16-17,52,47.5,,,47.5,Danielle Puentes,TX,Single-ply,1
D,F,Class 1,100,,117.5,,117.5,Lynnette Hollins,TX,Single-ply,1
D,F,Class 1,90+,,162.5,,162.5,Michelle Garrett,TX,Single-ply,1
D,F,Masters 40-46,56,,110,,110,Cara Fong,TX,Single-ply,1
D,F,Masters 40-46,90,,145,,145,Scharlotte Spencer,TX,Single-ply,1
D,F,Masters 47-53,90,,102.5,,102.5,Karen Zscheck,TX,Single-ply,1
D,F,Open,90,,145,,145,Scharlotte Spencer,TX,Single-ply,1
D,F,Open,90,,102.5,,102.5,Karen Zscheck,TX,Single-ply,2
D,F,Open,90+,,190,,190,Keeya Sutherland,TX,Single-ply,1
D,F,Submasters,90+,,190,,190,Keeya Sutherland,TX,Single-ply,1
D,F,Teen 14-15,56,,117.5,,117.5,Jayci Robicheaux,TX,Single-ply,1
D,F,Teen 16-17,52,,105,,105,Danielle Puentes,TX,Single-ply,1
BD,F,Masters 40-46,56,67.5,110,,177.5,Cara Fong,TX,Single-ply,1
BD,F,Teen 14-15,56,60,117.5,,177.5,Jayci Robicheaux,TX,Single-ply,1
