Name,Division,BirthDate,WeightClassKg,BodyweightKg,Sex,Tested,Squat1Kg,Squat2Kg,Squat3Kg,Squat4Kg,Best3SquatKg,Bench1Kg,Bench2Kg,Bench3Kg,Bench4Kg,Best3BenchKg,Deadlift1Kg,Deadlift2Kg,Deadlift3Kg,Deadlift4Kg,Best3DeadliftKg,TotalKg,Place,Event,Equipment,Country
Anastasiya Mymrina,T (18-19),1990-07-10,48,47.25,F,Yes,90,95,97.5,-100,97.5,62.5,-67.5,-67.5,,62.5,115,130,-140,,130,290,1,SBD,Raw,Russia
Gunel Talibova,O,1982-04-06,48,46.8,F,Yes,70,75,80,,80,45,47.5,50,,50,102.5,110,115,-130.5,115,245,1,SBD,Raw,Azerbaijan
Olga Churilova,O,1977-10-29,48,47.9,F,Yes,67.5,72.5,-75,,72.5,42.5,45,-47.5,,45,97.5,102.5,105,,105,222.5,2,SBD,Raw,Russia
Olesya Sinelnikova,T (13-15),1993-11-20,52,51.55,F,Yes,-75,80,-85,,80,50,55,-57.5,,55,95,100,-105,,100,235,1,SBD,Raw,Russia
Nadezhda Reutova,T (16-17),1993-01-30,52,50.8,F,Yes,80,90,-95,,90,47.5,52.5,-55,,52.5,95,105,-110,,105,247.5,1,SBD,Raw,Russia
Veronika Rudnevskaya,O,1974-04-24,52,52,F,Yes,85,90,95,,95,50,55,-57.5,,55,105,110,115,,115,265,1,SBD,Raw,Russia
Olga Negodyuk,O,1968-01-10,52,51.65,F,Yes,80,85,-87.5,,85,-50,50,-52.5,,50,105,117.5,-122.5,,117.5,252.5,2,SBD,Raw,Ukraine
Olesya Sinelnikova,O,1993-11-20,52,51.55,F,Yes,-75,80,-85,,80,50,55,-57.5,,55,95,100,-105,,100,235,3,SBD,Raw,Russia
Olga Negodyuk,M (40-44),1968-01-10,52,51.65,F,Yes,80,85,-87.5,,85,-50,50,-52.5,,50,105,117.5,-122.5,,117.5,252.5,1,SBD,Raw,Ukraine
Natalya Petriyenko,T (18-19),1989-11-15,56,54.85,F,Yes,75,-80,-80,,75,-40,-40,-40,,,,,,,,,DQ,SBD,Raw,Russia
Polina Turygina,J (20-23),1985-10-19,56,56,F,Yes,75,80,82.5,,82.5,50,52.5,-55,,52.5,80,87.5,92.5,,92.5,227.5,1,SBD,Raw,Russia
Nina Savelyeva,O,1973-03-16,60,59.9,F,Yes,90,97.5,102.5,,102.5,85,-92.5,95,,95,110,120,130,,130,327.5,1,SBD,Raw,Ukraine
Tatyana Mazayeva,O,1977-12-02,60,59.15,F,Yes,90,95,100,,100,65,70,75,,75,110,120,-125,,120,295,2,SBD,Raw,Russia
Lidiya Tomchina,O,1984-07-28,60,60,F,Yes,90,95,-102.5,,95,50,55,-57.5,,55,105,112.5,120,,120,270,3,SBD,Raw,Russia
Darya Babkina,J (20-23),1989-04-01,67.5,61.65,F,Yes,85,-90,90,,90,55,60,-65,,60,95,105,110,,110,260,1,SBD,Raw,Ukraine
Yuliya Umerenkova,O,1980-12-09,67.5,67.35,F,Yes,120,125,-128,,125,70,-75,-75,,70,155,165,171,175,171,366,1,SBD,Raw,Russia
Yuliya Pilipchatina,O,1984-09-29,67.5,65.8,F,Yes,-105,110,120,,120,52.5,60,-65,,60,140,160,-185,,160,340,2,SBD,Raw,Russia
Svitlana Sheremenko,O,1959-03-15,75,72.8,F,Yes,-95,-95,-95,,,,,,,,,,,,,,DQ,SBD,Raw,Ukraine
Svitlana Sheremenko,M (50-54),1959-03-15,75,72.8,F,Yes,-95,-95,-95,,,,,,,,,,,,,,DQ,SBD,Raw,Ukraine
Natalya Tsukanova,M (50-54),1956-05-17,82.5,81.25,F,Yes,-125,125,,,125,85,90,-95,,90,150,160,-165,,160,375,1,SBD,Raw,Ukraine
Mykyta Serenko,T (13-15),1995-09-18,52,48.85,M,Yes,60,65,-70,,65,45,-47.5,47.5,,47.5,70,80,90,,90,202.5,1,SBD,Raw,Ukraine
Jevgeniy Dragan,T (16-17),1993-05-29,52,51.35,M,Yes,80,90,-100,,90,60,70,-75,,70,110,130,-135,,130,290,1,SBD,Raw,Moldova
Denis Bozrikov,T (16-17),1993-09-26,52,52,M,Yes,70,75,-80,,75,55,60,-65,,60,110,120,-140,,120,255,2,SBD,Raw,Russia
Nikolai Vanichev,O,1978-10-09,52,52,M,Yes,-115,-115,-117.5,,,,,,,,,,,,,,DQ,SBD,Raw,Russia
Anatoly Plakushchenko,T (13-15),1994-03-08,56,55.5,M,Yes,60,70,80,,80,-50,-50,50,,50,90,110,-115,,110,240,1,SBD,Raw,Moldova
Ruslan Dokukin,T (16-17),1991-11-18,56,55.95,M,Yes,110,-117.5,117.5,,117.5,65,-72.5,72.5,,72.5,130,140,150,,150,340,1,SBD,Raw,Russia
Vadim Ladnyy,T (16-17),1993-03-11,56,55.25,M,Yes,100,105,-115,,105,70,-80,-80,,70,125,-140,-140,,125,300,2,SBD,Raw,Moldova
Oleg Artemyev,O,1971-12-22,56,55.85,M,Yes,135,140,,,140,-120,120,125,,125,150,160,-167.5,,160,425,1,SBD,Raw,Russia
Vladimir Zhuravlev,M (65-69),1940-09-02,56,54.4,M,Yes,100,110,,,110,80,-85,,,80,120,130,,,130,320,1,SBD,Raw,Russia
Alexander Dambinov,M (70-74),1936-03-12,56,55.8,M,Yes,80,85,-90,,85,-62.5,65,-67.5,,65,125,-130,130,,130,280,1,SBD,Raw,Russia
Pavel Baranov,T (13-15),1993-11-12,60,59.25,M,Yes,145,160,165,,165,90,97.5,100,,100,170,-195,-195,,170,435,1,SBD,Raw,Russia
Vitaly Mikhin,T (13-15),1993-12-11,60,57.75,M,Yes,110,120,125,,125,80,,,,80,140,150,160,,160,365,2,SBD,Raw,Russia
Artem Gerasimov,T (16-17),1992-11-02,60,59.2,M,Yes,120,130,-140,,130,100,105,-110,,105,140,150,160,,160,395,1,SBD,Raw,Russia
Sergei Volodarsky,J (20-23),1989-08-21,60,58.15,M,Yes,130,137.5,-142.5,,137.5,92.5,97.5,100,-102.5,100,162.5,172.5,177.5,,177.5,415,1,SBD,Raw,Russia
Konstantin Karlov,J (20-23),1989-06-17,60,59.75,M,Yes,120,130,140,,140,87.5,95,-100,,95,150,170,-182.5,,170,405,2,SBD,Raw,Russia
Elmir Tarverdiyev,O,1983-07-09,60,58.85,M,Yes,150,165,-170,,165,90,100,105,,105,170,185,190,,190,460,1,SBD,Raw,Azerbaijan
Maxim Sukhobok,M (40-44),1965-01-01,60,57.45,M,Yes,-132.5,132.5,142.5,,142.5,82.5,90,-95,,90,165,180,-187.5,,180,412.5,1,SBD,Raw,Russia
Oleg Dvoynikov,M (45-49),1960-10-08,60,59.85,M,Yes,125,130,-135,,130,90,-95,95,,95,170,180,-185,,180,405,1,SBD,Raw,Russia
Nail Mukhayev,T (13-15),1995-02-10,67.5,60.95,M,Yes,75,85,90,,90,50,57.5,-62.5,,57.5,110,120,-130,,120,267.5,1,SBD,Raw,Russia
Pavel Shvetsov,T (18-19),1990-03-15,67.5,66.1,M,Yes,170,175,180,,180,115,-120,,,115,220,-230,-230,,220,515,1,SBD,Raw,Russia
Anton Lustin,T (18-19),1990-05-05,67.5,63.4,M,Yes,180,190,-200,,190,115,122.5,-130,,122.5,170,185,-195,,185,497.5,2,SBD,Raw,Russia
Igor Severinchik,T (18-19),1991-06-15,67.5,67,M,Yes,155,160,170,,170,90,97.5,-105,,97.5,180,195,-200,,195,462.5,3,SBD,Raw,Ukraine
Leonid Telipaylo,J (20-23),1985-10-24,67.5,66.75,M,Yes,145,155,162.5,167.5,162.5,100,107.5,-110,,107.5,180,190,,,190,460,1,SBD,Raw,Ukraine
Vladimir Rozhdaykin,J (20-23),1985-11-06,67.5,66.85,M,Yes,140,150,160,,160,100,-115,115,,115,160,180,185,,185,460,2,SBD,Raw,Moldova
Ivan Bezrukov,J (20-23),1989-01-05,67.5,65.2,M,Yes,120,130,-135,,130,75,80,-85,,80,175,182.5,-185,,182.5,392.5,3,SBD,Raw,Russia
Leonid Telipaylo,O,1985-10-24,67.5,66.75,M,Yes,145,155,162.5,,162.5,100,107.5,-110,,107.5,180,190,-195,,190,460,1,SBD,Raw,Ukraine
Vladimir Rojdaikin,O,1985-11-06,67.5,66.85,M,Yes,140,150,160,,160,100,-115,115,,115,160,180,185,,185,460,2,SBD,Raw,Moldova
Vadym Kukhterin,M (45-49),1961-10-04,67.5,63.5,M,Yes,120,130,,,130,90,100,105,,105,140,150,,,150,385,1,SBD,Raw,Ukraine
Arkady Osipyan,M (45-49),1963-02-11,67.5,67.4,M,Yes,100,105,110,,110,85,90,92.5,,92.5,130,-135,,,130,332.5,2,SBD,Raw,Russia
Sergei Alampiyev,M (50-54),1957-04-07,67.5,66.85,M,Yes,140,150,-155,,150,-110,110,-115,,110,180,205,217.5,,217.5,477.5,1,SBD,Raw,Russia
Sergei Kim,M (50-54),1957-01-18,67.5,66.65,M,Yes,145,150,160,,160,115,120,122.5,,122.5,170,-175,-182.5,,170,452.5,2,SBD,Raw,Russia
Vladimir Lobachev,M (65-69),1941-05-10,67.5,67.4,M,Yes,105,115,125,,125,80,85,90,,90,155,160,-165,,160,375,1,SBD,Raw,Russia
Anatoly Chistyakov,M (65-69),1940-01-29,67.5,62.85,M,Yes,90,100,102.5,,102.5,67.5,70,-72.5,,70,115,125,130,,130,302.5,2,SBD,Raw,Russia
Alexander Karpenko,T (16-17),1992-04-25,75,73.9,M,Yes,175,190,202.5,,202.5,120,130,135.5,-137.5,135.5,220,235,252.5,,252.5,590,1,SBD,Raw,Russia
Vladimir Babin,T (16-17),1992-08-09,75,74.2,M,Yes,170,177.5,-182.5,,177.5,105,110,112.5,,112.5,242.5,252.5,-265,,252.5,542.5,2,SBD,Raw,Russia
Vadim Vandakurov,T (16-17),1992-10-14,75,73,M,Yes,155,165,175,,175,105,115,117.5,,117.5,170,-175,-175,,170,462.5,3,SBD,Raw,Russia
Stanislav Kumskov,T (18-19),1989-11-11,75,74.55,M,Yes,185,200,210,,210,125,130,-136,,130,230,242.5,-250,,242.5,582.5,1,SBD,Raw,Russia
Alexei Ivanov,T (18-19),1991-08-12,75,75,M,Yes,150,165,180,,180,115,125,-132.5,,125,180,190,200,,200,505,2,SBD,Raw,Russia
Dmitry Gurov,T (18-19),1991-01-24,75,72.8,M,Yes,150,-160,-160,,150,115,-120,-120,,115,170,190,-200,,190,455,3,SBD,Raw,Russia
Alexander Oleynik,T (18-19),1991-07-13,75,71.4,M,Yes,130,140,-150,,140,100,-110,-112.5,,100,160,180,-200,,180,420,4,SBD,Raw,Moldova
Vitaly Progunov,J (20-23),1989-08-29,75,73.4,M,Yes,-180,-180,180,,180,110,120,127.5,,127.5,250,260,270,,270,577.5,1,SBD,Raw,Russia
Vyacheslav Mamontov,J (20-23),1989-09-09,75,75,M,Yes,180,-190,,,180,125,130,137.5,,137.5,240,252.5,-260.5,,252.5,570,2,SBD,Raw,Russia
Rodion Puchkovskiy,O,1980-05-13,75,72.75,M,Yes,185,190,195,,195,130,135,,,135,240,-250,250,,250,580,1,SBD,Raw,Russia
Andriy Lyutik,O,1982-07-06,75,75,M,Yes,180,195,-200,,195,125,135,-142.5,,135,220,-235,,,220,550,2,SBD,Raw,Ukraine
Vladimir Pryazhentsev,M (40-44),1965-12-04,75,72.65,M,Yes,-175,175,185,190,185,110,120,122.5,,122.5,200,215,222.5,,222.5,530,1,SBD,Raw,Russia
Igor Paraskeva,M (45-49),1964-03-31,75,73.55,M,Yes,160,170,-175,,170,105,115,120,,120,170,190,205,,205,495,1,SBD,Raw,Moldova
Sergiy Bobkov,M (55-59),1953-05-15,75,74.25,M,Yes,130,,,,130,80,90,,,90,-140,,,,-140,,DQ,SBD,Raw,Ukraine
Petro Kravtsov,M (60-64),1946-02-01,75,72.45,M,Yes,180,185,-190,,185,110,115,117.5,,117.5,180,190,195,,195,497.5,1,SBD,Raw,Ukraine
Volodymyr Manchuk,M (65-69),1940-06-03,75,73.85,M,Yes,110,120,-130,,120,105,112.5,-115,,112.5,-150,,,,,,DQ,SBD,Raw,Ukraine
Volodymyr Vasylenko,M (65-69),1943-11-12,75,74.8,M,Yes,105,-110,110,,110,-65,-65,-65,,,,,,,,,DQ,SBD,Raw,Ukraine
Olexandr Kolyadenko,T (13-15),1994-04-22,82.5,80.6,M,Yes,-150,-150,-150,,,,,,,,,,,,,,DQ,SBD,Raw,Ukraine
Bogdan Kovalenko,T (16-17),1992-01-25,82.5,80.5,M,Yes,180,-190,200,,200,90,100,-105,,100,200,215,220,-230.5,220,520,1,SBD,Raw,Azerbaijan
Ilya Gritsay,T (16-17),1993-07-30,82.5,82.25,M,Yes,145,155,162.5,,162.5,120,-125,130,,130,200,215,-225,,215,507.5,2,SBD,Raw,Russia
Vladimir Svetlichnyy,J (20-23),1988-04-25,82.5,81.95,M,Yes,220,230,240,,240,140,-150,150,,150,220,250,260,,260,650,1,SBD,Raw,Russia
Olexandr Chumak,J (20-23),1989-05-17,82.5,80.3,M,Yes,160,-165,-165,,160,115,120,125,,125,185,205,215,,215,500,2,SBD,Raw,Ukraine
Alexei Kokukhin,O,1984-11-22,82.5,78.15,M,Yes,220,235,-245,,235,145,160,-165,,160,270,290,300,,300,695,1,SBD,Raw,Russia
Rinat Zaripov,O,1976-05-31,82.5,81.1,M,Yes,215,225,230,,230,160,167.5,170,,170,-275,285,-295,,285,685,2,SBD,Raw,Belarus
Grigory Sarukhanyan,O,1970-08-10,82.5,82.35,M,Yes,215,225,232.5,,232.5,145,152.5,-160,,152.5,245,262.5,267.5,,267.5,652.5,3,SBD,Raw,Ukraine
Alexander Shunin,O,1965-10-30,82.5,82.35,M,Yes,205,215,220,,220,140,-145,145,,145,270,280,285,,285,650,4,SBD,Raw,Russia
Amir Yakhin,O,1978-11-07,82.5,81.5,M,Yes,205,215,-220,,215,150,-157.5,157.5,,157.5,230,-242.5,-242.5,,230,602.5,5,SBD,Raw,Russia
Alexander Grinkevich-Sudnik,O,1985-01-09,82.5,82.5,M,Yes,185,197.5,-205,,197.5,140,147.5,152.5,,152.5,215,242.5,-247.5,,242.5,592.5,6,SBD,Raw,Russia
Grigory Sarukhanyan,M (40-44),1965-10-30,82.5,82.35,M,Yes,205,215,220,,220,140,-145,145,,145,270,280,285,,285,650,1,SBD,Raw,Russia
Anatoliy Krotkikh,M (40-44),1968-08-20,82.5,81.25,M,Yes,150,160,180,,180,115,120,125,,125,160,-180,-180,,160,465,2,SBD,Raw,Ukraine
Vyacheslav Piskalov,M (50-54),1958-10-23,82.5,80.6,M,Yes,205,215,-225,,215,115,120,-125,,120,205,-215,,,205,540,1,SBD,Raw,Russia
Anatoliy Cherednichenko,M (50-54),1956-09-17,82.5,81.05,M,Yes,150,165,180,,180,100,-110,110,,110,150,180,200,,200,490,2,SBD,Raw,Ukraine
Yuri Kulikov,M (50-54),1959-08-01,82.5,81.95,M,Yes,115,125,130,,130,97.5,-105,-105,,97.5,160,170,175,,175,402.5,3,SBD,Raw,Ukraine
Vladimir Larin,M (55-59),1954-03-13,82.5,80.75,M,Yes,135,-150,-150,,135,100,-105,-107.5,,100,140,160,,,160,395,1,SBD,Raw,Russia
Vyacheslav Chevordayev,M (60-64),1948-04-06,82.5,80.8,M,Yes,-175,175,182.5,,182.5,92.5,97.5,-100,,97.5,210,-220,220,-227.5,220,500,1,SBD,Raw,Russia
Vyacheslav Terzov,M (70-74),1938-06-11,82.5,81.1,M,Yes,150,160,170,,170,80,85,90,,90,160,180,190,,190,450,1,SBD,Raw,Russia
Olexandr Loginov,M (70-74),1938-01-09,82.5,76.85,M,Yes,,120,127.5,,127.5,70,75,-77.5,,75,,150,162.5,,162.5,365,2,SBD,Raw,Ukraine
Georgy Zaborovskiy,T (16-17),1992-03-01,90,89.1,M,Yes,180,190,-205,,190,140,150,,,150,180,195,205,,205,545,1,SBD,Raw,Russia
Alexander Fedoseyev,T (18-19),1991-01-03,90,87.75,M,Yes,185,195,-205,,195,145,155,-160,,155,220,230,240,,240,590,1,SBD,Raw,Ukraine
Ruslan Kulebyakin,T (18-19),1991-02-26,90,89.55,M,Yes,150,160,-172.5,,160,120,-125,127.5,,127.5,170,185,200,,200,487.5,2,SBD,Raw,Russia
Ruslan Shamanskiy,T (18-19),1990-08-25,90,89.75,M,Yes,-160,-160,-160,,,,,,,,,,,,,,DQ,SBD,Raw,Ukraine
Sergei Georgiyev,J (20-23),1987-01-18,90,87.05,M,Yes,-190,190,205,,205,130,-140,140,,140,230,242.5,252.5,,252.5,597.5,1,SBD,Raw,Moldova
Anton Zenin,J (20-23),1987-08-04,90,89.95,M,Yes,195,205,210,,210,135,-140,-140,,135,230,240,250,,250,595,2,SBD,Raw,Russia
Dmitry Kalnin,J (20-23),1989-04-29,90,89.15,M,Yes,160,-170,-180,,160,115,125,,,125,190,-205,205,,205,490,3,SBD,Raw,Ukraine
Nikolai Zhukov,O,1978-10-16,90,88.6,M,Yes,250,257.5,265,,265,167.5,175,180,,180,260,275,280,,280,725,1,SBD,Raw,Russia
Mykhailo Slepchenko,O,1977-06-28,90,88.6,M,Yes,240,260,275,,275,165,175,,,175,250,270,-282.5,,270,720,2,SBD,Raw,Ukraine
Sergei Zaytsev,O,1977-10-13,90,89.15,M,Yes,-230,-230,230,,230,190,200,-205,,200,250,270,282.5,285,282.5,712.5,3,SBD,Raw,Russia
Alexei Kharauzov,O,1973-10-25,90,90,M,Yes,215,230,237.5,,237.5,190,202.5,-207.5,,202.5,230,252.5,270,,270,710,4,SBD,Raw,Russia
Ivan Mikhaylyuk,O,1977-01-15,90,84.45,M,Yes,230,240,-250,,240,150,155,160,,160,260,-270,270,,270,670,5,SBD,Raw,Russia
Roman Sinetskiy,O,1976-02-06,90,89.4,M,Yes,220,-230,230,,230,160,-165,165,,165,260,-275,-275,,260,655,6,SBD,Raw,Russia
Yuri Zakharov,O,1975-05-06,90,89.25,M,Yes,220,230,235,,235,-175,-175,-175,,,,,,,,,DQ,SBD,Raw,Russia
Konstantin Talda,O,1971-01-09,90,90,M,Yes,210,220,-230.5,,220,-172.5,-172.5,-172.5,,,,,,,,,DQ,SBD,Raw,Russia
Alexander Leontyev,M (45-49),1961-01-24,90,90,M,Yes,215,225,235,,235,-155,155,160,,160,215,225,235,,235,630,1,SBD,Raw,Russia
Vasyl Vashchenko,M (50-54),1959-07-10,90,87.4,M,Yes,140,150,160,,160,120,125,-127.5,,125,150,160,175,,175,460,1,SBD,Raw,Ukraine
Stanislav Moskalenko,T (16-17),1992-11-13,100,99.8,M,Yes,200,210,220,,220,150,160,,,160,200,220,240,,240,620,1,SBD,Raw,Russia
Sergei Jurku,T (18-19),1991-08-21,100,98.15,M,Yes,185,195,-205,,195,125,135,142.5,,142.5,195,212.5,222.5,,222.5,560,1,SBD,Raw,Moldova
Yevgeny Panferov,T (18-19),1991-03-31,100,96.65,M,Yes,190,202.5,-212.5,,202.5,120,127.5,135,,135,190,210,220,,220,557.5,2,SBD,Raw,Russia
Andrei Poberezhnyy,J (20-23),1986-09-06,100,99.05,M,Yes,235,-245,-245,,235,160,170,-175,,170,270,290,305,,305,710,1,SBD,Raw,Russia
Konstantin Komelin,J (20-23),1986-03-31,100,96.5,M,Yes,220,230,240,,240,130,-140,,,130,260,270,-275,,270,640,2,SBD,Raw,Russia
Conner Gordon,J (20-23),1989-07-22,100,98.7,M,Yes,-187.5,187.5,190,,190,-145,-145,-145,,,,,,,,,DQ,SBD,Raw,USA
Vadym Lozhechkin,O,1984-07-12,100,99.15,M,Yes,260,275,-282.5,,275,180,-190,190,,190,270,285,292.5,,292.5,757.5,1,SBD,Raw,Ukraine
Vladimir Tishchenko,O,1967-07-26,100,99.1,M,Yes,220,235,250,,250,160,170,-175,,170,270,290,-300,,290,710,2,SBD,Raw,Russia
Andrei Ustyugov,O,1971-04-09,100,98.8,M,Yes,230,240,250,,250,160,170,-175,,170,245,260,-265,,260,680,3,SBD,Raw,Russia
Vladimir Tishchenko,M (40-44),1967-07-26,100,99.1,M,Yes,220,235,250,,250,160,170,-175,,170,270,290,-300,,290,710,1,SBD,Raw,Russia
Sergiy Kolesnyk,M (45-49),1963-01-03,100,97.7,M,Yes,-185,185,200,,200,125,135,140,,140,185,200,215,,215,555,1,SBD,Raw,Ukraine
Oleg Kholodov,M (45-49),1961-11-27,100,98,M,Yes,175,185,190,,190,120,127.5,132.5,,132.5,175,200,-210,,200,522.5,2,SBD,Raw,Russia
Alexander Nemchinov,M (55-59),1951-11-10,100,91.1,M,Yes,180,200,,,200,115,-125,125,,125,225,240,,,240,565,1,SBD,Raw,Russia
Mikhail Bobkov,M (60-64),1947-11-21,100,94.15,M,Yes,210,-220,220,,220,80,90,,,90,190,200,215,,215,525,1,SBD,Raw,Russia
Vasyl Borisov,M (65-69),1942-09-28,100,90.1,M,Yes,-120,-120,120,,120,75,-85,-85,,75,120,130,142.5,,142.5,337.5,1,SBD,Raw,Ukraine
Zaur Mustafayev,T (18-19),1991-09-23,110,105.15,M,Yes,170,185,-195,,185,130,142.5,155,,155,190,210,-230,,210,550,1,SBD,Raw,Russia
Stanislav Shvetsov,J (20-23),1988-02-09,110,107.25,M,Yes,270,285,-300,,285,190,-205,-205,,190,280,300,312.5,-320,312.5,787.5,1,SBD,Raw,Russia
Alexander Zaytsev,O,1980-04-06,110,108.45,M,Yes,250,270,-290,,270,200,-210,,,200,270,290,302.5,,302.5,772.5,1,SBD,Raw,Russia
Alexander Grekhnev,O,1980-03-28,110,110,M,Yes,220,230,240,,240,175,-187.5,192.5,,192.5,270,287.5,300,,300,732.5,2,SBD,Raw,Russia
Alexei Ventsov,O,1981-04-22,110,106.6,M,Yes,250,265,-270,,265,155,160,-165,,160,300,-312,-315,,300,725,3,SBD,Raw,Russia
Andrei Fedoseyev,O,1974-03-03,110,109.4,M,Yes,230,240,-250,,240,175,182.5,187.5,,187.5,265,-275,-275,,265,692.5,4,SBD,Raw,Russia
Mammed Abdullaev,O,1979-05-24,110,108.45,M,Yes,-245,-245,245,,245,175,-182.5,-182.5,,175,252.5,260,-272.5,,260,680,5,SBD,Raw,Azerbaijan
Alexander Yesaulov,O,1982-02-08,110,110,M,Yes,225,235,-245,,235,160,170,-182.5,,170,260,270,,,270,675,6,SBD,Raw,Russia
Sergei Mazanov,O,1975-06-18,110,107.65,M,Yes,220,,,,220,165,170,-172.5,,170,270,280,282.5,,282.5,672.5,7,SBD,Raw,Russia
Victor Terlita,O,1955-01-01,110,103.3,M,Yes,190,-200,-200,,190,150,,,,150,200,210,220,,220,560,8,SBD,Raw,Moldova
Vladimir Minin,M (40-44),1967-08-29,110,100.6,M,Yes,260,267.5,272.5,,272.5,150,155,-157.5,,155,260,267.5,-272.5,,267.5,695,1,SBD,Raw,Russia
Ekber Kurbanov,M (40-44),1968-02-21,110,107.9,M,Yes,215,230,240,,240,160,-167.5,167.5,,167.5,252.5,-262.5,262.5,,262.5,670,2,SBD,Raw,Russia
Sergei Lishchuk,M (40-44),1967-11-05,110,104.85,M,Yes,190,205,-220,,205,140,145,,,145,220,240,-270,,240,590,3,SBD,Raw,Russia
Valery Ugryumov,M (45-49),1962-10-17,110,102.05,M,Yes,160,170,175,,175,120,127.5,132.5,,132.5,170,180,185,,185,492.5,1,SBD,Raw,Russia
Victor Terlita,M (50-54),1955-01-01,110,103.3,M,Yes,190,-200,-200,,190,150,,,,150,200,210,220,,220,560,1,SBD,Raw,Moldova
Mykola Bryndulya,M (55-59),1953-03-14,110,101.35,M,Yes,160,165,170,,170,120,130,-135,,130,180,195,205,,205,505,1,SBD,Raw,Ukraine
Volodymyr Balakirev,M (60-64),1948-01-08,110,100.3,M,Yes,145,155,160,,160,110,120,,,120,160,170,180,,180,460,1,SBD,Raw,Ukraine
Arthur Stepanov,O,1978-03-08,125,121.9,M,Yes,270,282.5,290,295,290,200,210,215,217.5,215,270,300,,,300,805,1,SBD,Raw,Russia
Sergei Lukyanov,O,1973-05-27,125,114.1,M,Yes,250,265,270,,270,200,212.5,-217.5,,212.5,250,265,,,265,747.5,2,SBD,Raw,Russia
Sergei Strizhov,O,1975-09-30,125,114.5,M,Yes,-200,200,210,,210,180,187.5,-192.5,,187.5,200,225,250,,250,647.5,3,SBD,Raw,Russia
Alexander Teterin,O,1974-11-15,125,121.8,M,Yes,190,,,,190,120,127.5,-132.5,,127.5,240,250,260,,260,577.5,4,SBD,Raw,Russia
Igor Solovey,M (40-44),1967-04-25,125,115.85,M,Yes,-220,220,-230,,220,150,160,,,160,220,230,240,,240,620,1,SBD,Raw,Russia
Alexander Burlakov,M (50-54),1959-01-07,125,120.7,M,Yes,190,202.5,-207.5,,202.5,150,-160,-167.5,,150,185,-195,,,185,537.5,1,SBD,Raw,Russia
Sergei Kirillov,M (50-54),1954-11-08,125,110.1,M,Yes,150,160,170,,170,140,150,-155,,150,170,180,,,180,500,2,SBD,Raw,Russia
Valeriy Shariy,M (60-64),1945-09-29,125,118.35,M,Yes,-120,120,135,,135,105,115,120,,120,150,,,,150,405,1,SBD,Raw,Ukraine
Alexander Stepanenko,O,1974-07-25,140,131.8,M,Yes,-270,270,282.5,,282.5,175,185,190,,190,290,310,322.5,,322.5,795,1,SBD,Raw,Russia
Oleg Vasyuchenko,M (40-44),1968-03-01,140,130.3,M,Yes,250,260,-270,,260,150,165,,,165,260,-290,,,260,685,1,SBD,Raw,Russia
Mikhail Chekushkin,M (45-49),1960-03-17,140,139.95,M,Yes,300,315,322.5,-330,322.5,170,180,-187.5,,180,230,-252.5,-252.5,,230,732.5,1,SBD,Raw,Moldova
Anastasiya Shabanova,T (13-15),1999-11-17,44,40.6,F,Yes,,,,,,20,25,27.5,-30,27.5,,,,,,27.5,1,B,Raw,Russia
Marina Stratova,T (18-19),1990-12-16,44,42,F,Yes,,,,,,47.5,50,-52.5,,50,,,,,,50,1,B,Raw,Russia
Olga Isakova,T (13-15),1994-07-20,48,47.9,F,Yes,,,,,,45,52.5,-55,,52.5,,,,,,52.5,1,B,Raw,Russia
Irina Pokornaya,O,1977-09-11,48,47.85,F,Yes,,,,,,60,65,68,,68,,,,,,68,1,B,Raw,Russia
Nadezhda Reutova,T (16-17),1993-01-30,52,51.75,F,Yes,,,,,,50,52.5,-55,,52.5,,,,,,52.5,1,B,Raw,Russia
Yekaterina Shkolnaya,T (16-17),1993-08-12,52,51.9,F,Yes,,,,,,45,-50,-50,,45,,,,,,45,2,B,Raw,Russia
Anastasiya Mymrina,T (18-19),1990-07-10,52,49.3,F,Yes,,,,,,60,-65,-65,,60,,,,,,60,1,B,Raw,Russia
Nataliya Bubenshchikova,O,1973-09-07,52,51.2,F,Yes,,,,,,57.5,60,-62.5,,60,,,,,,60,1,B,Raw,Russia
Veronika Rudnevskaya,O,1974-04-24,52,52,F,Yes,,,,,,-55,55,-57.5,,55,,,,,,55,2,B,Raw,Russia
Natalya Petriyenko,T (18-19),1989-11-15,56,55.05,F,Yes,,,,,,37.5,40,-42.5,,40,,,,,,40,1,B,Raw,Russia
Polina Turygina,J (20-23),1985-10-19,56,56,F,Yes,,,,,,50,52.5,-55,,52.5,,,,,,52.5,1,B,Raw,Russia
Natalya Goncharova,O,1974-09-06,56,55.2,F,Yes,,,,,,75,-77.5,-77.5,,75,,,,,,75,1,B,Raw,Russia
Olena Kanivets,O,1975-02-12,56,54.8,F,Yes,,,,,,60,65,-67.5,,65,,,,,,65,2,B,Raw,Ukraine
Yekaterina Ivanova,O,1982-11-22,60,59.8,F,Yes,,,,,,82.5,92.5,95,-100,95,,,,,,95,1,B,Raw,Russia
Anastasiya Rakcheyeva,O,1971-01-19,60,58.7,F,Yes,,,,,,85,90,92.5,,92.5,,,,,,92.5,2,B,Raw,Russia
Tatyana Kulagina,O,1972-12-11,60,57.3,F,Yes,,,,,,75,82.5,-87.5,,82.5,,,,,,82.5,3,B,Raw,Russia
Olena Timofeyeva,M (40-44),1968-06-09,60,58.3,F,Yes,,,,,,-50,50,-55,,50,,,,,,50,1,B,Raw,Ukraine
Irina Romasenko,O,1975-12-22,67.5,67.15,F,Yes,,,,,,70,75,-77.5,,75,,,,,,75,1,B,Raw,Russia
Larisa Dernova,O,1971-06-25,67.5,65.9,F,Yes,,,,,,67.5,72.5,-77.5,,72.5,,,,,,72.5,2,B,Raw,Russia
Svetlana Sinacheva,O,1966-12-15,75,74.6,F,Yes,,,,,,85,90,92.5,-95,92.5,,,,,,92.5,1,B,Raw,Russia
Svetlana Sinacheva,M (40-44),1966-12-15,75,74.6,F,Yes,,,,,,85,90,92.5,-95,92.5,,,,,,92.5,1,B,Raw,Russia
Svitlana Sheremenko,M (50-54),1959-03-15,75,72,F,Yes,,,,,,60,65,-67.5,,65,,,,,,65,1,B,Raw,Ukraine
Galina Tsverova,M (75-79),1931-07-31,75,73.4,F,Yes,,,,,,40,-43,45,46,45,,,,,,45,1,B,Raw,Russia
Natalya Bako,O,1973-03-21,82.5,78.6,F,Yes,,,,,,75,82.5,-85,,82.5,,,,,,82.5,1,B,Raw,Russia
Natalya Tsukanova,M (50-54),1956-05-17,82.5,81.2,F,Yes,,,,,,85,90,-95,,90,,,,,,90,1,B,Raw,Ukraine
Jevgeny Dragan,T (16-17),1993-05-29,52,51.5,M,Yes,,,,,,60,70,75,,75,,,,,,75,1,B,Raw,Moldova
Maxim Pokhilko,T (18-19),1991-08-03,52,51.2,M,Yes,,,,,,72.5,75,-77.5,,75,,,,,,75,1,B,Raw,Russia
Fedor Marfin,J (20-23),1988-05-22,52,51.65,M,Yes,,,,,,75,82.5,-92.5,,82.5,,,,,,82.5,1,B,Raw,Russia
Igor Artemyev,O,1971-12-22,52,51.85,M,Yes,,,,,,112.5,117.5,-122.5,,117.5,,,,,,117.5,1,B,Raw,Russia
Nikolai Vanichev,O,1978-10-09,52,51.9,M,Yes,,,,,,95,100,-102.5,,100,,,,,,100,2,B,Raw,Russia
Nikolai Grigoryev,T (13-15),1994-12-22,56,55.8,M,Yes,,,,,,55,60,62.5,,62.5,,,,,,62.5,1,B,Raw,Russia
Anatoly Plakushchenko,T (13-15),1994-03-08,56,55.2,M,Yes,,,,,,50,-55,-55,,50,,,,,,50,2,B,Raw,Moldova
Vadim Ladnyy,T (16-17),1993-03-11,56,55.6,M,Yes,,,,,,70,80,-85,,80,,,,,,80,1,B,Raw,Moldova
Vladimir Ponomarev,J (20-23),1986-07-31,56,53.5,M,Yes,,,,,,105,110,115,,115,,,,,,115,1,B,Raw,Russia
Oleg Artemyev,O,1971-12-22,56,55.85,M,Yes,,,,,,115,120,127.5,,127.5,,,,,,127.5,1,B,Raw,Russia
Pavel Baranov,T (13-15),1993-11-12,60,59.3,M,Yes,,,,,,90,95,97.5,-100,97.5,,,,,,97.5,1,B,Raw,Russia
Vitaly Mikhin,T (13-15),1993-12-11,60,57.8,M,Yes,,,,,,80,87.5,-95,,87.5,,,,,,87.5,2,B,Raw,Russia
Artem Gerasimov,T (16-17),1992-11-02,60,59.8,M,Yes,,,,,,105,-110,110,,110,,,,,,110,1,B,Raw,Russia
Ilya Kozlov,T (16-17),1991-12-29,60,59.8,M,Yes,,,,,,92.5,97.5,100,,100,,,,,,100,2,B,Raw,Russia
Yevgeny Kovalenko,T (16-17),1993-01-01,60,57.35,M,Yes,,,,,,90,95,97.5,,97.5,,,,,,97.5,3,B,Raw,Russia
Sergiy Bragin,T (18-19),1991-02-15,60,59.6,M,Yes,,,,,,127.5,132.5,137.5,140,137.5,,,,,,137.5,1,B,Raw,Ukraine
Igor Cires,T (18-19),1991-06-14,60,59.35,M,Yes,,,,,,100,110,-115,,110,,,,,,110,2,B,Raw,Moldova
Temirlan Margoshvili,T (18-19),1990-11-29,60,60,M,Yes,,,,,,90,95,-100,,95,,,,,,95,3,B,Raw,Russia
Alexei Anfimov,O,1983-05-04,60,59.9,M,Yes,,,,,,125.5,130,-132.5,,130,,,,,,130,1,B,Raw,Russia
Sergei Perevalov,O,1981-03-12,60,60,M,Yes,,,,,,115,-132.5,-132.5,,115,,,,,,115,2,B,Raw,Russia
Oleg Dvoynikov,M (45-49),1960-10-08,60,59.85,M,Yes,,,,,,90,-95,-95,,90,,,,,,90,1,B,Raw,Russia
Nail Mukhayev,T (13-15),1995-02-10,67.5,61.15,M,Yes,,,,,,50,60,,,60,,,,,,60,1,B,Raw,Russia
Vyacheslav Shindin,T (16-17),1993-03-06,67.5,66.45,M,Yes,,,,,,120,-130,,,120,,,,,,120,1,B,Raw,Russia
Anton Gaydayenko,J (20-23),1986-08-12,67.5,67.2,M,Yes,,,,,,130,-135.5,-137.5,,130,,,,,,130,1,B,Raw,Ukraine
Ceyhun Kurbanov,J (20-23),1989-01-31,67.5,65.35,M,Yes,,,,,,110,120,-122.5,,120,,,,,,120,2,B,Raw,Azerbaijan
Yevgeny Grebenshchikov,J (20-23),1988-08-22,67.5,67.25,M,Yes,,,,,,115,-122.5,-130,,115,,,,,,115,3,B,Raw,Russia
Alexander Grebenshchikov,O,1975-08-26,67.5,67.25,M,Yes,,,,,,-145,145,150,-152.5,150,,,,,,150,1,B,Raw,Russia
Ruslan Korotkov,O,1980-12-19,67.5,67.35,M,Yes,,,,,,142.5,-147.5,147.5,,147.5,,,,,,147.5,2,B,Raw,Kazakhstan
Ivan Bastrygin,O,1985-08-26,67.5,65.8,M,Yes,,,,,,130,135,137.5,,137.5,,,,,,137.5,3,B,Raw,Russia
Dmitry Melekhin,O,1980-09-24,67.5,66.4,M,Yes,,,,,,125,130,132.5,,132.5,,,,,,132.5,4,B,Raw,Russia
Aleksander Nikitin,O,1981-02-27,67.5,66.25,M,Yes,,,,,,-130,-130,-130,,,,,,,,,DQ,B,Raw,Russia
Dmitry Kolistratov,O,1977-03-08,67.5,66.9,M,Yes,,,,,,-130,-132.5,-135,,,,,,,,,DQ,B,Raw,Russia
Vladimir Zabolotnev,M (40-44),1968-05-15,67.5,66.6,M,Yes,,,,,,130,135,137.5,,137.5,,,,,,137.5,1,B,Raw,Russia
Alexander Kumanchenko,M (40-44),1969-08-11,67.5,65.9,M,Yes,,,,,,125,-135,-135,,125,,,,,,125,2,B,Raw,Russia
Nikolai Kireyev,M (45-49),1963-09-02,67.5,67.15,M,Yes,,,,,,115,122.5,130,-133,130,,,,,,130,1,B,Raw,Russia
Sergei Kim,M (50-54),1957-01-18,67.5,66.8,M,Yes,,,,,,112.5,117.5,-120,,117.5,,,,,,117.5,1,B,Raw,Russia
Sergei Alampiyev,M (50-54),1957-04-07,67.5,67,M,Yes,,,,,,105,110,-115,,110,,,,,,110,2,B,Raw,Russia
Anatoly Chistyakov,M (65-69),1940-01-29,67.5,62.6,M,Yes,,,,,,65,67.5,-70,,67.5,,,,,,67.5,1,B,Raw,Russia
Alexander Karpenko,T (16-17),1992-04-25,75,73.5,M,Yes,,,,,,120,132.5,135,-140,135,,,,,,135,1,B,Raw,Russia
Grigory Kembike,T (16-17),1993-04-18,75,74,M,Yes,,,,,,-120,-120,-135,,,,,,,,,DQ,B,Raw,Russia
Maxim Vasin,T (18-19),1991-08-10,75,72.1,M,Yes,,,,,,135,142.5,-147.5,,142.5,,,,,,142.5,1,B,Raw,Russia
Dmitry Ushakov,T (18-19),1990-08-06,75,74.85,M,Yes,,,,,,130,135,140,143,140,,,,,,140,2,B,Raw,Russia
Andrei Dudinets,T (18-19),1991-06-02,75,74.45,M,Yes,,,,,,127.5,-135,135,,135,,,,,,135,3,B,Raw,Russia
Sergei Gurkovskiy,T (18-19),1990-08-17,75,71.3,M,Yes,,,,,,120,125,-130,,125,,,,,,125,4,B,Raw,Russia
Yevgeny Sukhovenko,T (18-19),1991-03-14,75,73.8,M,Yes,,,,,,120,122.5,125,,125,,,,,,125,5,B,Raw,Russia
Alexander Oleynik,T (18-19),1991-07-13,75,72.7,M,Yes,,,,,,-100,,,,,,,,,,,DQ,B,Raw,Moldova
Stanislav Kumskov,T (18-19),1989-11-11,75,74.85,M,Yes,,,,,,-125,,,,,,,,,,,DQ,B,Raw,Russia
Anatoly Yarovoy,J (20-23),1986-10-29,75,73.3,M,Yes,,,,,,142.5,147.5,155,-160,155,,,,,,155,1,B,Raw,Russia
Oleg Osipov,J (20-23),1987-05-31,75,73.9,M,Yes,,,,,,135,140,142.5,,142.5,,,,,,142.5,2,B,Raw,Russia
Maxim Bulimin,J (20-23),1987-02-24,75,74,M,Yes,,,,,,132.5,140,142.5,,142.5,,,,,,142.5,3,B,Raw,Russia
Denys Vostrikov,J (20-23),1988-03-28,75,73.55,M,Yes,,,,,,132.5,140,-145,,140,,,,,,140,4,B,Raw,Ukraine
Dilshod Makhmadbekov,J (20-23),1987-04-03,75,74.25,M,Yes,,,,,,-135,140,-145,,140,,,,,,140,5,B,Raw,Russia
Stanislav Milostnoy,O,1978-12-19,75,73.85,M,Yes,,,,,,180,187.5,190,,190,,,,,,190,1,B,Raw,Russia
Alexander Panayev,O,1983-03-11,75,74.9,M,Yes,,,,,,165,175,177.5,,177.5,,,,,,177.5,2,B,Raw,Kazakhstan
Alexander Bulimin,O,1980-10-24,75,74,M,Yes,,,,,,175,-185,-185,,175,,,,,,175,3,B,Raw,Russia
Alexei Noskov,O,1974-02-24,75,74.3,M,Yes,,,,,,155,162.5,165,-167.5,165,,,,,,165,4,B,Raw,Russia
Alexander Perevalov,O,1984-04-14,75,73.3,M,Yes,,,,,,162.5,-172.5,-172.5,,162.5,,,,,,162.5,5,B,Raw,Russia
Anatoly Yarovoy,O,1986-10-29,75,73.3,M,Yes,,,,,,142.5,147.5,155,,155,,,,,,155,6,B,Raw,Russia
Dmitry Rudnev,O,1979-03-10,75,73.65,M,Yes,,,,,,-140,-140,,,,,,,,,,DQ,B,Raw,Russia
Alexander Tatarkin,M (50-54),1955-08-16,75,73.35,M,Yes,,,,,,135,145,150,151,150,,,,,,150,1,B,Raw,Russia
Anatoliy Cherednichenko,M (50-54),1956-09-17,75,75,M,Yes,,,,,,95,105,,,105,,,,,,105,2,B,Raw,Ukraine
Sergiy Bobkov,M (55-59),1953-05-15,75,74,M,Yes,,,,,,80,90,-100,,90,,,,,,90,1,B,Raw,Ukraine
Petro Kravtsov,M (60-64),1946-02-01,75,73,M,Yes,,,,,,110,,,,110,,,,,,110,1,B,Raw,Ukraine
Volodymyr Manchuk,M (65-69),1940-06-03,75,73.7,M,Yes,,,,,,102.5,112.5,-115,,112.5,,,,,,112.5,1,B,Raw,Ukraine
Gennadiy Saprygin,M (70-74),1938-07-01,75,71.65,M,Yes,,,,,,72.5,80,85,,85,,,,,,85,1,B,Raw,Ukraine
Olexandr Kolyadenko,T (13-15),1994-04-22,82.5,79.4,M,Yes,,,,,,90,105,110,-116,110,,,,,,110,1,B,Raw,Ukraine
Yegor Kletsko,T (16-17),1992-01-20,82.5,80.2,M,Yes,,,,,,120,125,130.5,,130.5,,,,,,130,1,B,Raw,Russia
Ivan Anuchin,T (18-19),1990-04-17,82.5,79.6,M,Yes,,,,,,130,140,145,,145,,,,,,145,1,B,Raw,Russia
German Dzhusoyev,T (18-19),1990-12-01,82.5,82.2,M,Yes,,,,,,125,135,142.5,,142.5,,,,,,142.5,2,B,Raw,Russia
Ilya Chudin,T (18-19),1990-06-26,82.5,75.5,M,Yes,,,,,,-115,115,120,,120,,,,,,120,3,B,Raw,Russia
Leonid Yakovlev,J (20-23),1985-11-03,82.5,79.5,M,Yes,,,,,,142.5,150,-155,,150,,,,,,150,1,B,Raw,Russia
Vladyslav Bychok,J (20-23),1985-10-17,82.5,81.55,M,Yes,,,,,,140,150,-155,,150,,,,,,150,2,B,Raw,Ukraine
Mikhail Nagovitsyn,O,1980-11-25,82.5,79.5,M,Yes,,,,,,175,182.5,190,,190,,,,,,190,1,B,Raw,Russia
Andrei Galayda,O,1972-02-07,82.5,81.5,M,Yes,,,,,,175,-180,185,,185,,,,,,185,2,B,Raw,Russia
Vladimir Reshetnikov,O,1960-04-16,82.5,82.35,M,Yes,,,,,,170,180,185,,185,,,,,,185,3,B,Raw,Russia
Mikhail Veber,O,1971-07-29,82.5,82.4,M,Yes,,,,,,180,185,-192.5,,185,,,,,,185,4,B,Raw,Russia
Vladimir Zhukov,O,1985-02-01,82.5,79.1,M,Yes,,,,,,160,167.5,172.5,,172.5,,,,,,172.5,5,B,Raw,Russia
Sergei Popov,O,1974-05-31,82.5,81.6,M,Yes,,,,,,167.5,-172.5,-172.5,,167.5,,,,,,167.5,6,B,Raw,Russia
Andrei Bogatkov,O,1975-05-12,82.5,81.2,M,Yes,,,,,,155,-160,160,,160,,,,,,160,7,B,Raw,Russia
Vladimir Muravyev,M (40-44),1969-02-27,82.5,80.55,M,Yes,,,,,,135,142.5,147.5,-150.5,147.5,,,,,,147.5,1,B,Raw,Russia
Eduard Isakov,M (40-44),1966-07-18,82.5,79.2,M,Yes,,,,,,115,125,-132.5,,125,,,,,,125,2,B,Raw,Russia
Vladimir Reshetnikov,M (45-49),1960-04-16,82.5,82.35,M,Yes,,,,,,170,180,185,190.5,185,,,,,,185,1,B,Raw,Russia
Vyacheslav Piskalov,M (50-54),1958-10-23,82.5,80,M,Yes,,,,,,110,117.5,122.5,,122.5,,,,,,122.5,1,B,Raw,Russia
Vladimir Kornishin,M (55-59),1952-01-04,82.5,76.6,M,Yes,,,,,,105,110,-112.5,,110,,,,,,110,1,B,Raw,Russia
Vladimir Larin,M (55-59),1954-03-13,82.5,80.45,M,Yes,,,,,,100,-107.5,-112.5,,100,,,,,,100,2,B,Raw,Russia
Eldar Tsoriyev,M (60-64),1946-02-17,82.5,82.1,M,Yes,,,,,,132.5,137.5,140,,140,,,,,,140,1,B,Raw,Russia
Yuri Shamray,M (60-64),1945-08-10,82.5,80.6,M,Yes,,,,,,100,-110,110,,110,,,,,,110,2,B,Raw,Ukraine
Alexander Biserov,M (65-69),1943-08-18,82.5,76,M,Yes,,,,,,75,80,82.5,,82.5,,,,,,82.5,1,B,Raw,Russia
Georgy Zaborovskiy,T (16-17),1992-03-01,90,88.35,M,Yes,,,,,,145,155,,,155,,,,,,155,1,B,Raw,Russia
Sergei Razudalov,T (18-19),1990-06-11,90,88.9,M,Yes,,,,,,170,175,-180,,175,,,,,,175,1,B,Raw,Russia
Artem Logunov,T (18-19),1991-01-30,90,88.6,M,Yes,,,,,,173,-177.5,-177.5,,173,,,,,,173,2,B,Raw,Russia
Maxim Udovichenko,T (18-19),1990-09-16,90,86.9,M,Yes,,,,,,155,162.5,-167.5,,162.5,,,,,,162.5,3,B,Raw,Russia
Ruslan Khabibullin,T (18-19),1990-04-26,90,85.75,M,Yes,,,,,,145,155,-162.5,,155,,,,,,155,4,B,Raw,Russia
Olexandr Fedoseyev,T (18-19),1991-01-03,90,87,M,Yes,,,,,,-145,145,-155,,145,,,,,,145,5,B,Raw,Ukraine
Roman Stefanchyshen,J (20-23),1987-06-24,90,89.7,M,Yes,,,,,,170,180,-190,,180,,,,,,180,1,B,Raw,Ukraine
Andrei Makarenkov,J (20-23),1985-11-19,90,89.2,M,Yes,,,,,,160,165,-170,,165,,,,,,165,2,B,Raw,Russia
Alexei Kharauzov,O,1973-10-25,90,88,M,Yes,,,,,,190,-200,-200,,190,,,,,,190,1,B,Raw,Russia
Sergei Zaytsev,O,1977-10-13,90,89.9,M,Yes,,,,,,190,-202,-202.5,,190,,,,,,190,2,B,Raw,Russia
Chingiz Musaev,O,1979-05-03,90,89.4,M,Yes,,,,,,165,170,175,,175,,,,,,175,3,B,Raw,Tajikistan
Alexander Sanakoyev,O,1980-01-17,90,88.85,M,Yes,,,,,,170,-180,-180,,170,,,,,,170,4,B,Raw,Russia
Cabir Ibragimov,O,1985-06-18,90,89.65,M,Yes,,,,,,165,-172.5,-172.5,,165,,,,,,165,5,B,Raw,Azerbaijan
Konstantin Talda,O,1971-01-09,90,90,M,Yes,,,,,,155,-160,,,155,,,,,,155,6,B,Raw,Russia
Sergei Komarov,O,1984-09-16,90,87.6,M,Yes,,,,,,-155,-155,-155,,,,,,,,,DQ,B,Raw,Russia
Sergei Zhukov,M (40-44),1966-11-15,90,89.15,M,Yes,,,,,,160,167.5,,,167.5,,,,,,167.5,1,B,Raw,Russia
Alexander Petrov,M (45-49),1960-07-17,90,89.1,M,Yes,,,,,,170,177.5,-182.5,,177.5,,,,,,177.5,1,B,Raw,Russia
Alexander Leontyev,M (45-49),1961-01-24,90,90,M,Yes,,,,,,155,160,-162.5,,160,,,,,,160,2,B,Raw,Russia
Alexander Ulanov,M (45-49),1964-01-11,90,88.6,M,Yes,,,,,,122.5,127.5,130,,130,,,,,,130,3,B,Raw,Russia
Mykola Samonov,M (45-49),1963-08-04,90,89,M,Yes,,,,,,-150,-155,-155,,,,,,,,,DQ,B,Raw,Ukraine
Vladimir Muran,M (50-54),1957-05-19,90,90,M,Yes,,,,,,150,160,-165,,160,,,,,,160,1,B,Raw,Russia
Vasyl Vashchenko,M (50-54),1959-07-10,90,86.9,M,Yes,,,,,,120,130,132.5,,132.5,,,,,,132.5,2,B,Raw,Ukraine
Olexandr Zaytsev,M (60-64),1949-07-23,90,89.9,M,Yes,,,,,,110,117.5,-122.5,,117.5,,,,,,117.5,1,B,Raw,Ukraine
Vyacheslav Khimchenko,M (65-69),1940-05-05,90,85.3,M,Yes,,,,,,110,115,-120,,115,,,,,,115,1,B,Raw,Ukraine
Stanislav Moskalenko,T (16-17),1992-11-13,100,99.4,M,Yes,,,,,,150,162.5,165,170,165,,,,,,165,1,B,Raw,Russia
Olexandr Fedoseyev,T (18-19),1991-01-03,100,90.2,M,Yes,,,,,,145,155,160,-165,160,,,,,,160,1,B,Raw,Ukraine
Sergei Yurku,T (18-19),1991-08-21,100,98.1,M,Yes,,,,,,130,142.5,-150,,142.5,,,,,,142.5,2,B,Raw,Moldova
Yevgeny Panferov,T (18-19),1991-03-31,100,96.6,M,Yes,,,,,,132.5,140,-147.5,,140,,,,,,140,3,B,Raw,Russia
Aslanbek Kambiyev,J (20-23),1986-12-05,100,91.3,M,Yes,,,,,,165,170,172.5,175,172.5,,,,,,172.5,1,B,Raw,Russia
Ivan Maslov,J (20-23),1986-03-27,100,97.85,M,Yes,,,,,,150,-157.5,-157.5,,150,,,,,,150,2,B,Raw,Russia
Alexander Chekanov,O,1971-12-09,100,93.5,M,Yes,,,,,,180,187.5,190,,190,,,,,,190,1,B,Raw,Russia
Nikolai Solovyev,O,1981-03-21,100,96.95,M,Yes,,,,,,180,-187.5,187.5,,187.5,,,,,,187.5,2,B,Raw,Russia
Maxim Sukhoviyenko,O,1980-06-22,100,100,M,Yes,,,,,,175,187.5,-190,,187.5,,,,,,187.5,3,B,Raw,Russia
Nikolai Romasenko,O,1973-12-19,100,98.8,M,Yes,,,,,,175,185,-187.5,,185,,,,,,185,4,B,Raw,Russia
Alexei Isakov,O,1972-02-16,100,99.5,M,Yes,,,,,,180,-187.5,-187.5,,180,,,,,,180,5,B,Raw,Russia
Alexei Kazerskiy,O,1974-05-19,100,99.4,M,Yes,,,,,,162.5,170,177.5,,177.5,,,,,,177.5,6,B,Raw,Russia
Aslanbek Kambiyev,O,1986-12-05,100,91.3,M,Yes,,,,,,165,170,172.5,,172.5,,,,,,172.5,7,B,Raw,Russia
Dmitry Vorobyev,O,1976-06-10,100,98.4,M,Yes,,,,,,170,-175,-175,,170,,,,,,170,8,B,Raw,Russia
Alexander Safonov,O,1982-05-21,100,99.1,M,Yes,,,,,,152.5,162.5,-170,,162.5,,,,,,162.5,9,B,Raw,Russia
Alexander Velker,O,1983-01-11,100,99.3,M,Yes,,,,,,162.5,-167.5,-167.5,,162.5,,,,,,162.5,10,B,Raw,Russia
Pavel Chidingov,O,1969-07-02,100,98.9,M,Yes,,,,,,-160,-160,-160,,,,,,,,,DQ,B,Raw,Russia
Suren Karapetyan-Mitsenko,O,1982-05-09,100,98,M,Yes,,,,,,-190,-190,-190,,,,,,,,,DQ,B,Raw,Russia
Valery Kurochkin,O,1978-11-09,100,99.25,M,Yes,,,,,,-175,-175,-175,,,,,,,,,DQ,B,Raw,Russia
Alexei Smorkalov,O,1979-05-08,100,100,M,Yes,,,,,,-162.5,-162.5,-162.5,,,,,,,,,DQ,B,Raw,Russia
Dmitry Karelin,M (40-44),1968-09-27,100,97.9,M,Yes,,,,,,165,-170,170,,170,,,,,,170,1,B,Raw,Russia
Nikolai Semenov,M (40-44),1969-03-28,100,100,M,Yes,,,,,,135,142.5,147.5,,147.5,,,,,,147.5,2,B,Raw,Russia
Yevgeny Fadeyev,M (40-44),1967-01-28,100,98.25,M,Yes,,,,,,135,142.5,-147.5,,142.5,,,,,,142.5,3,B,Raw,Russia
Pavel Chidingov,M (40-44),1969-07-02,100,98.9,M,Yes,,,,,,-160,-160,-160,,,,,,,,,DQ,B,Raw,Russia
Vladimir Shibayev,M (45-49),1960-02-05,100,98.85,M,Yes,,,,,,165,175,180,,180,,,,,,180,1,B,Raw,Russia
Volodymyr Chygyrynskiy,M (45-49),1962-12-07,100,95.05,M,Yes,,,,,,110,,,,110,,,,,,110,2,B,Raw,Ukraine
Viktor Mandrygin,M (50-54),1959-08-11,100,99.9,M,Yes,,,,,,160,170,177.5,,177.5,,,,,,177.5,1,B,Raw,Russia
Sergei Panibratov,M (50-54),1958-03-08,100,95,M,Yes,,,,,,165,175,-180,,175,,,,,,175,2,B,Raw,Russia
Sergei Daniyelyan,M (50-54),1958-05-31,100,98.25,M,Yes,,,,,,150,-155,155,,155,,,,,,155,3,B,Raw,Russia
Damir Kuzeyev,M (55-59),1952-05-14,100,99.95,M,Yes,,,,,,162.5,172.5,-177.5,,172.5,,,,,,172.5,1,B,Raw,Russia
Vasyl Borisov,M (65-69),1942-09-28,100,90.1,M,Yes,,,,,,70,77.5,82.5,,82.5,,,,,,82.5,2,B,Raw,Ukraine
Zaur Mustafayev,T (18-19),1991-09-23,110,105.5,M,Yes,,,,,,130,145,-157.5,,145,,,,,,145,1,B,Raw,Russia
Stanislav Shvetsov,J (20-23),1988-02-09,110,107.1,M,Yes,,,,,,190,202.5,207.5,-220.5,207.5,,,,,,207.5,1,B,Raw,Russia
Xazrat Magamedov,J (20-23),1987-04-15,110,108.45,M,Yes,,,,,,150,-160,-160,,150,,,,,,150,2,B,Raw,Azerbaijan
Ibrahim Ibrahimov,O,1981-09-10,110,109.45,M,Yes,,,,,,200,-210,210,-220.5,210,,,,,,210,1,B,Raw,Azerbaijan
Roman Zalyubovskiy,O,1977-10-10,110,102.5,M,Yes,,,,,,187.5,192.5,195,,195,,,,,,195,2,B,Raw,Russia
Alexander Petrov,O,1979-07-19,110,107.6,M,Yes,,,,,,185,195,-200,,195,,,,,,195,3,B,Raw,Russia
Denis Ogloblin,O,1967-05-12,110,108.2,M,Yes,,,,,,187.5,190,-195,,190,,,,,,190,4,B,Raw,Russia
Maxim Baydin,O,1977-08-18,110,106.25,M,Yes,,,,,,180,185,-190,,185,,,,,,185,5,B,Raw,Russia
Mikhail Makarov,O,1975-05-08,110,106.7,M,Yes,,,,,,-175,180,185,,185,,,,,,185,6,B,Raw,Russia
Sergei Mazanov,O,1975-06-18,110,108.9,M,Yes,,,,,,-165,,,,,,,,,,,DQ,B,Raw,Russia
Denis Ogloblin,M (40-44),1967-05-12,110,108.2,M,Yes,,,,,,187.5,190,-195,,190,,,,,,190,1,B,Raw,Russia
Alexei Tereshchenko,M (40-44),1968-02-12,110,109.25,M,Yes,,,,,,167.5,172.5,-175,,172.5,,,,,,172.5,2,B,Raw,Russia
Pavel Vishnitskiy,M (40-44),1964-10-28,110,109.1,M,Yes,,,,,,135,142.5,145,,145,,,,,,145,3,B,Raw,Russia
Andrei Stolbov,M (45-49),1964-05-28,110,109.6,M,Yes,,,,,,160,170,175,,175,,,,,,175,1,B,Raw,Russia
Valery Ugryumov,M (45-49),1962-10-17,110,101.5,M,Yes,,,,,,122.5,130,-135,,130,,,,,,130,2,B,Raw,Russia
Viktor Terlitsa,M (50-54),1955-01-01,110,102.9,M,Yes,,,,,,-150,,,,,,,,,,,DQ,B,Raw,Moldova
Vladimir Gusev,M (50-54),1958-05-13,110,106.8,M,Yes,,,,,,-170,,,,,,,,,,,DQ,B,Raw,Russia
Grachik Yegozaryan,M (55-59),1952-08-10,110,108.8,M,Yes,,,,,,170,180,-187.5,,180,,,,,,180,1,B,Raw,Russia
Volodymyr Balakirev,M (60-64),1948-01-08,110,100.5,M,Yes,,,,,,110,117.5,-122.5,,117.5,,,,,,117.5,1,B,Raw,Ukraine
Sergei Doronin,J (20-23),1986-06-14,125,119.3,M,Yes,,,,,,175,180,192.5,,192.5,,,,,,192.5,1,B,Raw,Russia
Sergei Bolgov,J (20-23),1986-02-20,125,113.3,M,Yes,,,,,,160,170,175,,175,,,,,,175,2,B,Raw,Russia
Andrei Zavgorodniy,O,1981-04-04,125,122.1,M,Yes,,,,,,220,230,-235,,230,,,,,,230,1,B,Raw,Russia
Viktor Kochmar,O,1970-08-17,125,122,M,Yes,,,,,,-205,210,-212.5,,210,,,,,,210,2,B,Raw,Ukraine
Denis Muratov,O,1977-07-28,125,121.8,M,Yes,,,,,,180,190,195,,195,,,,,,195,3,B,Raw,Russia
Yevgeny Butenko,O,1976-04-27,125,120,M,Yes,,,,,,185,-190,-192.5,,185,,,,,,185,4,B,Raw,Russia
Alexei Belousov,O,1972-10-05,125,116.55,M,Yes,,,,,,160,170,-175,,170,,,,,,170,5,B,Raw,Russia
Sergei Kharlamov,M (40-44),1969-05-15,125,113.5,M,Yes,,,,,,175,180,-185,,180,,,,,,180,1,B,Raw,Russia
Yuri Lukyanchik,M (40-44),1967-08-14,125,122.5,M,Yes,,,,,,135,140,-145,,140,,,,,,140,2,B,Raw,Russia
Igor Solovey,M (40-44),1967-04-25,125,117.5,M,Yes,,,,,,-150,,,,,,,,,,,DQ,B,Raw,Russia
Ramil Safarov,M (40-44),1968-04-08,125,120.8,M,Yes,,,,,,-177.5,-180,-187.5,,,,,,,,,DQ,B,Raw,Russia
Pavel Yagovkin,M (50-54),1959-07-27,125,116.7,M,Yes,,,,,,160,170,-180,,170,,,,,,170,1,B,Raw,Russia
Sergei Kirillov,M (50-54),1954-11-08,125,110.1,M,Yes,,,,,,135,140,,,140,,,,,,140,2,B,Raw,Russia
Alexander Mineyev,M (55-59),1953-10-14,125,118.75,M,Yes,,,,,,-90,-90,90,,90,,,,,,90,1,B,Raw,Russia
Andrei Melkozerov,O,1971-11-19,140,127,M,Yes,,,,,,212.5,-220,220,,220,,,,,,220,1,B,Raw,Russia
Denis Kaushanskiy,O,1981-05-12,140,130.9,M,Yes,,,,,,190,-202.5,-202.5,,190,,,,,,190,2,B,Raw,Russia
Vladimir Gazdanov,M (40-44),1965-07-15,140,128,M,Yes,,,,,,-185,185,-200,,185,,,,,,185,1,B,Raw,Russia
Yuri Smirnov,O,1971-12-18,140+,140.1,M,Yes,,,,,,212.5,220,-227.5,,220,,,,,,220,1,B,Raw,Russia
Aleksandr Naumov,O,1975-04-14,140+,145.5,M,Yes,,,,,,185,192.5,200,,200,,,,,,200,2,B,Raw,Russia
Natalya Starygina,O,1986-07-10,56,55.9,F,No,100,110,117.5,,117.5,80,-85,-85,,80,110,122.5,-130,,122.5,320,1,SBD,Raw,Russia
Irina Ignatovich,O,1982-07-20,56,55.9,F,No,110,,,,110,70,75,77.5,,77.5,120,130,-140,,130,317.5,2,SBD,Raw,Russia
Anastasiya Amelina,J (20-23),1988-12-01,60,59.9,F,No,-127.5,127.5,140.5,,140.5,62.5,67.5,70,,70,130,145,152.5,,152.5,363,1,SBD,Raw,Russia
Tetyana Kalugina,O,1980-09-05,60,59.3,F,No,130,140,-145,,140,90,-95,95,,95,150,160,170,,170,405,1,SBD,Raw,Ukraine
Anastasiya Amelina,O,1988-12-01,60,59.9,F,No,-127.5,127.5,140.5,,140.5,62.5,67.5,70,,70,130,145,152.5,-155,152.5,363,2,SBD,Raw,Russia
Yelena Povolotskaya,O,1978-02-16,67.5,67,F,No,140,150,160,,160,85,92.5,97.5,,97.5,180,192.5,202.5,210,202.5,460,1,SBD,Raw,Russia
Liliya Venglovskaya,O,1979-02-23,67.5,66.8,F,No,120,130,-145,,130,87.5,95,-100,,95,130,145,155,,155,380,2,SBD,Raw,Moldova
Mariya Shmyrina,T (18-19),1990-09-19,75,74,F,No,80,90,100,,100,65,70,-72.5,,70,120,130,140,,140,310,1,SBD,Raw,Russia
Inna Yudina,O,1978-06-07,75,73.6,F,No,-80,-80,80,,80,55,-65,-65,,55,100,115,,,115,250,1,SBD,Raw,Ukraine
Olga Mironova,T (18-19),1990-07-05,82.5,81.3,F,No,110,120,130,,130,40,50,52.5,,52.5,110,125,135,,135,317.5,1,SBD,Raw,Russia
Olga Mironova,O,1990-07-05,82.5,81.3,F,No,110,120,130,,130,40,50,52.5,,52.5,110,125,135,,135,317.5,1,SBD,Raw,Russia
Yevgeniy Gansh,T (16-17),1992-04-10,56,55.9,M,No,125,130,-135,,130,80,85,-90,,85,165,175,180,,180,395,1,SBD,Raw,Russia
Asif Beliyev,O,1986-01-25,56,55.5,M,No,110,120,130,135,130,82.5,87.5,,,87.5,150,160,170,,170,387.5,1,SBD,Raw,Azerbaijan
Olexiy Gornyy,T (16-17),1992-09-03,60,58.7,M,No,110,-122.5,122.5,,122.5,80,85,87.5,,87.5,120,132.5,140,150,140,350,1,SBD,Raw,Ukraine
Roman Pyzhyanov,T (18-19),1990-07-01,60,59.7,M,No,132.5,140,147.5,,147.5,95,100,-102.5,,100,170,180,185,,185,432.5,1,SBD,Raw,Russia
Elnur Eminov,O,1979-03-21,60,59.45,M,No,140,160,170,-180,170,100,110,112.5,,112.5,190,210,225,-230,225,507.5,1,SBD,Raw,Azerbaijan
Daniil Fomin,T (16-17),1992-07-20,67.5,64.3,M,No,115,125,132.5,,132.5,82.5,90,95,,95,125,135,142.5,,142.5,370,1,SBD,Raw,Ukraine
Vladimir Ustinov,J (20-23),1986-03-16,67.5,67.5,M,No,185,195,205,,205,125,135,140,,140,195,205,215,,215,560,1,SBD,Raw,Russia
Yuri Kiselev,M (70-74),1937-11-12,67.5,66.4,M,No,95,110,,,110,75,80,,,80,150,170,175,,175,365,1,SBD,Raw,Russia
Vyacheslav Yurov,T (18-19),1991-02-17,75,74.25,M,No,175,182.5,192.5,200,192.5,130,140,-145,,140,200,205,207.5,,207.5,540,1,SBD,Raw,Russia
Yevgeny Dekkert,J (20-23),1989-08-22,75,74.5,M,No,182.5,195,202.5,,202.5,-130,130,-140,,130,240,252.5,260,,260,592.5,1,SBD,Raw,Russia
Denis Grishin,J (20-23),1986-03-05,75,74.6,M,No,190,205,-215.5,,205,135,140,145,,145,220,230,-240,,230,580,2,SBD,Raw,Russia
Dmitry Kelin,J (20-23),1988-05-05,75,74.2,M,No,175,185,190,,190,140,150,152.5,,152.5,215,-227.5,-227.5,,215,557.5,3,SBD,Raw,Russia
Arsen Vardanyan,J (20-23),1987-01-17,75,73.9,M,No,180,-190,200,,200,120,130,135,,135,-220,220,-222.5,,220,555,4,SBD,Raw,Russia
Yevgeny Dekkert,O,1989-08-22,75,74.5,M,No,182.5,195,202.5,,202.5,-130,130,-140,,130,240,252.5,260,,260,592.5,1,SBD,Raw,Russia
Igor Povazhnyuk,O,1974-12-21,75,74.3,M,No,180,192.5,-200,,192.5,137.5,142.5,147.5,,147.5,210,230,-245,,230,570,2,SBD,Raw,Ukraine
Andriy Dyatlov,O,1985-02-28,75,73.9,M,No,170,-182.5,-182.5,,170,140,145,-150,,145,220,235,-255,,235,550,3,SBD,Raw,Ukraine
Eldaniz Ahmadov,O,1976-09-14,75,73.45,M,No,-180,190,200,,200,115,125,-127.5,,125,190,-210,-210,,190,515,4,SBD,Raw,Azerbaijan
Gennady Pereladov,M (70-74),1936-06-06,75,72.9,M,No,110,120,-130,,120,80,85,90,,90,160,170,180,,180,390,1,SBD,Raw,Russia
Sergei Konovalov,O,1987-05-25,82.5,81.4,M,No,230,240,250,,250,190,202.5,210,,210,270,285,292.5,,292.5,752.5,1,SBD,Raw,Russia
Willie Albert,O,1980-08-29,82.5,81.75,M,No,235,245,252.5,,252.5,145,155,160,,160,290,310,317.5,325,317.5,730,2,SBD,Raw,Canada
Samir Shiraliyev,O,1981-08-24,82.5,82.5,M,No,-240,245.5,253,260,253,180,-190,-190,,180,250,260,-270,,260,692.5,3,SBD,Raw,Azerbaijan
Maxim Tomchin,O,1980-11-13,82.5,82.4,M,No,225,240,245.5,-253.5,245.5,150,157.5,-165,,157.5,235,252.5,265,,265,667.5,4,SBD,Raw,Russia
Vladimir Boyarshinov,M (45-49),1961-04-30,82.5,80.25,M,No,150,160,-200,,160,90,110,-115,,110,230,250,-270,,250,520,1,SBD,Raw,Russia
Yuri Chepets,M (65-69),1943-04-19,82.5,79.5,M,No,-190,190,,,190,135,140,145,147.5,145,180,200,,,200,535,1,SBD,Raw,Russia
Vyacheslav Yakushov,M (65-69),1941-09-01,82.5,82.1,M,No,160,165,167.5,,167.5,-105,105,,,105,180,190,200.5,,200.5,472.5,2,SBD,Raw,Russia
Mykola Sergeiev,T (18-19),1991-06-07,90,89.4,M,No,190,205,210,,210,165,175,-180,,175,210,225,235,,235,620,1,SBD,Raw,Ukraine
Alexander Panaskin,T (18-19),1991-06-27,90,89.6,M,No,180,200,-207.5,,200,140,150,160,,160,210,230,-261,,230,590,2,SBD,Raw,Russia
Yevgeny Kravchenko,J (20-23),1986-11-03,90,90,M,No,235,250,255,,255,145,160,162.5,,162.5,305,325,330,,330,747.5,1,SBD,Raw,Russia
Bali Hajiyev,J (20-23),1987-01-30,90,88.8,M,No,220,235,250,,250,155,162.5,167.5,,167.5,280,305,-325,,305,722.5,2,SBD,Raw,Azerbaijan
Vladimir Grigoryev,J (20-23),1986-07-21,90,89.9,M,No,230,-245,-245,,230,150,-160,-160,,150,250,260,,,260,640,3,SBD,Raw,Russia
Kostyantyn Feshchuk,J (20-23),1986-08-15,90,89.8,M,No,-225,-225,-250,,,,,,,,,,,,,,DQ,SBD,Raw,Ukraine
Alexei Merkulov,O,1983-07-24,90,89.75,M,No,255,265,275,,275,200,210,215,,215,260,270,280,,280,770,1,SBD,Raw,Russia
Igor Umerenkov,O,1980-09-13,90,89.7,M,No,235,247.5,255,,255,180,185,190,,190,285,300,305,,305,750,2,SBD,Raw,Russia
Denys Fitkevich,O,1978-04-22,90,88.7,M,No,240,255,270,,270,175,185,195,,195,240,260,280,,280,745,3,SBD,Raw,Ukraine
Ivan Dmitryev,O,1970-08-11,90,89.3,M,No,-230,230,240,,240,170,180,185,,185,300,320,-327.5,,320,745,4,SBD,Raw,Russia
Ivan Vasyunin,O,1983-08-01,90,89.4,M,No,220,245,260,,260,200,210,-220,,210,240,265,275,,275,745,5,SBD,Raw,Russia
Nikolai Kelep,O,1984-03-17,90,88.9,M,No,225,-240,-240,,225,195,-205,205,,205,270,290,-315,,290,720,6,SBD,Raw,Russia
Vladimir Zhabin,O,1980-06-27,90,89.5,M,No,215,230,-240,,230,175,-185,-185,,175,270,282.5,292.5,,292.5,697.5,7,SBD,Raw,Russia
Yuriy Cherednichenko,O,1983-02-06,90,89.9,M,No,240,255,-270,,255,170,-182.5,-182.5,,170,250,265,-280,,265,690,8,SBD,Raw,Ukraine
Vyacheslav Kravchenko,O,1969-12-02,90,89.9,M,No,240,250,260,,260,-150,-150,150,,150,,,,,,,DQ,SBD,Raw,Ukraine
Oleg Vrublevskiy,M (40-44),1968-05-10,90,86.65,M,No,160,-170,170,,170,135,-140,-140,,135,180,195,-200,,195,500,1,SBD,Raw,Russia
Viktor Babenko,M (45-49),1963-09-06,90,89.8,M,No,170,200,210,,210,120,140,150,,150,200,240,250,260,250,610,1,SBD,Raw,Ukraine
Olexandr Baranov,M (50-54),1958-02-06,90,87.9,M,No,165,175,180,,180,105,-115,115,,115,185,205,215,,215,510,1,SBD,Raw,Ukraine
Valery Nugumanov,M (70-74),1939-06-25,90,87.75,M,No,170,180,190,,190,110,-115,115,,115,180,190,,,190,495,1,SBD,Raw,Russia
Hafiz Verdiyev,T (18-19),1990-03-04,100,94.95,M,No,200,225,-235,,225,140,155,-160,,155,240,255,-265,,255,635,1,SBD,Raw,Azerbaijan
Yuri Alexandrov,T (18-19),1990-01-16,100,99.3,M,No,170,180,195,,195,100,110,-117.5,,110,190,205,215,-220,215,520,2,SBD,Raw,Russia
Alexander Mitrofanov,J (20-23),1985-12-29,100,99.75,M,No,250,270,280,,280,170,180,-185,,180,292.5,310,-315,,310,770,1,SBD,Raw,Russia
Sergei Lukyanov,J (20-23),1986-06-02,100,99.55,M,No,250,260,270,,270,170,180,185,,185,280,292.5,300,315,300,755,2,SBD,Raw,Russia
Yevgeny Blinkov,J (20-23),1987-09-03,100,93.75,M,No,-235,235,-250,,235,162.5,172.5,182.5,,182.5,237.5,250,260,,260,677.5,3,SBD,Raw,Russia
Alexander Yukhanov,J (20-23),1985-12-14,100,99.75,M,No,220,230,-240,,230,135,,,,135,270,290,300,,300,665,4,SBD,Raw,Russia
Dmitry Kopyl,J (20-23),1986-03-01,100,97.5,M,No,220,240,-260,,240,-160,160,-180,,160,240,260,-277.5,,260,660,5,SBD,Raw,Russia
Arsen Doga,J (20-23),1987-11-09,100,97.8,M,No,-200,200,-220,,200,-135,140,-150,,140,230,250,-265,,250,590,6,SBD,Raw,Ukraine
Stanislav Miksha,J (20-23),1985-10-23,100,100,M,No,170,182.5,190,,190,140,150,-165,,150,220,-240,-240,,220,560,7,SBD,Raw,Russia
Zakhar Krepitsa,J (20-23),1989-03-30,100,97.1,M,No,-220,-220,-220,,,,,,,,,,,,,,DQ,SBD,Raw,Russia
Andrey Belyaev,O,1983-03-16,100,99,M,No,300,320,,,320,210,220,230,,230,340,355,370,,370,920,1,SBD,Raw,Russia
Andriy Kysil',O,1975-03-21,100,99.3,M,No,315,325,330,,330,230,235,-240,,235,300,-315,-325,,300,865,2,SBD,Raw,Ukraine
Maxym Malyk,O,1983-02-26,100,99.4,M,No,280,300,-310,,300,180,-190,190,,190,280,300,-310,,300,790,3,SBD,Raw,Ukraine
Gegam Kakoyan,O,1984-04-02,100,96.8,M,No,250,265,270,,270,180,190,-195,,190,290,305,315,,315,775,4,SBD,Raw,Russia
Alexander Fedulov,M (40-44),1966-10-01,100,100,M,No,215,225,235,,235,170,180,185,,185,240,250,260,,260,680,1,SBD,Raw,Russia
Boris Vinogradov,M (40-44),1968-11-23,100,96.6,M,No,230,240,245,,245,172.5,177.5,-180,,177.5,245,250,255,,255,677.5,2,SBD,Raw,Russia
Pavel Laptenok,M (55-59),1953-01-26,100,100,M,No,170,180,,,180,125,132.5,137.5,,137.5,180,202.5,210,,210,527.5,1,SBD,Raw,Russia
Alexander Andrianov,M (65-69),1944-09-04,100,94.2,M,No,120,150,180,,180,130,140,,,140,160,180,190,,190,510,1,SBD,Raw,Russia
Maxim Maslennikov,T (18-19),1991-02-05,110,105.5,M,No,220,230,250,,250,180,190,200,,200,240,260,290,,290,740,1,SBD,Raw,Russia
Mikhail Sekov,J (20-23),1986-09-01,110,102.95,M,No,280,-287.5,290,,290,-190,190,-200,,190,295,305,-315,,305,785,1,SBD,Raw,Russia
Sergei Yaroshenko,J (20-23),1986-03-05,110,109.7,M,No,260,-270,-270,,260,-210,215,220,227.5,220,270,290,-315,,290,770,2,SBD,Raw,Russia
Sergei Padabed,J (20-23),1985-11-13,110,107.8,M,No,250,260,-265,,260,190,200,-207.5,,200,270,282.5,-285,,282.5,742.5,3,SBD,Raw,Russia
Stanislav Smolyanyk,J (20-23),1989-05-18,110,102,M,No,260,280,-290,,280,190,-200,-200,,190,270,-290,-290,,270,740,4,SBD,Raw,Ukraine
Sergei Starodubskiy,O,1977-12-20,110,109.45,M,No,300,-330,-332.5,,300,215,-227.5,-227.5,,215,300,320,330,,330,845,1,SBD,Raw,Russia
Mikhail Brylin,O,1984-04-19,110,109.5,M,No,275,-290,-290,,275,190,202.5,-210,,202.5,305,330,340,-350,340,817.5,2,SBD,Raw,Russia
Andrei Ayvazov,O,1982-11-07,110,105.95,M,No,260,280,300,,300,175,185,-195,,185,300,320,330,,330,815,3,SBD,Raw,Russia
Oleg Chernyavskiy,O,1967-05-24,110,110,M,No,260,280,290,,290,190,200,205,,205,280,300,310,,310,805,4,SBD,Raw,Russia
Nera Jay,O,1982-07-07,110,107.65,M,No,282.5,295,302.5,,302.5,185,195,-197.5,,195,275,300,-315,,300,797.5,5,SBD,Raw,Canada
Oleg Chernyavskiy,M (40-44),1967-05-24,110,110,M,No,260,280,290,,290,190,200,205,,205,280,300,310,,310,805,1,SBD,Raw,Russia
Andrei Kovtunov,M (40-44),1969-04-14,110,107.65,M,No,220,240,250,,250,180,-200,-200,,180,230,250,270,,270,700,2,SBD,Raw,Russia
Vladimir Ladeyshchikov,M (40-44),1967-08-21,110,104.25,M,No,210,220,230,,230,140,-150,150,,150,220,235,250,,250,630,3,SBD,Raw,Russia
Andriy Gimbarov,M (40-44),1966-10-01,110,106,M,No,90,-120,,,90,,,,,,,,,,,,DQ,SBD,Raw,Ukraine
Ruslan Akhmetov,M (45-49),1960-04-11,110,107.2,M,No,210,230,250,,250,120,140,,,140,200,230,,,230,620,1,SBD,Raw,Russia
Valentin Savelyev,M (55-59),1950-07-26,110,102.65,M,No,140,-160,-170,,140,120,-140,,,120,160,190,220,,220,480,1,SBD,Raw,Russia
Ilya Kasko,J (20-23),1989-05-25,125,114.25,M,No,200,210,-215,,210,150,160,170,,170,230,250,260,,260,640,1,SBD,Raw,Russia
Rufat Agaev,O,1975-08-16,125,112.8,M,No,300,320,332.5,,332.5,210,217.5,222.5,,222.5,327.5,352.5,360,,360,915,1,SBD,Raw,Azerbaijan
Kamo Simonyan,O,1971-02-25,125,115.4,M,No,310,330,350,,350,210,222.5,-230,,222.5,310,335,-342.5,,335,907.5,2,SBD,Raw,Russia
Andrei Petrov,O,1981-09-30,125,114.3,M,No,300,310,-320,,310,200,205,-210,,205,270,285,292.5,,292.5,807.5,3,SBD,Raw,Russia
Vasiliy Mazur,O,1984-01-28,125,110.6,M,No,260,280,-300,,280,200,-205,-205,,200,300,310,-327.5,,310,790,4,SBD,Raw,Moldova
Andrei Kukhnevskiy,O,1981-11-30,125,118.4,M,No,-280,-280,280,,280,220,-230,-230,,220,280,-300,,,280,780,5,SBD,Raw,Russia
Amirkhan Shomakhov,M (40-44),1965-11-23,125,123.75,M,No,-250,,,,-250,,,,,,,,,,,,DQ,SBD,Raw,Russia
Nikolai Chernov,M (45-49),1961-08-15,125,119.9,M,No,-245,-245,245,,245,-160,-160,170,,170,245,260,-270,,260,675,1,SBD,Raw,Russia
Alexander Tsvetayev,J (20-23),1987-11-08,140,132.25,M,No,260,270,-275,,270,192.5,-197.5,197.5,,197.5,285,,,,285,752.5,1,SBD,Raw,Russia
Mikhail Bashkov,J (20-23),1985-11-14,140,128,M,No,230,-250,-250,,230,155,170,175,,175,250,270,290,-300,290,695,2,SBD,Raw,Russia
Andriy Grin,O,1968-12-17,140,129.5,M,No,290,310,320,,320,230,-235,235,,235,290,-310,-310,,290,845,1,SBD,Raw,Ukraine
Igor Lomov,O,1970-10-29,140,135.3,M,No,-280,280,300,310,300,210,220,230,237.5,230,300,312.5,-320,,312.5,842.5,2,SBD,Raw,Russia
Konstantīn Konstantīnovs,O,1978-11-29,140,129,M,No,200,,,,200,200,230,,,230,410,,-420,,410,840,3,SBD,Raw,Latvia
Andriy Grin,M (40-44),1968-12-17,140,129.5,M,No,290,310,320,,320,230,-235,235,,235,290,-310,-310,,290,845,1,SBD,Raw,Ukraine
Kirill Sarychev,J (20-23),1989-01-01,140+,150.2,M,No,200,,,,200,260,275,285,,285,300,,,,300,785,1,SBD,Raw,Russia
Valeriy Snigirev,O,1977-06-10,140+,140.1,M,No,300,320,335,,335,230,240,250,,250,320,335,-350,,335,920,1,SBD,Raw,Russia
Roman Polyakov,O,1975-10-30,140+,148,M,No,-290,290,320,,320,220,230,250,,250,280,300,-320,,300,870,2,SBD,Raw,Russia
Kirill Sarychev,O,1989-01-01,140+,150.2,M,No,200,,,,200,260,275,285,,285,300,,,,300,785,3,SBD,Raw,Russia
Vuqar Namazov,O,1979-09-18,140+,146.9,M,No,-335,-335,-335,,,,,,,,,,,,,,DQ,SBD,Raw,Azerbaijan
Yevgeniya Stefanova,T (18-19),1991-08-24,44,42.5,F,No,,,,,,37.5,40,-42.5,,40,,,,,,40,1,B,Raw,Ukraine
Svetlana Solodilova,J (20-23),1988-03-24,48,46.85,F,No,,,,,,45,-50,-50,,45,,,,,,45,1,B,Raw,Russia
Agnessa Antipova,O,1988-03-09,52,51.9,F,No,,,,,,70,-75,75,,75,,,,,,75,1,B,Raw,Russia
Alla Semenova,O,1983-04-12,52,50.3,F,No,,,,,,50,55,-60,,55,,,,,,55,2,B,Raw,Russia
Natalya Starygina,O,1986-07-10,56,56,F,No,,,,,,77.5,82.5,-87.5,,82.5,,,,,,82.5,1,B,Raw,Russia
Alena Podelko,T (18-19),1990-09-19,60,58.2,F,No,,,,,,50,55,-60,,55,,,,,,55,1,B,Raw,Russia
Tetyana Kalugina,O,1980-09-05,60,58.6,F,No,,,,,,92.5,97.5,-100,,97.5,,,,,,97.5,1,B,Raw,Ukraine
Tatyana Bako,O,1979-05-23,60,60,F,No,,,,,,65,-67.5,67.5,,67.5,,,,,,67.5,2,B,Raw,Russia
Natalya Konovalova,O,1988-09-14,60,58,F,No,,,,,,-102.5,-102.5,-102.5,,,,,,,,,DQ,B,Raw,Russia
Lovtsova Natalya,J (20-23),1986-05-26,67.5,64.2,F,No,,,,,,90,100,-105,,100,,,,,,100,1,B,Raw,Russia
Irina Petrovich,O,1984-04-04,67.5,66.3,F,No,,,,,,105,117.5,120,,120,,,,,,120,1,B,Raw,Belarus
Liliya Venglovskaya,O,1979-02-23,67.5,67.4,F,No,,,,,,90,97.5,-100,,97.5,,,,,,97.5,2,B,Raw,Moldova
Maryna Khristoforova,O,1966-04-22,67.5,63.7,F,No,,,,,,90,95,-100,,95,,,,,,95,3,B,Raw,Ukraine
Maryna Khristoforova,M (40-44),1966-04-22,67.5,63.7,F,No,,,,,,90,95,-100,,95,,,,,,95,1,B,Raw,Ukraine
Nadezhda Shabanova,M (55-59),1954-05-26,67.5,65.1,F,No,,,,,,57.5,62.5,65,,65,,,,,,65,1,B,Raw,Russia
Mariya Shmyrina,T (18-19),1990-09-19,75,74.2,F,No,,,,,,65,70,72.5,,72.5,,,,,,72.5,1,B,Raw,Russia
Svetlana Odintsova,O,1966-07-26,75,74.3,F,No,,,,,,87.5,92.5,95,,95,,,,,,95,1,B,Raw,Russia
Svetlana Odintsova,M (40-44),1966-07-26,75,74.3,F,No,,,,,,87.5,92.5,95,,95,,,,,,95,1,B,Raw,Russia
Anna Turaeva,O,1978-08-18,82.5,75.8,F,No,,,,,,115,125,132.5,,132.5,,,,,,132.5,1,B,Raw,Russia
Inna Yudina,O,1978-06-07,82.5,75.5,F,No,,,,,,55,62.5,-70,,62.5,,,,,,62.5,2,B,Raw,Ukraine
Oleg Gorbunov,T (18-19),1990-07-01,52,50.6,M,No,,,,,,100,-110,-110,,100,,,,,,100,1,B,Raw,Ukraine
Yuri Klochkov,M (65-69),1942-01-16,52,51.5,M,No,,,,,,65,70,75,-77.5,75,,,,,,75,1,B,Raw,Russia
Anton Leshchyk,J (20-23),1988-08-30,56,56,M,No,,,,,,100,110,-115,,110,,,,,,110,1,B,Raw,Ukraine
Asif Beliyev,O,1986-01-25,56,56,M,No,,,,,,80,85,90,,90,,,,,,90,1,B,Raw,Azerbaijan
Olexiy Gornyy,T (16-17),1992-09-03,60,58,M,No,,,,,,-80,85,-90.5,,85,,,,,,85,1,B,Raw,Ukraine
Eduard Cernat,J (20-23),1989-08-29,60,58.5,M,No,,,,,,107.5,115,-120,,115,,,,,,115,1,B,Raw,Moldova
Daniil Fomin,T (16-17),1992-07-20,67.5,63.4,M,No,,,,,,82.5,90,95,,95,,,,,,95,1,B,Raw,Ukraine
Vladimir Ustinov,J (20-23),1986-03-16,67.5,67.5,M,No,,,,,,125,135,142.5,-147.5,142.5,,,,,,142.5,1,B,Raw,Russia
Ilham Allahverdiyev,O,1982-07-24,67.5,66.9,M,No,,,,,,150,160,-170,,160,,,,,,160,1,B,Raw,Azerbaijan
Alexander Rode,O,1981-04-14,67.5,67,M,No,,,,,,136,-152.5,,,136,,,,,,136,2,B,Raw,Russia
Alexei Lyapustin,M (45-49),1961-11-28,67.5,66.4,M,No,,,,,,-130,-130,130,,130,,,,,,130,1,B,Raw,Russia
Yuri Kiselev,M (70-74),1937-11-12,67.5,67,M,No,,,,,,75,80,,,80,,,,,,80,1,B,Raw,Russia
Alexei Manyukov,T (13-15),1994-07-08,75,72.3,M,No,,,,,,80,85,-90,,85,,,,,,85,1,B,Raw,Russia
Maxym Golovin,T (16-17),1993-05-22,75,73.6,M,No,,,,,,107.5,117.5,-120.5,,117.5,,,,,,117.5,1,B,Raw,Ukraine
Vyacheslav Yurov,T (18-19),1991-02-17,75,73.8,M,No,,,,,,130,-140,145,146,145,,,,,,145,1,B,Raw,Russia
Dmitry Kelin,J (20-23),1988-05-05,75,74.6,M,No,,,,,,140,150,-155,,150,,,,,,150,1,B,Raw,Russia
Arsen Vardanyan,J (20-23),1987-01-17,75,74,M,No,,,,,,120,130,-140,,130,,,,,,130,2,B,Raw,Russia
Sergei Grishko,O,1980-01-07,75,73,M,No,,,,,,190,200,-207.5,,200,,,,,,200,1,B,Raw,Russia
Sergei Krastelev,O,1983-03-10,75,75,M,No,,,,,,170,177.5,182.5,,182.5,,,,,,182.5,2,B,Raw,Russia
Ramin Rzayev,O,1980-07-24,75,73.2,M,No,,,,,,160,172.5,-177.5,,172.5,,,,,,172.5,3,B,Raw,Azerbaijan
Andriy Kudryavtsev,O,1974-03-09,75,73,M,No,,,,,,-162.5,170,-177.5,,170,,,,,,170,4,B,Raw,Ukraine
Roman Zuzuk,O,1971-07-04,75,73.85,M,No,,,,,,-170,170,-182.5,,170,,,,,,170,5,B,Raw,Ukraine
Gennadiy Pereladov,M (70-74),1936-06-06,75,73,M,No,,,,,,85,90,-95,,90,,,,,,90,6,B,Raw,Russia
Anton Pinchuk,O,1984-03-26,82.5,81.9,M,No,,,,,,200,212.5,217.5,,217.5,,,,,,217.5,1,B,Raw,Russia
Alexander Dudnikov,O,1982-03-11,82.5,82.5,M,No,,,,,,200,207.5,-218,,207.5,,,,,,207.5,2,B,Raw,Russia
Sergei Konovalov,O,1987-05-25,82.5,82,M,No,,,,,,202.5,-207.5,-215,,202.5,,,,,,202.5,3,B,Raw,Russia
Maxim Netkach,O,1978-03-23,82.5,82.5,M,No,,,,,,185,195,-200,,195,,,,,,195,4,B,Raw,Russia
Ali Asgarov,O,1985-02-09,82.5,81.15,M,No,,,,,,170,180,-185,,180,,,,,,180,5,B,Raw,Azerbaijan
Nikolai Mikheyev,O,1984-05-22,82.5,81.6,M,No,,,,,,165,175,-185,,175,,,,,,175,6,B,Raw,Russia
Sarkhan Aliyev,O,1983-11-22,82.5,82.25,M,No,,,,,,160,-170,,,160,,,,,,160,7,B,Raw,Azerbaijan
Artem Arkhipov,O,1982-03-24,82.5,78.95,M,No,,,,,,-177.5,-177.5,-180,,,,,,,,,DQ,B,Raw,Russia
Dmitry Kukharenko,M (40-44),1969-01-22,82.5,82.1,M,No,,,,,,160,165,170,175,170,,,,,,170,1,B,Raw,Russia
Georgy Avdonin,M (40-44),1969-09-10,82.5,82.4,M,No,,,,,,150,155,-165.5,,155,,,,,,155,2,B,Raw,Russia
Valery Stoyanov,M (50-54),1957-11-25,82.5,79.15,M,No,,,,,,100,110,115,,115,,,,,,115,1,B,Raw,Russia
Boris Kuznetsov,M (50-54),1958-01-09,82.5,81.7,M,No,,,,,,-130,-130,-130,,,,,,,,,DQ,B,Raw,Russia
Sergei Druzhkov,M (55-59),1950-01-01,82.5,82.25,M,No,,,,,,130,140,-145,,140,,,,,,140,1,B,Raw,Russia
Yuri Chepets,M (65-69),1943-04-19,82.5,78.8,M,No,,,,,,135,140,142.5,,142.5,,,,,,142.5,1,B,Raw,Russia
Mykola Sergeiev,T (18-19),1991-06-07,90,88,M,No,,,,,,165,175,-180,,175,,,,,,175,1,B,Raw,Ukraine
Svyatoslav Gaysin,J (20-23),1989-08-02,90,89,M,No,,,,,,185,200,207.5,,207.5,,,,,,207.5,1,B,Raw,Russia
Yevgeny Batorevich,J (20-23),1986-11-28,90,89,M,No,,,,,,165,-175,-175,,165,,,,,,165,2,B,Raw,Russia
Sergei Koshkin,O,1971-09-28,90,86.9,M,No,,,,,,220,-227.5,-232.5,,220,,,,,,220,1,B,Raw,Russia
Ivan Vasyunin,O,1983-08-01,90,89.25,M,No,,,,,,202.5,207.5,-222.5,,207.5,,,,,,207.5,2,B,Raw,Russia
Petr Selivanov,O,1970-09-10,90,87.9,M,No,,,,,,195,205,-212.5,,205,,,,,,205,3,B,Raw,Russia
Nikolai Kelep,O,1984-03-17,90,89.1,M,No,,,,,,202.5,-205,-207.5,,202.5,,,,,,202.5,4,B,Raw,Russia
Mykola Sanin,O,1983-05-27,90,89.8,M,No,,,,,,190,-205,,,190,,,,,,190,5,B,Raw,Ukraine
Oleg Zamchalov,O,1977-07-12,90,88.5,M,No,,,,,,-185,185,-192.5,,185,,,,,,185,6,B,Raw,Russia
Alexander Shcherbakov,M (40-44),1966-07-28,90,89.5,M,No,,,,,,185,195,207.5,,207.5,,,,,,207.5,1,B,Raw,Moldova
Sergei Chechulin,M (40-44),1966-12-09,90,89,M,No,,,,,,152.5,160,165,,165,,,,,,165,2,B,Raw,Russia
Vyacheslav Gorbunov,M (40-44),1990-07-01,90,86.6,M,No,,,,,,150,157.5,-162.5,,157.5,,,,,,157.5,3,B,Raw,Ukraine
Viktor Babenko,M (45-49),1963-09-06,90,88.8,M,No,,,,,,135,145,-160,,145,,,,,,145,1,B,Raw,Ukraine
Igor Shubin,M (45-49),1964-03-29,90,89.4,M,No,,,,,,130,-140,-140,,130,,,,,,130,2,B,Raw,Ukraine
Olexandr Baranov,M (50-54),1958-02-06,90,88,M,No,,,,,,100,105,110,,110,,,,,,110,1,B,Raw,Ukraine
Vasily Mertsalov,M (60-64),1946-10-27,90,88.7,M,No,,,,,,132.5,-142.5,142.5,-150,142.5,,,,,,142.5,1,B,Raw,Russia
Fedor Chesnokov,M (60-64),1947-02-16,90,87,M,No,,,,,,130,140,-145,,140,,,,,,140,2,B,Raw,Russia
Vyacheslav Yakushov,M (65-69),1941-09-01,90,83,M,No,,,,,,100,108,-110,,108,,,,,,108,1,B,Raw,Russia
Vladimir Malyshev,M (70-74),1936-09-07,90,84.9,M,No,,,,,,125,132.5,-135,,132.5,,,,,,132.5,1,B,Raw,Russia
Valery Nugumanov,M (70-74),1939-06-25,90,87.75,M,No,,,,,,115,120,125,,125,,,,,,125,2,B,Raw,Russia
Alexander Panaskin,T (18-19),1991-06-27,100,93.5,M,No,,,,,,140,155,165,-171,165,,,,,,165,1,B,Raw,Russia
Alexander Borshchev,J (20-23),1986-03-24,100,94.5,M,No,,,,,,190,205,215,-217.5,215,,,,,,215,1,B,Raw,Russia
Vadim Kakhuta,O,1981-08-15,100,97.7,M,No,,,,,,240,250,-255,,250,,,,,,250,1,B,Raw,Russia
Igor Kushin,O,1966-01-30,100,99.5,M,No,,,,,,240,250,-255,,250,,,,,,250,2,B,Raw,Russia
Vasily Fedyayev,O,1982-10-26,100,98.8,M,No,,,,,,225,235,-252.5,,235,,,,,,235,3,B,Raw,Russia
Rene Imesch,O,1963-04-19,100,95.95,M,No,,,,,,220,230,-235,,230,,,,,,230,4,B,Raw,Switzerland
Sergei Popov,O,1977-01-05,100,99.75,M,No,,,,,,215,-227.5,-227.5,,215,,,,,,215,5,B,Raw,Russia
Sergei Lygin,O,1979-10-23,100,98.3,M,No,,,,,,200,210,-220,,210,,,,,,210,6,B,Raw,Russia
Stanislav Dmitryuk,O,1975-04-19,100,99.3,M,No,,,,,,210,-220,-220,,210,,,,,,210,7,B,Raw,Russia
Sergey Didovyk,O,1978-01-20,100,99.4,M,No,,,,,,210,-222.5,-222.5,,210,,,,,,210,8,B,Raw,Ukraine
Alexander Popov,O,1984-07-19,100,92.4,M,No,,,,,,-190,-190,,,,,,,,,,DQ,B,Raw,Russia
Maxim Kubyshkin,O,1985-02-13,100,99,M,No,,,,,,-205,-215,,,,,,,,,,DQ,B,Raw,Russia
Azamat Kochkarov,O,1983-07-18,100,99.7,M,No,,,,,,-200,-200,-200,,,,,,,,,DQ,B,Raw,Russia
Igor Kushin,M (40-44),1966-01-30,100,99.5,M,No,,,,,,240,250,-255,,250,,,,,,250,1,B,Raw,Russia
Boris Vinogradov,M (40-44),1968-11-23,100,96,M,No,,,,,,160,165,170,,170,,,,,,170,2,B,Raw,Russia
Alexander Fedulov,M (40-44),1966-10-01,100,99,M,No,,,,,,-175,,,,,,,,,,,DQ,B,Raw,Russia
Rene Imesch,M (45-49),1963-04-19,100,95.25,M,No,,,,,,220,230,-235,,230,,,,,,230,2,B,Raw,Switzerland
Alexander Dmitryev,M (45-49),1964-08-01,100,100,M,No,,,,,,200,210,-220,,210,,,,,,210,1,B,Raw,Russia
Olexiy Khromenkov,M (50-54),1957-10-02,100,97,M,No,,,,,,122.5,127.5,132.5,,132.5,,,,,,132.5,1,B,Raw,Ukraine
Pavel Laptenok,M (55-59),1953-01-26,100,100,M,No,,,,,,130,140,145,,145,,,,,,145,1,B,Raw,Russia
Vladimir Bolshov,M (60-64),1947-09-30,100,93.4,M,No,,,,,,120,125,-130,,125,,,,,,125,1,B,Raw,Russia
Alexander Andrianov,M (65-69),1944-09-04,100,94.2,M,No,,,,,,130,142.5,-150,,142.5,,,,,,142.5,1,B,Raw,Russia
Alexander Darsht,J (20-23),1987-12-10,110,102.5,M,No,,,,,,220,230,232.5,,232.5,,,,,,232.5,1,B,Raw,Russia
Sergei Yaroshenko,J (20-23),1986-03-05,110,109.1,M,No,,,,,,210,227.5,-232.5,,227.5,,,,,,227.5,2,B,Raw,Russia
Valentin Trepshin,J (20-23),1987-06-10,110,108.3,M,No,,,,,,185,197.5,210,,210,,,,,,210,3,B,Raw,Russia
Stanislav Smolyanyk,J (20-23),1989-05-18,110,106,M,No,,,,,,-190,-190,-200,,,,,,,,,DQ,B,Raw,Ukraine
Zoltán Csepregi,O,1975-02-08,110,106.8,M,No,,,,,,230,240,-245,,240,,,,,,240,1,B,Raw,Hungary
Sergiy Polutin,O,1975-08-17,110,107.3,M,No,,,,,,225,232.5,235,,235,,,,,,235,2,B,Raw,Ukraine
Sergei Seleznev,O,1985-02-22,110,107.6,M,No,,,,,,220,235,-242.5,,235,,,,,,235,3,B,Raw,Russia
Andrei Luchkov,O,1965-12-13,110,109.8,M,No,,,,,,222.5,232.5,-237.5,,232.5,,,,,,232.5,4,B,Raw,Russia
Oleg Saydentsal,O,1975-03-14,110,106.5,M,No,,,,,,215,230,-237.5,,230,,,,,,230,5,B,Raw,Russia
Yaroslav Dunay,O,1978-02-19,110,106.2,M,No,,,,,,210,-220,-220,,210,,,,,,210,6,B,Raw,Ukraine
Igor Chistyakov,O,1975-06-05,110,107.8,M,No,,,,,,200,-205,-205,,200,,,,,,200,7,B,Raw,Russia
Mikhail Ignatyev,O,1971-07-10,110,107,M,No,,,,,,-202.5,,,,,,,,,,,DQ,B,Raw,Russia
Yevgeny Matasov,O,1971-07-27,110,107.4,M,No,,,,,,-270,-270,,,,,,,,,,DQ,B,Raw,Russia
Nikolai Orlov,O,1971-01-05,110,108.5,M,No,,,,,,-220,-220,-220,,,,,,,,,DQ,B,Raw,Russia
Alexander Tretyakov,M (40-44),1967-06-14,110,106.8,M,No,,,,,,215,225,232.5,-240,232.5,,,,,,232.5,1,B,Raw,Russia
Andrei Luchkov,M (40-44),1965-12-13,110,109.8,M,No,,,,,,222.5,232.5,,,232.5,,,,,,232.5,2,B,Raw,Russia
Vyacheslav Rakhmanov,M (40-44),1968-07-25,110,107.3,M,No,,,,,,-210,-210,-210,,,,,,,,,DQ,B,Raw,Russia
Andrei Samoylov,M (45-49),1961-10-08,110,108.2,M,No,,,,,,205,215,220,,220,,,,,,220,1,B,Raw,Russia
Pavel Petrenko,M (45-49),1964-04-24,110,107.5,M,No,,,,,,180,190,,,190,,,,,,190,2,B,Raw,Russia
Pavel Tityayev,M (45-49),1962-10-03,110,110,M,No,,,,,,180,-190,,,180,,,,,,180,3,B,Raw,Russia
Ruslan Akhmetov,M (45-49),1960-04-11,110,106.4,M,No,,,,,,120,160,,,160,,,,,,160,1,B,Raw,Russia
Konstantin Bobrov,M (50-54),1957-05-10,110,109,M,No,,,,,,200,210,-215,,210,,,,,,210,1,B,Raw,Russia
Viktor Pozdnyakov,M (50-54),1958-12-12,110,106.3,M,No,,,,,,180,190,,,190,,,,,,190,2,B,Raw,Russia
Vladimir Gusev,M (50-54),1958-05-13,110,106.8,M,No,,,,,,175,-182.5,-182.5,,175,,,,,,175,3,B,Raw,Russia
Yuri Pokhvashchev,M (55-59),1954-01-28,110,109,M,No,,,,,,180,190,-195,,190,,,,,,190,1,B,Raw,Russia
Valentin Savelyev,M (55-59),1950-07-26,110,102.65,M,No,,,,,,-120,,,,,,,,,,,DQ,B,Raw,Russia
Dmitry Krymskiy,T (18-19),1989-10-31,125,111.2,M,No,,,,,,170,-180,180,-185,180,,,,,,180,1,B,Raw,Russia
László Mészáros,O,1968-12-30,125,125,M,No,,,,,,270,285,300,,300,,,,,,300,1,B,Raw,Hungary
Oleg Kushnarev,O,1973-03-14,125,112,M,No,,,,,,240,250,260,,260,,,,,,260,2,B,Raw,Russia
Evgeniy Zheltenko,O,1982-04-21,125,114,M,No,,,,,,-245,245,-250,,245,,,,,,245,3,B,Raw,Russia
Bakhtiyar Velibekov,O,1971-03-01,125,118.1,M,No,,,,,,230,245,-250,,245,,,,,,245,4,B,Raw,Russia
Sergei Molchanov,O,1973-03-15,125,124.6,M,No,,,,,,-230,230,240,,240,,,,,,240,5,B,Raw,Russia
Fedor Korolev,O,1980-07-03,125,122,M,No,,,,,,220,230,237.5,,237.5,,,,,,237.5,6,B,Raw,Russia
Dmitry Bubnov,O,1973-10-14,125,114.5,M,No,,,,,,210,-222.5,222.5,,222.5,,,,,,222.5,7,B,Raw,Russia
Vladimir Surkov,O,1972-05-07,125,113.5,M,No,,,,,,210,-220,,,210,,,,,,210,8,B,Raw,Russia
Vladislav Manyukov,O,1972-08-27,125,120,M,No,,,,,,195,205,-212.5,,205,,,,,,205,9,B,Raw,Russia
Artem Dolinyan,O,1978-06-19,125,123,M,No,,,,,,-230,-230,,,,,,,,,,DQ,B,Raw,Russia
Vyacheslav Prikhodko,M (40-44),1968-10-15,125,122.6,M,No,,,,,,215,-222.5,222.5,,222.5,,,,,,222.5,1,B,Raw,Russia
Lev Chernykh,M (40-44),1966-08-01,125,121,M,No,,,,,,190,200,-215,,200,,,,,,200,2,B,Raw,Russia
Andriy Gimbarov,M (40-44),1966-10-01,125,110.2,M,No,,,,,,150,160,170,,170,,,,,,170,3,B,Raw,Ukraine
Oleg Khapayev,M (45-49),1964-05-23,125,116.4,M,No,,,,,,200,-205,215,,215,,,,,,215,1,B,Raw,Russia
Viktor Kozlov,M (45-49),1963-03-23,125,120,M,No,,,,,,215,-220,-220,,215,,,,,,215,2,B,Raw,Russia
Igor Podelko,M (45-49),1964-05-26,125,113.2,M,No,,,,,,155,162.5,167.5,,167.5,,,,,,167.5,3,B,Raw,Russia
Mikhail Toropov,M (45-49),1960-08-09,125,112.9,M,No,,,,,,-142.5,155,-162.5,,155,,,,,,155,4,B,Raw,Russia
Nikita Kuzmin,J (20-23),1988-08-19,140,127.8,M,No,,,,,,192.5,197.5,200,,200,,,,,,200,1,B,Raw,Russia
Vladimir Maksimov,O,1966-06-07,140,131,M,No,,,,,,275,-282.5,-282.5,,275,,,,,,275,1,B,Raw,Russia
Vasily Matsur,O,1984-02-02,140,138,M,No,,,,,,240,250,255,,255,,,,,,255,2,B,Raw,Russia
Andriy Grin,O,1968-12-17,140,128,M,No,,,,,,235,-240,-245,,235,,,,,,235,3,B,Raw,Ukraine
Andrei Brusov,O,1973-03-06,140,134.7,M,No,,,,,,225,232.5,-237.5,,232.5,,,,,,232.5,4,B,Raw,Russia
Vladimir Maksimov,M (40-44),1966-06-07,140,131,M,No,,,,,,275,-282.5,-282.5,,275,,,,,,275,1,B,Raw,Russia
Andriy Grin,M (40-44),1968-12-17,140,128.6,M,No,,,,,,235,240,245,,245,,,,,,245,2,B,Raw,Ukraine
Alexander Kovalevskiy,M (45-49),1963-03-13,140,129.3,M,No,,,,,,190,200,-210,,200,,,,,,200,1,B,Raw,Russia
Kirill Sarychev,J (20-23),1989-01-01,140+,150.2,M,No,,,,,,250,270,280,-300,280,,,,,,280,1,B,Raw,Russia
Olexiy Lisogor,J (20-23),1986-04-30,140+,150,M,No,,,,,,210,220,230,,230,,,,,,230,2,B,Raw,Ukraine
Vladimir Grad,O,1976-04-25,140+,146,M,No,,,,,,255,262.5,270,,270,,,,,,270,1,B,Raw,Russia
Roman Polyakov,O,1975-10-30,140+,150,M,No,,,,,,225,235,250,,250,,,,,,250,2,B,Raw,Russia
Israfil Mammadov,O,1976-08-02,140+,143.25,M,No,,,,,,200,215,-222.5,,215,,,,,,215,3,B,Raw,Azerbaijan
Vadim Korkin,O,1975-04-12,140+,163.75,M,No,,,,,,-210,215,-222.5,,215,,,,,,215,4,B,Raw,Russia
Kostyantyn Golubev,M (45-49),1962-01-05,140+,141.3,M,No,,,,,,185,192.5,-200,,192.5,,,,,,192.5,1,B,Raw,Ukraine
