﻿REZULTATI - MUŠKARCI;;;;;;;;;;;;;;;;;;;;;;
;;;;;;;;;;;;;;;;;;;;;;
R.br.;Ime i prezime;God;BW;DIZANJE 1;DIZANJE 2;DIZANJE 3;DIZANJE 4;REZULTAT;BODOVI;;;;;;;;;;;;;
DOBNA KATEGORIJA: MASTER 1;;;;;;;;;;;;;;;;;;;;;;
Kategorija: - 140kg;;;;;;;;;;;;;;;;;;;;;;
1.;Miloš Šnajdr;40;135.0;320;350;370;-;350;296.1;;;;;;;;;;;;;