Place,Name,Division,BirthYear,Sex,BodyweightKg,Squat1Kg,Squat2Kg,Squat3Kg,Best3SquatKg,Bench1Kg,Bench2Kg,Bench3Kg,Best3BenchKg,Deadlift1Kg,Deadlift2Kg,Deadlift3Kg,Best3DeadliftKg,TotalKg,Equipment,WeightClassKg,Event
1,Jess Sewastenko,Open,1994,F,57.65,142.5,150,-155,150,82.5,85,87.5,87.5,162.5,167.5,175,175,412.5,Raw,58,SBD
1,Ellen Makaryan,Open,1996,F,63.6,117.5,125,-130,125,57.5,62.5,-65,62.5,120,130,135,135,322.5,Raw,64,SBD
2,Cassandra Hassett,Open,1994,F,58.5,100,110,,110,47.5,52.5,-55,52.5,122.5,-132.5,135,135,297.5,Raw,64,SBD
3,Diana Pires,Open,1998,F,58.6,82.5,85,90,90,40,-45,-45,40,120,127.5,-130,127.5,257.5,Raw,64,SBD
1,Elissa Abbott,Open,1987,F,71.5,117.5,122.5,-130,122.5,62.5,67.5,-70,67.5,132.5,140,145,145,335,Raw,72,SBD
2,Sarah Burgess,Open,1985,F,68.1,110,117.5,122.5,122.5,-57.5,-57.5,57.5,57.5,135,145,150,150,330,Raw,72,SBD
1,Jocelyn Kirkland,Open,1987,F,80.35,117.5,122.5,127.5,127.5,85,-90,92.5,92.5,137.5,145,150,150,370,Raw,84,SBD
2,Kimibily Ora,Open,1983,F,75.3,107.5,115,120,120,77.5,82.5,-87.5,82.5,127.5,140,145,145,347.5,Raw,84,SBD
3,Faith Humphrey,Open,1988,F,74.6,90,102.5,-115,102.5,65,70,-72.5,70,130,140,-142.5,140,312.5,Raw,84,SBD
4,Stephanie Folkard,Open,1989,F,81.85,100,107.5,112.5,112.5,50,52.5,55,55,130,140,145,145,312.5,Raw,84,SBD
1,Andrew Prior,Open,2002,M,67.05,110,120,127.5,127.5,70,80,-82.5,80,130,140,145,145,352.5,Raw,69,SBD
1,Koray Oksuzsoy,Open,1991,M,76.65,215,-230,230,230,-125,130,132.5,132.5,255,272.5,-277.5,272.5,635,Raw,77,SBD
2,Ben Bosworth,Open,1990,M,75.9,185,200,210,210,125,135,142.5,142.5,240,250,262.5,262.5,615,Raw,77,SBD
3,Esa Janara,Open,1992,M,75.1,190,205,220,220,110,120,-132.5,120,240,260,-270,260,600,Raw,77,SBD
4,Raman Wadhwa,Open,1997,M,76.35,-190,200,210,210,112.5,117.5,120,120,215,230,240,240,570,Raw,77,SBD
5,Patryk Dudek-Bylinksi,Open,1998,M,76,180,190,195,195,105,112.5,-115,112.5,237.5,-252.5,-252.5,237.5,545,Raw,77,SBD
6,Cameron Zemek,Open,1982,M,75.45,40,,,40,87.5,92.5,-100,92.5,185,-205,-205,185,317.5,Raw,77,SBD
1,Andrew Bayliss,Open,1988,M,81.85,-177.5,185,-192.5,185,-127.5,127.5,-132.5,127.5,237.5,-247.5,247.5,247.5,560,Raw,85,SBD
2,Tim Kavanagh,Open,1994,M,82.6,-185,192.5,-197.5,192.5,125,132.5,-137.5,132.5,185,205,220,220,545,Raw,85,SBD
3,Callum Lynch,Open,1990,M,83.9,170,-182.5,187.5,187.5,110,115,-117.5,115,225,237.5,-247.5,237.5,540,Raw,85,SBD
4,Matthew Bolonis,Open,1975,M,80.15,162.5,172.5,180,180,107.5,112.5,-120,112.5,197.5,212.5,222.5,222.5,515,Raw,85,SBD
5,Peter Conti,Open,1982,M,83.9,-145,147.5,160,160,117.5,-125,125,125,182.5,192.5,205,205,490,Raw,85,SBD
6,Thomas McMahon,Open,1984,M,84.5,147.5,157.5,162.5,162.5,90,95,97.5,97.5,165,175,182.5,182.5,442.5,Raw,85,SBD
1,Jeremy Hines,Open,1996,M,93.35,205,220,-227.5,220,150,160,167.5,167.5,-227.5,245,250,250,637.5,Raw,94,SBD
2,Amer Alwan,Open,1995,M,93,207.5,222.5,232.5,232.5,120,127.5,132.5,132.5,237.5,255,270,270,635,Raw,94,SBD
3,York Stanham,Open,1990,M,93.45,195,210,-215,210,132.5,140,-142.5,140,245,260,-270,260,610,Raw,94,SBD
4,Will Cooper,Open,1985,M,91.9,195,207.5,-220,207.5,115,-122.5,-122.5,115,250,265,275,275,597.5,Raw,94,SBD
5,Joshua Belmonte,Open,1992,M,93.1,187.5,195,,195,117.5,122.5,,122.5,217.5,225,232.5,232.5,550,Raw,94,SBD
6,Adrian Webster,Open,1985,M,92.3,155,165,-170,165,90,100,-105,100,190,210,220,220,485,Raw,94,SBD
1,Spiros Adam,Open,1975,M,103.9,167.5,180,-185,180,107.5,115,-120,115,207.5,217.5,-220,217.5,512.5,Raw,105,SBD
1,Adam Bownds,Open,1983,M,118,235,252.5,260,260,155,165,170,170,265,282.5,290,290,720,Raw,120,SBD
2,Matthew Honeysett,Open,1993,M,113.45,197.5,210,215,215,107.5,120,-130,120,215,240,250,250,585,Raw,120,SBD
3,James Folger,Open,1975,M,112.6,160,172.5,180,180,105,112.5,117.5,117.5,215,227.5,235,235,532.5,Raw,120,SBD
4,Anthony Cheadle,Open,1978,M,114.6,170,182.5,190,190,100,-112.5,-112.5,100,200,212.5,225,225,515,Raw,120,SBD
1,Justin Warne,Open,1993,M,153.05,225,242.5,-252.5,242.5,145,152.5,-155,152.5,275,-292.5,-292.5,275,670,Raw,120+,SBD
DQ,Christopher Tuang,Open,1996,M,77.2,-160,-160,,,,,,,,,,,,Raw,85,SBD
DQ,Chris Anastasiou,Open,1997,M,101.75,210,220,230,230,140,147.5,155,155,,,,,,Raw,105,SBD
DQ,Patrick Ivins,Open,1992,M,98.2,-182.5,-182.5,,,,,,,,,,,,Raw,105,SBD
