Division,WeightClassKg,Place,Name,Team,BodyweightKg,Best3SquatKg,Best3BenchKg,Best3DeadliftKg,TotalKg,Equipment,Event,Sex
Boys,52,1,Brandon Balderama,Saginaw,50.35,79.38,52.16,83.91,215.46,Single-ply,SBD,M
Boys,52,2,Patrick Toy,Azle,51.26,68.04,45.36,102.06,215.46,Single-ply,SBD,M
Boys,52,3,Nolan Briggs,Fort Worth Boswell,50.35,77.11,45.36,90.72,213.19,Single-ply,SBD,M
Boys,56,1,Felipe Hernandez #2,Saginaw,54.43,136.08,83.91,154.22,374.21,Single-ply,SBD,M
Boys,56,2,Alonzo Owens,Fort Worth Boswell,55.34,117.93,65.77,106.59,290.3,Single-ply,SBD,M
Boys,56,3,Artavion Harrell,Azle,55.34,115.67,56.7,95.25,267.62,Single-ply,SBD,M
Boys,56,4,Marcus King,Fort Worth Boswell,53.52,88.45,45.36,108.86,242.67,Single-ply,SBD,M
Boys,56,5,Julian Castano,Fort Worth Boswell,54.88,81.65,52.16,97.52,231.33,Single-ply,SBD,M
Boys,56,6,Mason Anderson,Fort Worth Boswell,55.34,79.38,56.7,90.72,226.8,Single-ply,SBD,M
Boys,56,DQ,Lawrence Chavez,Saginaw,53.98,113.4,,124.74,,Single-ply,SBD,M
Boys,60,1,Deonte Lyons,Saginaw,58.06,154.22,79.38,154.22,387.82,Single-ply,SBD,M
Boys,60,2,Collin Biggers,Fort Worth Boswell,58.97,122.47,72.57,122.47,317.51,Single-ply,SBD,M
Boys,67.5,1,Garrett Wright,Fort Worth Boswell,62.6,156.49,90.72,158.76,405.97,Single-ply,SBD,M
Boys,67.5,2,Cameron Beagle,Fort Worth Boswell,66.68,136.08,77.11,149.69,362.87,Single-ply,SBD,M
Boys,67.5,3,Chandler Reeves,Fort Worth Boswell,62.14,106.59,79.38,122.47,308.44,Single-ply,SBD,M
Boys,67.5,DQ,Drew Hoffman,Saginaw,66.68,,,138.35,,Single-ply,SBD,M
Boys,75,1,Dominick Segoviano,Fort Worth Boswell,74.39,172.37,102.06,172.37,446.79,Single-ply,SBD,M
Boys,75,2,Jordan McNeely,Azle,70.31,163.29,106.59,170.1,439.98,Single-ply,SBD,M
Boys,75,3,Dominique Orozco,Saginaw,70.76,147.42,92.99,170.1,410.5,Single-ply,SBD,M
Boys,75,4,Cam Manalo,Saginaw,74.39,147.42,92.99,147.42,387.82,Single-ply,SBD,M
Boys,75,5,Jacob Mueller,Fort Worth Boswell,73.94,138.35,83.91,136.08,358.34,Single-ply,SBD,M
Boys,75,6,Caleb Genberg,Fort Worth Boswell,73.94,133.81,83.91,136.08,353.8,Single-ply,SBD,M
Boys,82.5,1,Justin Bratten,Fort Worth Boswell,80.29,183.7,102.06,185.97,471.74,Single-ply,SBD,M
Boys,82.5,2,Damon Williams,Fort Worth Boswell,79.83,167.83,108.86,176.9,453.59,Single-ply,SBD,M
Boys,82.5,3,Sam Rogers,Azle,81.65,181.44,106.59,165.56,453.59,Single-ply,SBD,M
Boys,82.5,4,Andrew Fuller,Fort Worth Boswell,77.11,158.76,106.59,158.76,424.11,Single-ply,SBD,M
Boys,82.5,5,Gamble Moore,Azle,77.11,142.88,83.91,154.22,381.02,Single-ply,SBD,M
Boys,82.5,6,Jay Garcia,Fort Worth Boswell,81.19,136.08,72.57,151.95,360.61,Single-ply,SBD,M
Boys,82.5,7,Dillon Kilgore,Saginaw,81.19,113.4,61.23,102.06,276.69,Single-ply,SBD,M
Boys,82.5,DQ,Dante Bushnell,Fort Worth Boswell,81.65,145.15,83.91,,,Single-ply,SBD,M
Boys,82.5,DQ,Rickey Aregullin,Azle,80.29,,97.52,136.08,,Single-ply,SBD,M
Boys,90,1,Davion Jones,Azle,89.36,190.51,111.13,174.63,476.27,Single-ply,SBD,M
Boys,90,2,Hunter Harp,Fort Worth Boswell,89.36,174.63,113.4,181.44,469.47,Single-ply,SBD,M
Boys,90,3,Derrick Munoz,Saginaw,89.36,183.7,106.59,156.49,446.79,Single-ply,SBD,M
Boys,90,4,Devyn Buckner,Saginaw,86.64,156.49,102.06,170.1,428.64,Single-ply,SBD,M
Boys,90,5,Ignacio Gonzales,Saginaw,89.36,165.56,104.33,154.22,424.11,Single-ply,SBD,M
Boys,90,6,Will Humphrey,Fort Worth Boswell,89.36,149.69,97.52,158.76,405.97,Single-ply,SBD,M
Boys,90,7,Jesse Emerson,Fort Worth Boswell,88.9,115.67,68.04,136.08,319.78,Single-ply,SBD,M
Boys,90,DQ,Brodie Doherty,Azle,86.64,145.15,,142.88,,Single-ply,SBD,M
Boys,100,1,Tyler Jensen,Azle,95.71,215.46,120.2,174.63,510.29,Single-ply,SBD,M
Boys,100,2,Miguel Reveles,Saginaw,92.53,151.95,111.13,158.76,421.84,Single-ply,SBD,M
Boys,100,3,Melieke Brown,Fort Worth Boswell,98.88,158.76,81.65,163.29,403.7,Single-ply,SBD,M
Boys,100,4,David Hickey,Saginaw,95.25,111.13,54.43,97.52,263.08,Single-ply,SBD,M
Boys,110,1,Drew Smith,Azle,109.32,217.72,122.47,208.65,548.85,Single-ply,SBD,M
Boys,110,2,Caesar Martinez,Saginaw,102.06,188.24,83.91,149.69,421.84,Single-ply,SBD,M
Boys,110,3,Omar Martinez,Saginaw,107.95,145.15,68.04,142.88,356.07,Single-ply,SBD,M
Boys,110,DQ,Lathan Harris,Azle,100.7,163.29,,174.63,,Single-ply,SBD,M
Boys,125,1,Justin Watson,Fort Worth Boswell,121.11,240.4,136.08,208.65,585.13,Single-ply,SBD,M
Boys,125,2,Andrew Lutz,Azle,115.21,197.31,117.93,181.44,496.68,Single-ply,SBD,M
Boys,125,3,Max Michaels,Fort Worth Boswell,114.76,190.51,113.4,174.63,478.54,Single-ply,SBD,M
Boys,125,4,Amador Chavez,Saginaw,116.57,174.63,117.93,165.56,458.13,Single-ply,SBD,M
Boys,125,5,Jared Luth,Saginaw,117.93,176.9,106.59,167.83,451.32,Single-ply,SBD,M
Boys,125+,1,Jake Allsbrooks,Fort Worth Boswell,134.72,272.16,136.08,215.46,623.69,Single-ply,SBD,M
Boys,125+,2,Chase Slack,Azle,127.01,188.24,127.01,190.51,505.76,Single-ply,SBD,M
Boys,125+,3,Raylen Smith,Azle,141.52,219.99,111.13,174.63,505.76,Single-ply,SBD,M
Boys,125+,4,James Lochabay,Azle,127.46,179.17,102.06,163.29,444.52,Single-ply,SBD,M
