Sex,Equipment,Division,Age,WeightClassKg,Name,BodyweightKg,Best3SquatKg,Best3BenchKg,Best3DeadliftKg,TotalKg,Event,Deadlift4Kg,Place
F,Raw,Amateur Masters 55-59,,44,Marli Ramsey,42.64,58.97,40.82,83.91,183.7,SBD,,1
F,Wraps,Amateur Open,,48,Tiffany Savanh,47.63,92.99,56.7,115.67,265.35,SBD,,1
F,Raw,Pro Open,,52,Danielle Couture,49.35,90.72,52.16,102.06,244.94,SBD,,1
F,Raw,Amateur Teen 16-17,,52,Kayla Matte,48.99,68.04,34.02,83.91,185.97,SBD,,1
F,Raw,Amateur Masters 45-49,,52,Ninette Longsworth,51.98,81.65,54.43,120.2,256.28,SBD,,1
F,Raw,Amateur Masters 40-44,,60,Larissa Kirby,59.96,99.79,52.16,102.06,254.01,SBD,,1
F,Wraps,Pro Open,,60,Alora Griffiths,59.06,176.9,92.99,183.7,453.59,SBD,,1
F,Wraps,Amateur Masters 55-59,,67.5,Jennifer Martin,63.59,86.18,43.09,117.93,247.21,SBD,,1
F,Wraps,Amateur Juniors 20-23,,67.5,Kiera Liblik,63.68,77.11,52.16,113.4,242.67,SBD,,1
F,Wraps,Pro Masters 40-44,,67.5,Hilda Siegel,67.04,138.35,92.99,131.54,362.87,SBD,,1
F,Wraps,Amateur Open,,75,Stacey Jensen,69.13,147.42,88.45,167.83,403.7,SBD,,1
F,Raw,Amateur Teen 14-15,,75,Alexandra Dingman,72.57,106.59,49.9,115.67,272.16,SBD,,1
F,Raw,Amateur Juniors 20-23,,75,Sabrina Provencal,72.94,113.4,56.7,136.08,306.17,SBD,,1
F,Raw,Amateur Submasters 33-39,,75,Hollie Rau,69.67,108.86,54.43,129.27,292.57,SBD,,1
F,Wraps,Amateur Teen 14-15,,75,Emilee Harrison,72.76,92.99,47.63,131.54,272.16,SBD,,1
F,Raw,Amateur Teen 16-17,,82.5,Abbigayle Whiteland,75.11,106.59,54.43,156.49,317.51,SBD,158.73,1
F,Raw,Pro Open,,82.5,Aneta Wilga,81.65,138.35,79.38,181.44,399.16,SBD,,1
F,Wraps,Amateur Masters 40-44,,82.5,Christine Sanchez,80.2,97.52,58.97,120.2,276.69,SBD,,1
F,Wraps,Amateur Open,,82.5,Jennifer Samler,81.37,111.13,52.16,120.2,283.5,SBD,,2
F,Wraps,Amateur Open,,82.5,Shea Marie Bramley,77.93,111.13,70.31,147.42,328.85,SBD,,1
F,Single-ply,Pro Open,,82.5,Sheri Whetham,81.56,208.65,120.2,201.85,530.7,SBD,,1
F,Single-ply,Pro Masters 55-59,,82.5,Sheri Whetham,81.56,208.65,120.2,201.85,530.7,SBD,,1
F,Raw,Amateur Open,,90,Brieanna Dreesen,85.64,108.86,56.7,138.35,303.91,SBD,,1
F,Raw,Amateur Masters 45-49,,100,Anne Pedro,93.17,70.31,49.9,129.27,249.48,SBD,,1
F,Raw,Amateur Submasters 33-39,,100,Jenna Button,97.16,111.13,63.5,124.74,299.37,SBD,,1
F,Wraps,Amateur Open,,100,Janaina Barreto-Romero,99.97,140.61,63.5,165.56,369.68,SBD,,1
F,Raw,Amateur Open,,110+,Valérie Gauthier,161.66,172.37,104.33,165.56,442.25,SBD,,1
M,Raw,Amateur Teen 18-19,,67.5,Jake Godlewski,66.04,151.95,106.59,217.72,476.27,SBD,,1
M,Raw,Amateur Open,,67.5,Zach Last,67.4,133.81,115.67,192.78,442.25,SBD,,1
M,Raw,Amateur Teen 16-17,,75,Mike Steele,74.21,142.88,102.06,199.58,444.52,SBD,,1
M,Wraps,Amateur Youth,13,75,Max Berger,70.03,120.2,68.04,136.08,324.32,SBD,,1
M,Wraps,Amateur Teen 18-19,,82.5,Alex Mazerolle,79.02,192.78,108.86,208.65,510.29,SBD,,1
M,Raw,Amateur Teen 14-15,,90,Zain Spoenlein,87.09,165.56,120.2,197.31,483.08,SBD,,1
M,Wraps,Amateur Teen 16-17,,90,Brenden Lockett,87.45,151.95,72.57,201.85,426.38,SBD,,1
M,Raw,Amateur Teen 16-17,,110,Tyler McCarthy,107.32,192.78,115.67,222.26,530.7,SBD,,2
M,Raw,Amateur Teen 16-17,,110,Nathan McArdle,108.68,195.04,138.35,204.12,537.51,SBD,,1
M,Raw,Amateur Teen 16-17,,140,Parker Boyd,136.17,226.8,140.61,272.16,639.57,SBD,,1
F,Raw,Pro Masters 40-44,,67.5,Hilda Siegel,67.04,,92.99,,,SBD,,DQ
F,Raw,Pro Masters 40-44,,67.5,Shantel Johnson,66.22,,56.7,127.01,,SBD,,DQ
M,Wraps,Military Amateur Open,,75,Louis Andropov,73.12,154.22,106.59,185.97,446.79,SBD,,1
M,Raw,Amateur Open,,82.5,Elliott Perkins,81.1,165.56,102.06,201.85,469.47,SBD,,2
M,Raw,Amateur Open,,82.5,Cody Remmig,80.47,174.63,104.33,201.85,480.81,SBD,,1
M,Raw,Amateur Masters 40-44,,82.5,Chris Nugteren,80.74,183.7,124.74,217.72,526.17,SBD,,1
M,Raw,Pro Open,,82.5,Anthony Smith,80.29,190.51,115.67,217.72,523.9,SBD,,1
M,Wraps,Pro Open,,82.5,Stathis Theofilopoulos,81.74,229.06,158.76,276.69,664.51,SBD,,1
M,Multi-ply,Pro Open,,90,Brett Burton,88.45,278.96,170.1,204.12,653.17,SBD,,1
M,Raw,Amateur Submasters 33-39,,90,Darrell Delaney,89.54,176.9,95.25,183.7,455.86,SBD,,1
M,Raw,Amateur Open,,90,William B Dell,87.72,163.29,138.35,215.46,517.1,SBD,,2
M,Raw,Amateur Open,,90,Jordan Guilford,88.18,222.26,133.81,249.48,605.55,SBD,,1
M,Raw,Pro Open,,90,Adam Jackson #1,89.27,226.8,138.35,272.16,637.3,SBD,,2
M,Raw,Pro Open,,90,Nicolas Crisafi,88.72,210.92,145.15,308.44,664.51,SBD,,1
M,Wraps,Amateur Open,,90,Dylan Cooper,89.9,149.69,90.72,185.97,426.38,SBD,,3
M,Wraps,Amateur Open,,90,Ryan Lincoln,86.27,170.1,140.61,210.92,521.63,SBD,,2
M,Wraps,Amateur Open,,90,James Freeman-Guy,89.36,229.06,161.03,226.8,616.89,SBD,,1
M,Wraps,Pro Juniors 20-23,,90,Mitchell Cavan,88.63,226.8,154.22,281.23,662.24,SBD,,1
M,Wraps,Pro Open,,90,François Gagné,89.72,265.35,176.9,272.16,714.41,SBD,,1
M,Raw,Amateur Juniors 20-23,,100,Brandon Cholette,99.34,,154.22,260.82,,SBD,,DQ
M,Raw,Pro Open,,100,Jack O'Rourke,96.8,215.46,170.1,258.55,644.1,SBD,,1
M,Wraps,Amateur Open,,100,Dylan Carter,96.89,226.8,127.01,249.48,603.28,SBD,,3
M,Wraps,Amateur Open,,100,Erik Mills,98.34,244.94,147.42,274.42,666.78,SBD,,2
M,Wraps,Amateur Open,,100,Shane Kelly,94.44,240.4,158.76,267.62,666.78,SBD,,1
M,Wraps,Pro Masters 55-59,,100,Damon Senaha,99.43,158.76,102.06,192.78,453.59,SBD,,1
M,Wraps,Military Pro Open,,100,Damon Senaha,99.43,158.76,102.06,192.78,453.59,SBD,,1
M,Wraps,Pro Masters 55-59,,100,Damon Senaha,99.43,158.76,102.06,192.78,453.59,SBD,,1
M,Wraps,Pro Masters 45-49,,100,Grove Turtle,97.25,201.85,117.93,244.94,564.72,SBD,,1
M,Wraps,Pro Juniors 20-23,,100,Mark Plummer #1,96.71,290.3,204.12,317.51,811.93,SBD,,1
M,Raw,Amateur Juniors 20-23,,110,Luis Linan,105.87,158.76,136.08,195.04,489.88,SBD,,1
M,Raw,Pro Submasters 33-39,,110,Jeff Spoenlein,108.23,192.78,170.1,272.16,635.03,SBD,,1
M,Wraps,Amateur Open,,110,Zoran Lazic,104.96,170.1,99.79,204.12,474,SBD,,1
M,Wraps,Amateur Juniors 20-23,,110,Tyler Harrison,107.32,213.19,124.74,283.5,621.42,SBD,,1
M,Wraps,Pro Masters 40-44,,110,Sean Murphy,106.96,233.6,138.35,260.82,632.76,SBD,,1
M,Raw,Pro Open,,125,Adam Colorado,117.39,231.33,181.44,319.78,732.55,SBD,,1
M,Wraps,Amateur Open,,125,Maxim Polevik,118.39,215.46,131.54,226.8,573.79,SBD,,3
M,Wraps,Amateur Open,,125,Davide Cannucci,121.74,251.74,165.56,272.16,689.46,SBD,,2
M,Wraps,Amateur Open,,125,Marc-Antoine Provost-Dourekas,114.67,276.69,165.56,272.16,714.41,SBD,,1
M,Wraps,Amateur Open,,140,Paul Campbell,126.1,226.8,108.86,,,SBD,,DQ
M,Single-ply,Amateur Open,,90,Arkadiy Petlakh,88.45,,161.03,,161.03,B,,1
M,Raw,Military Pro Open,,110,Austin Smith,106.23,,190.51,,190.51,B,,1
M,Raw,Pro Juniors 20-23,,125,Francis Léveillé Clément,123.83,,210.92,,210.92,B,,1
M,Raw,Pro Submasters 33-39,,125,Paul Martin,117.75,,197.31,,197.31,B,,1
M,Raw,Amateur Open,,125,Chris Jackson,123.65,,161.03,,161.03,B,,1
M,Raw,Pro Open,,82.5,Ron Whitehall,81.28,,,275.56,275.56,D,,1
M,Raw,Amateur Open,,90,Andrei Oudovikine,89.9,,,258.55,258.55,D,,1
M,Raw,Amateur Teen 16-17,,125,Keegan Webber,124.92,,174.63,303.91,478.54,BD,,1
M,Raw,Pro Open,,140,Olivier Marcotte,139.16,,188.24,328.85,517.1,BD,,1
