Sex,Equipment,Tested,Division,WeightClassKg,Name,BodyweightKg,Best3SquatKg,Best3BenchKg,Best3DeadliftKg,TotalKg,Event,Place
F,Raw,Yes,Amateur Teen 16-17,60,Samantha Tapp,57.97,102.5,55,117.5,274.99,SBD,1
F,Wraps,Yes,Amateur Juniors 20-23,60,Morgan Moyer,58.79,82.5,50,102.5,235,SBD,1
F,Wraps,Yes,Amateur Open,67.5,Charity Flener,65.23,102.5,45,147.5,294.99,SBD,1
F,Wraps,Yes,Amateur Open,75,Shelby Sadler,67.86,130,77.5,137.5,344.99,SBD,1
F,Wraps,Yes,Amateur Open,75,Brittany Lowery,68.04,120,75,135,329.99,SBD,2
F,Wraps,Yes,Amateur Submasters 33-39,75,Crystal Messer,71.49,145,77.5,112.5,335,SBD,1
F,Raw,Yes,Amateur Open,82.5,Lorraine Carner,79.83,127.5,82.5,170,379.99,SBD,1
F,Wraps,Yes,Amateur Open,90,Yvonna Covington-Dearen,89.99,155,87.5,185,427.49,SBD,1
F,Wraps,Yes,Amateur Masters 40-44,90,Melissa Woodson,83.82,102.5,60,122.5,284.99,SBD,1
F,Wraps,Yes,Amateur Masters 45-49,90,Yvonna Covington-Dearen,89.99,155,87.5,185,427.49,SBD,1
F,Wraps,Yes,Amateur Juniors 20-23,100,Soledad Palacios,95.16,182.5,80,197.5,460,SBD,1
F,Wraps,Yes,Amateur Open,100,Mindy Williams,90.72,102.5,65,162.5,330,SBD,1
F,Raw,Yes,Amateur Teen 16-17,110,Morgan Travis,110,77.5,40,102.5,219.99,SBD,1
M,Wraps,Yes,Amateur Teen 18-19,67.5,Nicholas Kessinger,67.4,175,125,200,499.99,SBD,1
M,Wraps,Yes,Amateur Juniors 20-23,75,Kyle Jones,74.48,147.5,107.5,187.5,442.49,SBD,2
M,Wraps,Yes,Amateur Juniors 20-23,75,Houston Howard,72.48,145,102.5,200,447.5,SBD,1
M,Wraps,Yes,Amateur Open,75,Cory Esparza,71.4,195,120,210,525,SBD,1
M,Raw,Yes,Amateur Masters 45-49,75,Robb Tapp,73.75,145,114.91,170,429.91,SBD,1
M,Raw,Yes,Amateur Open,82.5,Joshua King,79.92,170,112.5,207.5,489.99,SBD,1
M,Multi-ply,No,Pro Open,82.5,Kyle Brown,79.2,305,167.5,267.5,740,SBD,1
M,Raw,Yes,Amateur Open,90,Jacob Lucas,87.45,182.5,122.5,215,519.99,SBD,1
M,Raw,No,Pro Open,90,Keaton Sawaya,89.09,245,150,272.5,667.5,SBD,1
M,Wraps,Yes,Amateur Open,90,Dakota Brent,88.18,187.5,142.5,227.5,557.49,SBD,3
M,Wraps,Yes,Amateur Open,90,Tim Schueler,87.45,235,125,240,599.99,SBD,2
M,Wraps,Yes,Amateur Open,90,Brian Hoffman,88.72,230,157.5,265,652.49,SBD,1
M,Wraps,No,Pro Open,90,Kelby Raymer,88.63,250,167.5,260,677.49,SBD,1
M,Multi-ply,No,Pro Open,90,Michael Baker,89.45,372.5,195,320,887.49,SBD,1
M,Wraps,No,Pro Juniors 20-23,100,Cotey Price,92.26,272.5,152.5,247.5,672.5,SBD,1
M,Wraps,No,Pro Open,100,Michael Dean #3,95.16,252.5,147.5,290,690,SBD,1
M,Wraps,Yes,Amateur Juniors 20-23,100,Noah Baker,98.79,200,125,210,534.99,SBD,1
M,Raw,Yes,Amateur Submasters 33-39,100,Moose Acevedo,99.79,227.5,172.5,257.5,657.5,SBD,1
M,Wraps,Yes,Amateur Open,100,Matt Hill,95.8,202.5,130,205,537.49,SBD,1
M,Wraps,Yes,Amateur Masters 40-44,100,Troy Corbin,99.97,205,157.5,220,582.49,SBD,1
M,Wraps,Yes,Military Amateur Open,100,Troy Corbin,99.97,205,157.5,220,582.49,SBD,1
M,Wraps,Yes,Amateur Teen 16-17,110,Jesse Townsend,109.86,165,100,197.5,462.5,SBD,1
M,Wraps,No,Pro Juniors 20-23,110,Chandler Venable,104.96,260,185,272.5,717.5,SBD,1
M,Wraps,Yes,Amateur Juniors 20-23,110,Logan Mann,108.59,227.5,147.5,240,614.99,SBD,1
M,Wraps,Yes,Amateur Open,110,Andrew Spray,104.96,245,155,265,664.99,SBD,1
M,Wraps,Yes,Amateur Open,110,David Dougherty,103.87,217.5,145,242.5,605,SBD,3
M,Wraps,Yes,Amateur Open,110,Lonnie Harris,110,182.5,125,192.5,499.99,SBD,4
M,Wraps,No,Pro Open,110,Tommy Brock,104.78,200,152.5,240,592.49,SBD,2
M,Wraps,No,Pro Open,110,Travis Nelson,109.04,345,205,305,854.99,SBD,1
M,Wraps,Yes,Amateur Open,110,Austin Lind,108.95,227.5,170,237.5,634.99,SBD,2
M,Wraps,Yes,Amateur Masters 40-44,110,Reggie Viernes,105.41,200,140,252.5,592.49,SBD,1
M,Wraps,No,Pro Juniors 20-23,125,Dillion Williams,116.57,242.5,150,272.5,665,SBD,1
M,Wraps,Yes,Amateur Open,125,Michael Drechsler,119.57,222.5,137.5,222.5,582.49,SBD,2
M,Wraps,Yes,Amateur Open,125,Michael Teague,117.12,267.5,180,265,712.49,SBD,1
M,Multi-ply,No,Pro Open,125,Steve Lusterino,122.92,365,227.5,305,897.5,SBD,1
M,Wraps,No,Pro Open,125,Meliton Cancino,115.85,335,220,322.5,877.49,SBD,1
M,Wraps,Yes,Amateur Submasters 33-39,125,Kyle Duane,110.68,200,165,272.5,637.5,SBD,1
M,Raw,Yes,Amateur Open,140,Greg Hazlett,132.54,217.5,140,255,612.49,SBD,1
M,Wraps,No,Pro Open,140,Chris Flener,138.53,287.5,215,290,792.49,SBD,1
M,Wraps,No,Pro Open,140,Devin Baker,138.62,275,200,272.5,747.5,SBD,2
M,Wraps,Yes,Amateur Submasters 33-39,140,Greg Woodson,130.73,220,112.5,192.5,525,SBD,1
M,Wraps,No,Pro Open,140+,Logan Emery,151.41,400,205,302.5,907.49,SBD,1
M,Wraps,No,Pro Open,100,Hunter Swanner,95.71,277.5,,,277.5,S,1
F,Raw,Yes,Amateur Masters 50-54,82.5,Joyce Lay,76.84,,65,95,160,BD,1
F,Raw,Yes,Amateur Submasters 33-39,90,Katrina Beculheimer,89.99,,57.5,127.5,184.99,BD,1
F,Raw,No,Pro Masters 40-44,90,Nathalie Green,88.72,,85,175,259.99,BD,1
F,Raw,Yes,Amateur Masters 40-44,75,Donna Dougherty,72.67,,60,,60,B,1
M,Raw,Yes,Amateur Teen 14-15,67.5,Dustin Schweinhart,62.23,,75,,75,B,1
M,Raw,Yes,Amateur Juniors 20-23,75,Chris Hamm,72.21,,120,,120,B,1
M,Raw,No,Pro Open,140+,Julius Maddox,195.14,,320,,320,B,1
M,Raw,Yes,Amateur Teen 18-19,110,Jacob Pennington,107.86,,,282.5,282.5,D,1
