Name,Event,Equipment,Sex,BirthDate,Age,Division,WeightClassKg,Squat1Kg,Squat2Kg,Squat3Kg,Best3SquatKg,Bench1Kg,Bench2Kg,Bench3Kg,Best3BenchKg,Deadlift1Kg,Deadlift2Kg,Deadlift3Kg,Best3DeadliftKg,TotalKg,Place
Bryan White,SBD,Multi-ply,M,1959-08-01,,MO,82.5,245,-260,-260,245,,,,,,,,,,DQ
Kyle Kirby #2,SBD,Multi-ply,M,1984-06-03,,MO,90,-322,322,335,335,160,172.5,-185,172.5,257.5,275,-282.5,275,782.5,1
Kurt Soilean,SBD,Multi-ply,M,1980-05-24,27,MO,100,295,320,-342.5,320,-182.5,182.5,-197.5,182.5,275,300,-320,300,802.5,1
Scott Prosek,SBD,Multi-ply,M,1976-12-10,,MO,110,372.5,410,420,420,220,230,242.5,242.5,275,295,305,305,967.5,1
Gunny Green,SBD,Multi-ply,M,,36,MO,110,185,227.5,-272.5,227.5,300,,,300,205,227.5,-245,227.5,755,2
Mitchell Downing,SBD,Multi-ply,M,1986-11-04,20,MO,125,-275,275,-305,275,195,-220,-220,195,235,-247.5,247.5,247.5,717.5,3
Allan Mehan,SBD,Multi-ply,M,1972-10-13,34,MO,125,435,470,500,500,282.5,292.5,-305,292.5,305,332,-350,332,1124.5,1
Brad Delaughter,SBD,Multi-ply,M,1982-12-04,24,MO,125,307.5,325,337.5,337.5,192.5,210,222.5,222.5,260,280,-300,280,840,2
Greg Theriot,SBD,Multi-ply,M,1984-01-30,23,MO,140,437.5,-455,-455,437.5,-300,-300,,,347.5,365,,365,802.5,1
Robert Wilkerson,SBD,Multi-ply,M,,,MO,140+,,,387.5,387.5,245,,,245,,272,,272,904.5,1
Heliry Fletcher,SBD,Multi-ply,M,1963-09-20,44,MM 40-44,100,357.5,387.5,-410,387.5,210,227.5,-240,227.5,-290,290,-320,290,905,1
David Favre,SBD,Multi-ply,M,1965-09-10,42,MM 40-44,125,-347.5,347.5,367.5,367.5,227.5,-252.5,252.5,252.5,260,-270,270,270,890,1
Bob Phillips,SBD,Multi-ply,M,,43,MM 40-44,140,355,377.5,390,390,-250,250,-260,250,287.5,-297.5,-297.5,287.5,927.5,1
Bryan White,S,Multi-ply,M,1959-08-01,48,MM 45-50,82.5,245,-260,-260,245,,,,,,,,,245,1
Terry Buckley,SBD,Multi-ply,M,1959-07-27,48,MM 45-50,100,-205,-295,312.5,312.5,205,-220,-220,205,-250,-250,250,250,767.5,1
Buddy McKee,SBD,Multi-ply,M,1956-01-09,51,MM 51-54,125,-365,365,-375,365,240,-250,-250,240,250,260,-290,260,865,1
Mike McDaniel,SBD,Multi-ply,M,1956-06-01,51,MM 51-54,140,420,-455,-455,420,25,,,25,185,287.5,,287.5,732.5,1
Rebecca Jordan,SBD,Multi-ply,F,1990-04-05,17,Teen,90+,192.5,222.5,232.5,232.5,125,135,137.5,137.5,160,175,190,190,560,1
Eric Downey,B,Multi-ply,M,1975-06-29,,MO,100,,,,,-277.5,-277.5,-277.5,,,,,,,DQ
Jim Phelps,B,Multi-ply,M,1974-06-26,33,MO,100,,,,,-215,-215,215,215,,,,,215,1
Jason Sharp,B,Multi-ply,M,1973-11-07,,MO,110,,,,,182.5,-190,-190,182.5,,,,,182.5,1
Chris Senese,B,Multi-ply,M,,,MO,125,,,,,-340,-340,-340,,,,,,,DQ
Stewart Hawkins,B,Multi-ply,M,1976-05-12,31,MO,140+,,,,,247.5,-272.5,-287.5,247.5,,,,,247.5,1
