Place,Name,Sex,Event,Division,WeightClassKg,Equipment,BirthYear,State,BodyweightKg,Squat1Kg,Squat2Kg,Squat3Kg,Best3SquatKg,Bench1Kg,Bench2Kg,Bench3Kg,Best3BenchKg,Deadlift1Kg,Deadlift2Kg,Deadlift3Kg,Best3DeadliftKg,TotalKg
1,Mikayla Keeley,F,SBD,R-JR,57,Raw,1995,NV,56.80,92.5,102.5,-107.5,102.5,40,45,50,50.0,110,117.5,132.5,132.5,285
1,Hope Castelli,F,SBD,R-JR,63,Raw,1997,NV,61.60,92.5,102.5,-112.5,102.5,62.5,65,67.5,67.5,107.5,112.5,117.5,117.5,287.5
1,Emily Tran,F,SBD,R-JR,72,Raw,1996,NV,68.80,115,120,-125,120.0,75,77.5,80,80.0,132.5,140,-142.5,140.0,340
1,Meredith Martin,F,SBD,R-M1b,52,Raw,1969,NV,51.00,67.5,75,80,80.0,50,52.5,-55,52.5,90,100,107.5,107.5,240
1,Lakhvir Sodhi-Gosal,F,SBD,R-M1b,72,Raw,1971,NV,71.60,122.5,130,137.5,137.5,67.5,72.5,75,75.0,167.5,175,182.5,182.5,395
1,Susan Gibson,F,SBD,R-M2b,63,Raw,1961,NV,61.80,62.5,70,72.5,72.5,42.5,-47.5,47.5,47.5,95,102.5,112.5,112.5,232.5
1,Cc Balderas,F,SBD,R-O,63,Raw,1990,NV,61.80,85,90,92.5,92.5,52.5,55,-57.5,55.0,102.5,107.5,115,115.0,262.5
1,Sarah Hand,F,SBD,R-O,72,Raw,1989,NV,68.40,122.5,-130,-130,122.5,62.5,65,67.5,67.5,150,157.5,165,165.0,355
2,Joanna Lingad,F,SBD,R-O,72,Raw,1991,NV,66.80,107.5,115,117.5,117.5,47.5,50,-52.5,50.0,110,115,-117.5,115.0,282.5
1,Kelly McIntosh,F,SBD,R-O,84,Raw,1983,NV,81.60,125,-130,-135,125.0,82.5,-87.5,-92.5,82.5,140,145,147.5,147.5,355
2,Amanda PeQueen,F,SBD,R-O,84,Raw,1987,NV,73.80,90,97.5,102.5,102.5,60,65,67.5,67.5,137.5,147.5,150,150.0,320
1,Kaitlin Grady,F,SBD,R-O,84+,Raw,1993,NV,89.40,137.5,142.5,-145,142.5,70,80,-87.5,80.0,150,160,170,170.0,392.5
2,Chelsea Heath,F,SBD,R-O,84+,Raw,1986,NV,114.00,130,-135,140,140.0,70,-75,-80,70.0,140,145,155,155.0,365
1,Jack Van Dine,M,SBD,R-O,105,Raw,2001,CA,103.40,167.5,-172.5,-172.5,167.5,120,125,-127.5,125.0,222.5,230,-232.5,230.0,522.5
1,Christian Bak,M,SBD,R-JR,66,Raw,1996,NV,65.50,155,165,-170,165.0,102.5,105,-107.5,105.0,155,165,175,175.0,445
1,Joseph Adams,M,SBD,R-JR,93,Raw,1994,NV,90.50,225,237.5,247.5,247.5,142.5,152.5,155,155.0,245,265,280,280.0,682.5
2,Kory Allen Garaganza,M,SBD,R-JR,93,Raw,1995,HI,91.50,185,190,195,195.0,140,142.5,147.5,147.5,237.5,245,-247.5,245.0,587.5
3,Joshua Vernaz,M,SBD,R-JR,93,Raw,1997,NV,88.80,202.5,215,-227.5,215.0,120,127.5,135,135.0,212.5,220,230,230.0,580
4,Luke Campbell,M,SBD,R-JR,93,Raw,1997,CA,84.10,175,180,185,185.0,110,122.5,-127.5,122.5,190,202.5,-210,202.5,510
1,KJ Cameron,M,SBD,R-M1a,120,Raw,1976,NV,116.90,240,250,260,260.0,167.5,-177.5,177.5,177.5,275,290,305,305.0,742.5
1,Brad Loomis,M,SBD,R-M1b,83,Raw,1971,CA,82.90,182.5,190,202.5,202.5,-125,125,-135,125.0,225,242.5,-255,242.5,570
DQ,Paul Fischer,M,SBD,R-M2a,83,Raw,1968,NV,82.00,172.5,182.5,-185,182.5,-130,-132.5,-132.5,,212.5,215,217.5,217.5,
1,Gary McFarland,M,B,R-M2b,105,Raw,1963,CA,103.30,,,,,175,187.5,192.5,192.5,,,,,192.5
1,Chasen St. Onge,M,SBD,R-O,66,Raw,1991,NV,63.20,167.5,175,180,180.0,137.5,140,145,145.0,175,180,-185,180.0,505
1,Patrick Moore,M,SBD,R-O,74,Raw,1982,NV,71.20,170,182.5,192.5,192.5,-127.5,127.5,-137.5,127.5,212.5,-227.5,-227.5,212.5,532.5
1,Jaron Christian,M,SBD,R-O,93,Raw,1992,NV,91.60,250,262.5,-275,262.5,167.5,175,-182.5,175.0,280,-292.5,292.5,292.5,730
1,Zachary Drebin,M,BD,R-O,105,Raw,1983,CA,96.80,,,,,157.5,165,172.5,172.5,187.5,200,215,215.0,387.5
1,Oscar Correa,M,SBD,R-O,120,Raw,1991,NV,117.40,215,222.5,230,230.0,170,180,187.5,187.5,257.5,270,280,280.0,697.5
1,Richard Castillo,M,SBD,R-O,120+,Raw,1991,NV,156.20,272.5,285,295,295.0,227.5,232.5,-237.5,232.5,285,-302.5,302.5,302.5,830
2,Matt Slate,M,SBD,R-O,120+,Raw,1981,NV,132.20,-227.5,240,250,250.0,185,-197.5,202.5,202.5,227.5,250,255,255.0,707.5
3,Isaac Perez,M,SBD,R-O,120+,Raw,1994,NV,153.00,267.5,285,-295,285.0,135,-140,-140,135.0,240,252.5,272.5,272.5,692.5
4,Gilbert Correa,M,SBD,R-O,120+,Raw,1990,NV,129.40,210,227.5,240,240.0,125,-137.5,-145,125.0,247.5,265,275,275.0,640
1,Ilia Katre,M,SBD,R-T1,105,Raw,2002,NV,96.80,105,112.5,120,120.0,75,80,85,85.0,145,160,167.5,167.5,372.5
1,Kaden Garcia,M,SBD,R-T2,66,Raw,2001,NV,62.90,125,135,-142.5,135.0,85,92.5,-97.5,92.5,142.5,152.5,162.5,162.5,390
1,Jaime Campos,M,SBD,R-T3,93,Raw,1999,NV,90.30,215,230,242.5,242.5,155,-165,170,170.0,220,237.5,-240,237.5,650
2,Kentaro Lee,M,SBD,R-T3,93,Raw,1998,NV,90.90,202.5,-210,-210,202.5,92.5,102.5,105,105.0,190,202.5,227.5,227.5,535
3,Jason Herman,M,SBD,R-T3,93,Raw,1999,NV,91.30,187.5,-190,190,190.0,130,-135,-135,130.0,197.5,205,215,215.0,535
