Event,Sex,Name,State,BodyweightKg,WeightClassKg,Division,Best3SquatKg,Best3BenchKg,Best3DeadliftKg,TotalKg,Equipment,Place
SBD,M,Colby Leamon,NL,78.4,83,Sub-Juniors,150,105,182.5,437.5,Raw,1
SBD,M,Bronson Cameron,NB,79.9,83,Sub-Juniors,142.5,77.5,190,410,Raw,2
SBD,M,Ethan Reid,NL,72.8,74,Sub-Juniors,195,120,220,535,Raw,1
SBD,M,Anthony Nendarto,PE,73.8,74,Sub-Juniors,162.5,102.5,210,475,Raw,2
SBD,F,Lily MacPherson,NS,65.3,72,Sub-Juniors,87.5,40,95,222.5,Raw,2
SBD,F,Amber Milley,NL,67.6,72,Sub-Juniors,90,42.5,92.5,225,Raw,1
SBD,M,Zachary Doucette,NS,65.3,66,Sub-Juniors,117.5,80,140,337.5,Raw,1
SBD,F,Caitlin McKenna,PE,60.5,63,Sub-Juniors,97.5,60,122.5,280,Raw,1
SBD,M,Liam Clark,NS,123.5,120+,Sub-Juniors,167.5,105,187.5,460,Raw,1
SBD,M,Noah Boudreau,NL,97.6,105,Sub-Juniors,160,102.5,170,432.5,Raw,1
SBD,M,Sam Byrne,NL,92.8,93,Open,262.5,150,270,682.5,Raw,2
SBD,M,Joseph Benoit,NS,92.8,93,Open,245,147.5,260,652.5,Raw,3
SBD,M,James Sharpe,NB,91.6,93,Open,275,175,320,770,Raw,1
SBD,F,Nicole Kenny,PE,97.7,84+,Open,147.5,72.5,175,395,Raw,2
SBD,F,Natasha Ching,NS,88.9,84+,Open,175,87.5,187.5,450,Raw,1
SBD,F,Morgan Armour,NS,86.4,84+,Open,140,75,135,350,Raw,3
SBD,F,Melissa Garron,NS,80.6,84,Open,162.5,90,170,422.5,Raw,1
SBD,F,Mallory Doyle,NL,81.7,84,Open,122.5,47.5,125,295,Raw,5
SBD,F,Kaitlin Armour,NB,74.4,84,Open,132.5,65,152.5,350,Raw,3
SBD,F,Julia Young,NL,82.9,84,Open,135,82.5,137.5,355,Raw,2
SBD,F,Jennalee Cole,NS,82.4,84,Open,130,52.5,150,332.5,Raw,4
SBD,M,Naeem Rohani,PE,77.6,83,Open,215,110,255,580,Raw,3
SBD,M,Marcus Parkus,NS,82.4,83,Open,195,135,227.5,557.5,Raw,4
SBD,M,Justin Quedado,NS,82.4,83,Open,250,157.5,285,692.5,Raw,1
SBD,M,Hunter Ellis,PE,75.6,83,Open,95,95,125,315,Raw,6
SBD,M,Evan Collins,NL,82.8,83,Open,230,127.5,242.5,600,Raw,2
SBD,M,Cameron Gordon,PE,75.9,83,Open,117.5,90,140,347.5,Raw,5
SBD,M,Inderpreet Singh,PE,73.9,74,Open,182.5,127.5,212.5,522.5,Raw,2
SBD,M,Conor Demone,NS,73.1,74,Open,230,145,240,615,Raw,1
SBD,F,Tasnim Banuga,MB,69.8,72,Open,150,77.5,175,402.5,Raw,1
SBD,F,Miranda Crane,PE,70.8,72,Open,122.5,70,147.5,340,Raw,2
SBD,F,Melissa Skehans,NL,71.1,72,Open,115,62.5,142.5,320,Raw,3
SBD,F,Courtney Steele,PE,67.2,72,Open,117.5,65,135,317.5,Raw,4
SBD,F,Michelle Deruelle,NS,63,63,Open,122.5,55,125,302.5,Raw,3
SBD,F,Megg Turner,NS,61.2,63,Open,107.5,62.5,125,295,Raw,4
SBD,F,Louise Larade,NS,60.6,63,Open,125,65,155,345,Raw,1
SBD,F,Katie McQueen,NS,61.4,63,Open,120,67.5,137.5,325,Raw,2
SBD,M,Evan Brideau,NB,57.1,59,Open,147.5,85,190,422.5,Raw,1
SBD,F,Sarah Pellerin,NL,55.5,57,Open,115,60,115,290,Raw,3
SBD,F,Leanne McLaughlin,NS,56.7,57,Open,107.5,65,135,307.5,Raw,2
SBD,F,Jessica Halcovitch,NB,55,57,Open,127.5,72.5,130,330,Raw,1
SBD,F,Mallory Russell,NS,50.3,52,Open,87.5,50,110,247.5,Raw,1
SBD,M,Jordan Profitt,NS,120.5,120+,Open,65,25,65,155,Raw,1
SBD,M,Terrence Mendes,NS,116.6,120,Open,287.5,187.5,325,800,Raw,1
SBD,M,James MacDonald,NS,100.4,105,Open,210,140,225,575,Raw,2
SBD,M,Cory Johnson,NS,98.7,105,Open,192.5,145,275,612.5,Raw,1
SBD,M,Tilman Gallant,PE,86.9,93,Masters 4,130,140,160,430,Raw,1
SBD,F,Ruby Koritarov,NL,97.9,84+,Masters 4,70,45.5,113,228.5,Raw,1
SBD,M,Don Cormier,NL,86.6,93,Masters 3,190,102.5,160,452.5,Raw,1
SBD,M,Allen Profitt,PE,112.1,120,Masters 3,150,125,225,500,Raw,1
SBD,F,Sharon McCarthy,NL,83.2,84,Masters 2,87.5,47.5,115,250,Raw,1
SBD,M,Paul Smith,NL,67.8,74,Masters 2,142.5,80,195,417.5,Raw,1
SBD,F,Anne Beaumaster,NL,57.6,63,Masters 2,82.5,35,102.5,220,Raw,1
SBD,M,John Buchanan,NS,90.5,93,Masters 1,170,127.5,207.5,505,Raw,1
SBD,M,Michael Chiola,NS,81.3,83,Masters 1,170,122.5,217.5,510,Raw,1
SBD,M,Shiek Ali,NS,73.6,74,Masters 1,180,127.5,195,502.5,Raw,1
SBD,F,Marguerite Phillips,NS,63,63,Masters 1,97.5,45,117.5,260,Raw,3
SBD,F,Glenda MacDonald,PE,70.9,72,Masters 1,115,60,147.5,322.5,Raw,2
SBD,F,Glenda Brown,NL,69.3,72,Masters 1,120,50,152.5,322.5,Raw,1
SBD,F,Tracy Curran,PE,61.9,63,Masters 1,125,62.5,132.5,320,Raw,2
SBD,F,Michelle Harwood,NL,62.3,63,Masters 1,125,55,150,330,Raw,1
SBD,F,Melanie Harris,NB,61,63,Masters 1,100,67.5,122.5,290,Raw,3
SBD,F,Lisa McCormack,NL,61.8,63,Masters 1,85,45,120,250,Raw,5
SBD,F,Jillian Sproul,PE,60.4,63,Masters 1,102.5,55,127.5,285,Raw,4
SBD,F,Jill MacFarlane,PE,51.4,52,Masters 1,90,50,100,240,Raw,1
SBD,M,Marcus Hibbert,NS,104.7,105,Masters 1,220,145,210,575,Raw,1
SBD,M,Wesley Harper,NS,90.1,93,Juniors,220,182.5,232.5,635,Raw,2
SBD,M,Noah Doucet,NB,83.2,93,Juniors,182.5,127.5,217.5,527.5,Raw,4
SBD,M,Lucas Wiseman,NL,91.9,93,Juniors,200,110,287.5,597.5,Raw,3
SBD,M,DJ Clarke,NL,91.8,93,Juniors,247.5,130,267.5,645,Raw,1
SBD,F,Krystyna Urbancic,NS,76.9,84,Juniors,132.5,75,177.5,385,Raw,1
SBD,F,Katherine MacLean,NS,83.7,84,Juniors,152.5,67.5,165,385,Raw,2
SBD,M,Nick Collins,NL,82,83,Juniors,195,120,195,510,Raw,3
SBD,M,Nicholas Hayward,NL,82.9,83,Juniors,230,137.5,257.5,625,Raw,1
SBD,M,Andrew Collier,NS,79.5,83,Juniors,202.5,135,235,572.5,Raw,2
SBD,F,Jenna Downie,NS,66,72,Juniors,132.5,60,165,357.5,Raw,2
SBD,F,Amanda Parker,NB,71.5,72,Juniors,147.5,80,170,397.5,Raw,1
SBD,M,Reilly Lane,NL,65,66,Juniors,135,87.5,177.5,400,Raw,1
SBD,F,Roxane Duguay,NB,61,63,Juniors,95,55,125,275,Raw,2
SBD,F,Breanne Burgoyne,PE,63,63,Juniors,92.5,62.5,132.5,287.5,Raw,1
SBD,M,Tyson Veniot,PE,56,59,Juniors,102.5,80,152.5,335,Raw,1
SBD,F,Sarah Strickland,NL,55.4,57,Juniors,80,42.5,95,217.5,Raw,2
SBD,F,Karley Affleck,PE,55.6,57,Juniors,90,45,100,235,Raw,1
SBD,F,Veronique Cormier,NB,51.3,52,Juniors,107.5,62.5,135,305,Raw,2
SBD,F,Sangeetha Jeyabalasingam,ON,49.4,52,Juniors,110,55,142.5,307.5,Raw,1
SBD,F,Caylee d'Entremont,NS,51.7,52,Juniors,85,52.5,105,242.5,Raw,3
SBD,M,Tristan Minihan,NS,107,120,Juniors,235,127.5,265,627.5,Raw,1
SBD,M,Logan Vessey,PE,93.8,105,Juniors,202.5,127.5,257.5,587.5,Raw,1
SBD,M,John Edgar,NS,93.7,105,Juniors,200,132.5,235,567.5,Raw,2
B,M,Caleb Boreland,PE,80.7,83,Sub-Juniors,,147.5,,147.5,Raw,1
B,F,Julia Young,NL,81.9,84,Open,,77.5,,77.5,Raw,1
B,M,Hunter Ellis,PE,75.9,83,Open,,102.5,,102.5,Raw,1
B,M,Cameron Gordon,PE,76,83,Open,,95,,95,Raw,2
B,F,Jessica McNutt,NS,70.5,72,Open,,90,,90,Raw,1
B,F,Megg Turner,NS,61.1,63,Open,,65,,65,Raw,1
B,M,RJ Forbes,NB,121,120+,Open,,180,,180,Raw,1
B,M,Tilman Gallant,PE,87.6,93,Masters 4,,145,,145,Raw,1
B,F,Marian Johnston,PE,54.7,57,Masters 3,,40,,40,Raw,1
B,M,Edvins Ozolins,NS,112.3,120,Masters 3,,145,,145,Raw,1
B,F,Fran Harris,NB,68.8,72,Masters 2,,75,,75,Raw,1
B,M,Robert King,NL,85.1,93,Masters 1,,127.5,,127.5,Raw,1
B,F,Kara Arsenault,PE,124.1,84+,Masters 1,,75,,75,Raw,1
B,M,Shiek Ali,NS,73.2,74,Masters 1,,130,,130,Raw,1
B,F,Lisa McCormack,NL,62.2,63,Masters 1,,47.5,,47.5,Raw,1
B,M,Tyson Veniot,PE,56.2,59,Juniors,,85,,85,Raw,1
B,F,Sarah Strickland,NL,55.5,57,Juniors,,45,,45,Raw,1
