Place,Name,State,Division,WeightClassKg,BodyweightKg,Age,Best3SquatKg,Best3BenchKg,Best3DeadliftKg,TotalKg,Sex,Equipment,Event
1,Libby Pacheco,RI,Juniors,52,49.9,18,90,56,122.5,268.5,F,Raw,SBD
1,Ana Zxelaya,MA,Open,56,54,33,87.5,67.5,130,285,F,Raw,SBD
1,Colleen Reid,MA,Open,67.5,66.8,26,92.5,50,105,247.5,F,Raw,SBD
1,Kim Isnor,MA,Open,90+,97.9,22,165,95,190,450,F,Raw,SBD
1,Sam Jordan,MA,Open,82.5,82.5,30,170,90,210,470,M,Raw,SBD
1,Mike Penta,MA,Open,100,99.8,25,227.5,167.5,250,645,M,Raw,SBD
2,John Cartwright,MA,Open,100,95,27,200,160,205,565,M,Raw,SBD
