Place,Name,Sex,Event,Division,WeightClassKg,Equipment,BirthYear,Team,State,BodyweightKg,Squat1Kg,Squat2Kg,Squat3Kg,Best3SquatKg,Bench1Kg,Bench2Kg,Bench3Kg,Best3BenchKg,Deadlift1Kg,Deadlift2Kg,Deadlift3Kg,Best3DeadliftKg,TotalKg
1,Dana Rosenzweig,M,B,R-M3a,93,Raw,1957,,IL,92,,,,,65,75,92.5,92.5,,,,,92.5
1,Patricia Urban,F,SBD,R-M2b,63,Raw,1960,,MO,62,60,62.5,-65,62.5,-40,40,-42.5,40,100,102.5,105,105,207.5
1,Christine Harms,F,SBD,R-M3a,72,Raw,1952,,MO,66,60,65,80,80,32.5,40,-45,40,100,110,-120,110,230
1,Sonya Stevenson,F,SBD,R-M3b,84+,Raw,1951,,MO,89.3,80,90,95,95,60,62.5,65,65,110,120,-125,120,280
1,Autumn Suchyta,F,SBD,R-O,47,Raw,1997,,IL,46.9,47.5,55,-62.5,55,35,-37.5,-37.5,35,80,90,97.5,97.5,187.5
1,Christina Lazo,F,SBD,R-O,57,Raw,1987,,IL,56.9,137.5,145,-150,145,70,75,77.5,77.5,145,157.5,165,165,387.5
2,Ashley Stough,F,SBD,R-O,57,Raw,1986,,IL,55.8,80,85,90,90,50,55,60,60,95,102.5,110,110,260
1,Alora Mouyard,F,SBD,R-O,63,Raw,1998,,IL,62.6,87.5,-105,105,105,55,65,-77.5,65,115,122.5,-137.5,122.5,292.5
2,Hannah Massey,F,SBD,R-O,63,Raw,1993,,MO,61.2,95,100,102.5,102.5,50,55,-57.5,55,115,122.5,127.5,127.5,285
1,Erica Folk,F,SBD,R-O,72,Raw,1985,,MO,69.7,132.5,142.5,-147.5,142.5,70,75,80,80,160,170,177.5,177.5,400
2,Catherine Bochenek,F,SBD,R-O,72,Raw,1998,,IL,71.1,105,125,-140,125,55,65,-75,65,132.5,145,157.5,157.5,347.5
3,Jordan Fryer,F,SBD,R-O,72,Raw,1986,,MO,71.4,110,-115,-115,110,57.5,62.5,-65,62.5,127.5,137.5,142.5,142.5,315
4,Brittany Kussman,F,SBD,R-O,72,Raw,1984,,MO,70.7,97.5,102.5,107.5,107.5,52.5,55,60,60,132.5,140,145,145,312.5
5,Kerlie Richemond,F,SBD,R-O,72,Raw,1998,,FL,71.9,87.5,97.5,-105,97.5,60,-62.5,70,70,110,117.5,-127.5,117.5,285
6,Leah Roan,F,SBD,R-O,72,Raw,1990,,AR,63.7,92.5,102.5,107.5,107.5,45,47.5,50,50,-97.5,105,115,115,272.5
7,Rachael Cox,F,SBD,R-O,72,Raw,1988,,IL,64.1,92.5,95,97.5,97.5,57.5,60,-62.5,60,102.5,105,110,110,267.5
1,Rita Carrington,F,SBD,R-O,84,Raw,1991,,MO,80.6,-115,115,125,125,72.5,77.5,80,80,145,155,165,165,370
2,Kayla Boespflug,F,SBD,R-O,84,Raw,1989,,MO,76,100,-107.5,110,110,62.5,70,-75,70,132.5,140,147.5,147.5,327.5
1,Olivia Biggiam,F,SBD,R-T2,52,Raw,2000,Mustang Power Team,IL,51.3,60,65,70,70,32.5,35,-37.5,35,100,102.5,-107.5,102.5,207.5
1,Natalia Beyer,F,SBD,R-T3,57,Raw,1999,Mustang Power Team,IL,53.5,85,-92.5,92.5,92.5,45,50,-55,50,105,120,122.5,122.5,265
1,Isabella Martin,F,SBD,R-Y1,35,Raw,2009,,IL,32.3,37.5,42.5,45,45,20,22.5,-25,22.5,47.5,52.5,57.5,57.5,125
1,Angelina Battige,F,SBD,R-Y3,52,Raw,2004,,WI,52,97.5,102.5,107.5,107.5,57.5,62.5,65,65,115,125,127.5,127.5,300
1,James Freeman,M,SBD,O,120+,Single-ply,1988,,MO,140.9,320,-332.5,350,350,210,222.5,230,230,305,317.5,-325,317.5,897.5
1,Brandon Ware,M,SBD,R-JR,74,Raw,1994,,MO,73.2,-165,175,187.5,187.5,-115,120,-125,120,175,187.5,200,200,507.5
2,Mark Cadiz,M,SBD,R-JR,74,Raw,1995,,MO,72.4,147.5,157.5,162.5,162.5,90,95,102.5,102.5,170,180,192.5,192.5,457.5
1,Steven Fritsch,M,SBD,R-JR,93,Raw,1994,,MO,90.3,245,255,-265,255,155,165,170,170,250,260,272.5,272.5,697.5
1,Michael Schrimpf,M,SBD,R-M1a,83,Raw,1977,,IL,78.7,-160,160,170,170,107.5,112.5,115,115,200,215,227.5,227.5,512.5
1,David Martin #1,M,SBD,R-M1a,120,Raw,1976,,IL,113.6,220,230,232.5,232.5,137.5,145,150,150,220,235,240,240,622.5
1,James Washek,M,SBD,R-M2a,120,Raw,1964,,MO,110,150,155,160,160,130,140,-145,140,180,187.5,195,195,495
1,Brandon Ware,M,SBD,R-O,74,Raw,1994,,MO,73.2,-165,175,187.5,187.5,-115,120,-125,120,175,187.5,200,200,507.5
1,David Mealer,M,SBD,R-O,83,Raw,1984,,IL,81.9,207.5,215,-227.5,215,130,135,-140,135,227.5,237.5,245,245,595
2,Brian Hayhurst,M,SBD,R-O,83,Raw,1993,,IN,82,130,145,155,155,92.5,105,112.5,112.5,170,190,205,205,472.5
DQ,Robert Avery,M,SBD,R-O,83,Raw,1989,,KS,82.2,185,-192.5,192.5,192.5,-125,-135,-137.5,,240,255,267.5,267.5,
1,John Filipek,M,SBD,R-O,93,Raw,1995,,MO,93,190,207.5,220,220,115,122.5,132.5,132.5,225,235,242.5,242.5,595
2,Timothy Callahan,M,SBD,R-O,93,Raw,1992,,MO,87.5,160,167.5,175,175,112.5,122.5,130,130,190,200,210,210,515
1,Jordan Babcock,M,SBD,R-O,105,Raw,1991,,MO,100.1,220,230,240,240,150,155,160,160,255,270,285,285,685
2,Ken Jones,M,SBD,R-O,105,Raw,1990,,MO,103.2,205,217.5,227.5,227.5,152.5,162.5,170,170,245,260,272.5,272.5,670
3,Jaxon Karnoski,M,SBD,R-O,105,Raw,1997,,IL,103.9,195,207.5,220,220,147.5,157.5,-165,157.5,225,235,245,245,622.5
4,Chad Lowe,M,SBD,R-O,105,Raw,1996,,MO,94.9,175,182.5,187.5,187.5,117.5,130,-135,130,227.5,237.5,245,245,562.5
5,Joseph Taylor,M,SBD,R-O,105,Raw,1998,,MO,103.3,165,180,192.5,192.5,112.5,120,127.5,127.5,190,205,227.5,227.5,547.5
6,Matt Staebel,M,SBD,R-O,105,Raw,1989,,MO,95.7,-162.5,170,190,190,107.5,120,130,130,-185,185,225,225,545
1,Ben Caffey,M,SBD,R-O,120,Raw,1979,,MO,111.5,260,275,277.5,277.5,157.5,165,167.5,167.5,265,280,282.5,282.5,727.5
2,Johnny Ireland,M,SBD,R-O,120,Raw,1982,,MO,110.5,212.5,230,237.5,237.5,145,155,-162.5,155,230,250,-257.5,250,642.5
1,Chris Cholley,M,SBD,R-O,120+,Raw,1982,,MO,147.1,235,-242.5,250,250,110,120,140,140,210,220,230,230,620
1,Alex Ammerman,M,SBD,R-T1,105,Raw,2003,Mustang Power Team,IL,105,142.5,155,162.5,162.5,85,92.5,95,95,182.5,-215,-215,182.5,440
1,Bobby Requena,M,SBD,R-T2,59,Raw,2001,Mustang Power Team,IL,56.2,92.5,102.5,-110,102.5,57.5,62.5,-65,62.5,117.5,130,,130,295
1,Darren Reinagle,M,SBD,R-T2,66,Raw,2001,Mustang Power Team,IL,63.6,95,110,117.5,117.5,70,75,-77.5,75,142.5,162.5,-167.5,162.5,355
1,Adam Born,M,SBD,R-T2,83,Raw,2001,Mustang Power Team,IL,78,160,170,180,180,85,95,-100,95,182.5,207.5,-217.5,207.5,482.5
2,Hunter Koller,M,SBD,R-T2,83,Raw,2000,,IL,80.2,142.5,-150,-150,142.5,115,122.5,-130,122.5,185,-190,190,190,455
1,Jack Heynen,M,SBD,R-T2,93,Raw,2001,Mustang Power Team,IL,91.4,160,170,177.5,177.5,85,92.5,-102.5,92.5,192.5,207.5,-217.5,207.5,477.5
2,Cameron Green,M,SBD,R-T2,93,Raw,2000,Mustang Power Team,IL,89.4,160,170,-175,170,92.5,97.5,-107.5,97.5,192.5,-210,,192.5,460
1,Andrew Ammerman,M,SBD,R-T2,105,Raw,2002,Mustang Power Team,IL,104.7,137.5,147.5,155,155,62.5,65,70,70,150,175,182.5,182.5,407.5
2,Will Allen,M,SBD,R-T2,105,Raw,2000,,MO,94.4,-135,135,-145,135,82.5,-90,-90,82.5,147.5,155,165,165,382.5
1,Kyle Bailey,M,SBD,R-T3,74,Raw,1998,,MO,71.9,175,185,-192.5,185,122.5,130,-137.5,130,190,205,-220,205,520
1,Noah Diffley,M,SBD,T2,93,Single-ply,2001,,MO,85.6,-135,152.5,160,160,102.5,110,117.5,117.5,135,160,-182.5,160,437.5
1,Riley Emmenegger,M,SBD,T3,83,Single-ply,2000,,MO,79.9,142.5,-185,-185,142.5,102.5,112.5,-117.5,112.5,142.5,185,202.5,202.5,457.5
