Name,Division,Place,WeightClassKg,Sex,BodyweightKg,BirthDate,Bench1Kg,Bench2Kg,Bench3Kg,Best3BenchKg,TotalKg,Event,Equipment
Jan Geiselhart,Open,1,105,M,95.6,1987-12-27,155,165,-175,165,165,B,Single-ply
Simon Bausewein,Juniors,1,105,M,100.4,1997-12-20,160,-165,-165,160,160,B,Single-ply
Reik Schindler,Masters 1,1,93,M,92.8,1974-10-22,135,145,-155,145,145,B,Single-ply
János Geerhardt,Masters 2,1,93,M,84.55,1967-08-15,130,-152.5,-152.5,130,130,B,Single-ply
Lucas Bacmeister,Open,1,83,M,81.3,1990-04-12,145,150,-152.2,150,150,B,Single-ply
Jonas Bausewein,Juniors,2,105,M,94.75,1997-12-20,-130,132.5,-140,132.5,132.5,B,Single-ply
Andreas Röder,Open,2,74,M,68.8,1990-05-04,125,132.5,-140,132.5,132.5,B,Single-ply
Patrick Hobner,Open,2,83,M,81.9,1988-11-24,-132.5,132.5,-140,132.5,132.5,B,Single-ply
Stephan Frohnapfel,Open,2,120,M,117.4,1985-11-19,105,110,-120,110,110,B,Single-ply
Norbert Hanke,Masters 3,1,93,M,88.05,1950-07-08,-112.5,112.5,-117.5,112.5,112.5,B,Single-ply
Ruben Amon,Juniors,2,83,M,81.25,1999-11-11,100,107.5,-117.5,107.5,107.5,B,Single-ply
Stefan Häußner,Open,DQ,83,M,79.1,1987-07-15,-110,-110,-110,,,B,Single-ply
Dominik Neuß,Open,3,93,M,83.9,1985-03-01,100,105,-110,105,105,B,Single-ply
Detlef Martach,Masters 2,2,93,M,91.85,1961-12-20,85,90,-95,90,90,B,Single-ply
Philipp Kammerer,Open,1,93,M,89.85,1988-04-02,75,80,-85,80,80,B,Single-ply
Lukas Endres,Open,5,83,M,81.3,1992-08-04,75,80,-85,80,80,B,Single-ply
Valérie von Gleichen,Open,1,84,F,77.65,1992-12-20,62.5,-67.5,-67.5,62.5,62.5,B,Single-ply
Sarah Zottmann,Open,1,63,F,59.95,1992-04-15,55,57.5,60,60,60,B,Single-ply
Verena Rehnagel,Open,2,72,F,71.05,1980-11-25,52.5,57.5,60,60,60,B,Single-ply
Lisa Schlagbauer,Open,1,63,F,62.2,1996-10-31,55,60,62.5,62.5,62.5,B,Single-ply
Max Schröder,Youth,1,83,M,79.1,2000-08-11,75,80,82.5,82.5,82.5,B,Single-ply
Martin Meinert,Open,1,74,M,74,1988-06-23,95,-100,100,100,100,B,Single-ply
Cathrin Silberzahn,Open,1,72,F,70.65,1988-12-17,85,95,102.5,102.5,102.5,B,Single-ply
Mirko Münch,Juniors,3,83,M,76.05,1997-11-13,-95,100,102.5,102.5,102.5,B,Single-ply
Nicolas Göb,Juniors,3,105,M,94,1995-07-05,85,95,102.5,102.5,102.5,B,Single-ply
Julian Schiller,Youth,1,105,M,97.5,2001-08-04,90,95,105,105,105,B,Single-ply
Valentin Hoffmann,Juniors,1,93,M,87.5,1999-02-28,95,100,107.5,107.5,107.5,B,Single-ply
Janes Schiller,Youth,1,93,M,89.95,2003-04-12,90,100,107.5,107.5,107.5,B,Single-ply
Emil Erb,Masters 3,1,105,M,93.55,1950-08-21,100,105,110,110,110,B,Single-ply
Christian Mehringer,Open,4,83,M,79,1997-10-24,85,-110,110,110,110,B,Single-ply
Klaus Höhn,Masters 2,2,83,M,78.2,1963-12-06,105,-112.5,117.5,117.5,117.5,B,Single-ply
Torsten Pilz,Masters 2,1,83,M,78,1963-10-01,110,115,117.5,117.5,117.5,B,Single-ply
Jonathan Schmitt,Juniors,1,83,M,77.25,1998-04-01,85,115,120,120,120,B,Single-ply
Wolf Ernst,Juniors,2,93,M,87.1,1998-07-15,110,117.5,122.5,122.5,122.5,B,Single-ply
Lukas Köster,Juniors,1,120,M,116.5,1996-11-30,120,-125,125,125,125,B,Single-ply
Frank Meyer,Open,3,83,M,81.35,1988-12-08,120,-127.5,127.5,127.5,127.5,B,Single-ply
Luis Bauer,Juniors,1,93,M,91.05,1996-06-08,130,135,140,140,140,B,Single-ply
Thorsten Thenhart,Masters 1,1,120,M,111.8,1975-08-03,120,135,142.5,142.5,142.5,B,Single-ply
Christian Schumacher,Open,1,74,M,72.2,1991-09-25,130,140,142.5,142.5,142.5,B,Single-ply
Andreas Hofmann,Open,2,93,M,90.4,1988-08-09,130,137.5,142.5,142.5,142.5,B,Single-ply
David Weidemüller,Open,1,93,M,86.05,1989-02-09,135,145,152.5,152.5,152.5,B,Single-ply
Daniel Kiesel,Open,1,120,M,105.6,1988-10-17,155,-160,160,160,160,B,Single-ply
Peter Kirsch,Masters 2,1,105,M,98.6,1960-12-28,160,175,190,190,190,B,Single-ply
Nina Unger,Open,2,63,F,60.25,1989-11-10,52.5,,,52.5,52.5,B,Single-ply
Marco Dömling,Masters 1,1,83,M,82.8,1976-08-23,80,,,80,80,B,Single-ply
