Division,WeightClassKg,Place,Name,Team,BodyweightKg,Best3SquatKg,Best3BenchKg,Best3DeadliftKg,TotalKg,Equipment,Event,Sex
Boys,52,1,Jeremiah Zelaya,Victoria East,51.53,138.35,72.57,158.76,369.68,Single-ply,SBD,M
Boys,52,2,Marquis Alexander,Van Vleck,51.71,77.11,31.75,90.72,199.58,Single-ply,SBD,M
Boys,56,1,Stephen Hernandez,Victoria East,55.79,156.49,92.99,163.29,412.77,Single-ply,SBD,M
Boys,56,2,Russell Morrison,El Maton Tidehaven,55.79,136.08,70.31,151.95,358.34,Single-ply,SBD,M
Boys,56,3,Gavin Clark,Cleveland,55.47,113.4,54.43,131.54,299.37,Single-ply,SBD,M
Boys,56,4,Marc Walters,El Maton Tidehaven,54.7,102.06,45.36,145.15,292.57,Single-ply,SBD,M
Boys,56,DQ,David Owens,La Marque,,,,,,Single-ply,SBD,M
Boys,60,1,Frank Cobio,Brookshire Royal,59.01,154.22,102.06,163.29,419.57,Single-ply,SBD,M
Boys,60,2,DJ Vargas,Van Vleck,59.87,113.4,65.77,145.15,324.32,Single-ply,SBD,M
Boys,60,3,Kyle O'Keefe,Victoria East,57.79,129.27,52.16,133.81,315.25,Single-ply,SBD,M
Boys,67.5,1,Jonathan Zelaya,Victoria East,66.54,256.28,142.88,213.19,612.35,Single-ply,SBD,M
Boys,67.5,2,Brandon Robles,Van Vleck,64.73,206.38,97.52,197.31,501.22,Single-ply,SBD,M
Boys,67.5,3,Logan Pierce,El Maton Tidehaven,66.72,142.88,83.91,183.7,410.5,Single-ply,SBD,M
Boys,67.5,4,Abraham Espino,Van Vleck,60.28,129.27,86.18,142.88,358.34,Single-ply,SBD,M
Boys,67.5,5,Brandon Espinoza,Van Vleck,66.68,95.25,77.11,120.2,292.57,Single-ply,SBD,M
Boys,67.5,6,Dalton Wicker,Van Vleck,66.04,106.59,58.97,115.67,281.23,Single-ply,SBD,M
Boys,67.5,7,Tanner Rawlings,Van Vleck,66.77,90.72,70.31,108.86,269.89,Single-ply,SBD,M
Boys,67.5,DQ,Devin Cervantes,Van Vleck,66.54,,,,,Single-ply,SBD,M
Boys,67.5,DQ,Stephen Appling,Louise,,,,,,Single-ply,SBD,M
Boys,67.5,DQ,Derek Muna,Louise,,,,,,Single-ply,SBD,M
Boys,67.5,DQ,Carlos Rubio,El Maton Tidehaven,,,,,,Single-ply,SBD,M
Boys,67.5,DQ,Russell Pickney,La Marque,64,142.88,,165.56,,Single-ply,SBD,M
Boys,75,1,Jacob Galvez,El Maton Tidehaven,73.62,195.04,129.27,188.24,512.56,Single-ply,SBD,M
Boys,75,2,Fabian Salazar,Cleveland,72.67,195.04,113.4,192.78,501.22,Single-ply,SBD,M
Boys,75,3,Joseph Stewart,Brookshire Royal,72.98,201.85,115.67,181.44,498.95,Single-ply,SBD,M
Boys,75,4,Eric Perez,Cleveland,70.99,179.17,97.52,208.65,485.34,Single-ply,SBD,M
Boys,75,5,Kyle Carillo,El Maton Tidehaven,71.67,183.7,92.99,197.31,474,Single-ply,SBD,M
Boys,75,6,Zay Vaunte Easton,Van Vleck,70.26,165.56,102.06,158.76,426.38,Single-ply,SBD,M
Boys,75,DQ,Darrin McCarty,Cleveland,70.67,,,,,Single-ply,SBD,M
Boys,75,DQ,Will Priest,Brookshire Royal,70.58,122.47,,136.08,,Single-ply,SBD,M
Boys,75,DQ,Gage Davis,Van Vleck,70.03,147.42,97.52,,,Single-ply,SBD,M
Boys,82.5,1,Kobe Blackmon,Van Vleck,76.97,190.51,136.08,204.12,530.7,Single-ply,SBD,M
Boys,82.5,2,Jatorian Travis,El Maton Tidehaven,80.69,195.04,142.88,183.7,521.63,Single-ply,SBD,M
Boys,82.5,3,Luis Vasquez,Cleveland,81.24,195.04,136.08,183.7,514.83,Single-ply,SBD,M
Boys,82.5,4,Jaden Bishop,La Marque,81.47,188.24,124.74,185.97,498.95,Single-ply,SBD,M
Boys,82.5,5,Johnathan Oviedo,Victoria East,80.24,204.12,117.93,174.63,496.68,Single-ply,SBD,M
Boys,82.5,6,Dylan Reeves,Cleveland,80.83,197.31,113.4,174.63,485.34,Single-ply,SBD,M
Boys,82.5,7,Elery Alexander,Van Vleck,79.06,183.7,99.79,199.58,483.08,Single-ply,SBD,M
Boys,82.5,8,Christian Randell,Cleveland,77.88,165.56,104.33,151.95,421.84,Single-ply,SBD,M
Boys,82.5,9,Aaron Sims,Cleveland,78.06,124.74,74.84,145.15,344.73,Single-ply,SBD,M
Boys,82.5,DQ,Nicholas Martinez,Van Vleck,,,,,,Single-ply,SBD,M
Boys,82.5,DQ,Fabian Bogany,Cleveland,81.74,,88.45,190.51,,Single-ply,SBD,M
Boys,90,1,Jeff Williams,El Maton Tidehaven,89.81,219.99,174.63,235.87,630.49,Single-ply,SBD,M
Boys,90,2,Rashad Tolbert,Van Vleck,88.09,249.48,138.35,233.6,621.42,Single-ply,SBD,M
Boys,90,3,Austin Cartwright,Cleveland,89.22,231.33,124.74,233.6,589.67,Single-ply,SBD,M
Boys,90,4,Christian Montemayor,Van Vleck,88.41,174.63,108.86,215.46,498.95,Single-ply,SBD,M
Boys,90,5,Braden Fitzgerald,El Maton Tidehaven,83.69,154.22,113.4,195.04,462.66,Single-ply,SBD,M
Boys,90,6,Tristan Wells,Van Vleck,83.73,147.42,95.25,183.7,426.38,Single-ply,SBD,M
Boys,90,DQ,Gabe Hernandez,Victoria East,,,,,,Single-ply,SBD,M
Boys,90,DQ,Devon Turner,La Marque,,,,,,Single-ply,SBD,M
Boys,100,1,Christian Oviedo,Victoria East,97.89,247.21,151.95,206.38,605.55,Single-ply,SBD,M
Boys,100,2,Jaime Morales,Cleveland,90.63,231.33,124.74,242.67,598.74,Single-ply,SBD,M
Boys,100,3,Dalton Ashcraft,Van Vleck,98.7,226.8,127.01,215.46,569.26,Single-ply,SBD,M
Boys,100,4,Isaiah Montes,Louise,92.53,226.8,90.72,174.63,492.15,Single-ply,SBD,M
Boys,100,5,Lane Elizondo,Van Vleck,98.88,151.95,95.25,167.83,415.04,Single-ply,SBD,M
Boys,100,6,Cavion McCoy,La Marque,90.72,127.01,83.91,156.49,367.41,Single-ply,SBD,M
Boys,100,DQ,Juan Hernandez #7,Brookshire Royal,,,,,,Single-ply,SBD,M
Boys,110,1,Miguel Montes,Louise,103.78,265.35,129.27,233.6,628.23,Single-ply,SBD,M
Boys,110,2,Charlie Tabares,Van Vleck,106,199.58,145.15,226.8,571.53,Single-ply,SBD,M
Boys,110,3,Christian Gomez,Victoria East,106.91,183.7,104.33,190.51,478.54,Single-ply,SBD,M
Boys,110,DQ,Garrett Wolfe,Danbury,,,,,,Single-ply,SBD,M
Boys,110,DQ,Joel Sumlin,La Marque,,,,,,Single-ply,SBD,M
Boys,110,DQ,Celestino Alvarez,Victoria East,,,,,,Single-ply,SBD,M
Boys,125,1,Robert Martinez,Louise,123.47,249.48,142.88,238.14,630.49,Single-ply,SBD,M
Boys,125,2,Jorge Vazquez,Victoria East,116.53,226.8,120.2,204.12,551.11,Single-ply,SBD,M
Boys,125,3,De'Mondre Wade,Brookshire Royal,123.29,195.04,106.59,181.44,483.08,Single-ply,SBD,M
Boys,125,4,Mack Sterling,La Marque,114.35,136.08,106.59,156.49,399.16,Single-ply,SBD,M
Boys,125,DQ,Pedro Rubio,La Marque,,,,,,Single-ply,SBD,M
Boys,125+,1,Joel Wamget,Van Vleck,142.97,276.69,199.58,244.94,721.21,Single-ply,SBD,M
Boys,125+,2,Marlon Ford,La Marque,158.21,288.03,124.74,251.74,664.51,Single-ply,SBD,M
Boys,125+,3,Fransisco Infante,Brookshire Royal,148.28,242.67,145.15,204.12,591.94,Single-ply,SBD,M
Boys,125+,4,Ryan Birchum,El Maton Tidehaven,153.22,204.12,124.74,204.12,532.97,Single-ply,SBD,M
Boys,,DQ,Mateo Munoz,Louise,,,,,,Single-ply,SBD,M
