Event,Sex,Division,WeightClassKg,Best3BenchKg,Bench4Kg,Best3DeadliftKg,Deadlift4Kg,TotalKg,Name,State,Equipment,Place
B,M,Class 1,67.5,140,,,,140,Jake Fiscus,OR,Single-ply,1
B,M,Class 1,75,168,,,,168,James Lin,WA,Multi-ply,1
B,M,Class 1,82.5,167.5,173,,,167.5,Jackson Jones,WA,Multi-ply,1
B,M,Class 1,82.5,145,,,,145,Anthony Stratton,OR,Single-ply,1
B,M,Class 1,90,182.5,,,,182.5,Alonzo Belen,WA,Single-ply,1
B,M,Class 1,90,150,,,,150,Derek Kumagai,WA,Multi-ply,1
B,M,Class 1,90,167.5,,,,167.5,Ray Segura,WA,Single-ply,2
B,M,Class 1,110,233.5,237.5,,,233.5,Shayne Unea,OR,Single-ply,1
B,M,Class 1,125,202.5,,,,202.5,Joe Garcia,OR,Single-ply,1
B,M,Disabled 1 13-19,52,35,,,,35,Justin Naramor,WA,Single-ply,1
B,M,Disabled 1 13-19,60,40,45,,,40,Adam Reed,WA,Single-ply,1
B,M,Disabled 1 13-19,60,32.5,,,,32.5,Damian Parra,WA,Single-ply,2
B,M,Disabled 1 13-19,60,32.5,,,,32.5,Husai Sanchez,WA,Single-ply,3
B,M,Disabled 1 20-39,110,137.5,140.5,,,137.5,Matthew Ross,OR,Single-ply,1
B,M,Disabled 1 20-39,140,132.5,,,,132.5,J C Smith,OR,Single-ply,1
B,M,Disabled 2 20-39,48,57.5,58,,,57.5,Todd Moore,Canada,Single-ply,1
B,M,Disabled 2 20-39,82.5,152.5,,,,152.5,Dylan Kuehl,WA,Single-ply,1
B,M,Law-Fire 40-47,117.5,177.5,,,,177.5,Bill Splawn,WA,Single-ply,1
B,M,Law-Fire 48-55,100,229,,,,229,Brian Reynolds,WA,Single-ply,1
B,M,Law-Fire 48-55,110,244,,,,244,Bert Hafner,WA,Single-ply,1
B,M,Law-Fire 56-63,125,143,,,,143,Don Bryant,WA,Single-ply,1
B,M,Law-Fire 64,100,165,173,,,165,Jon Wolbers,Canada,Multi-ply,1
B,M,Masters 40-46,75,168,,,,168,James Lin,WA,Multi-ply,1
B,M,Masters 40-46,82.5,265,,,,265,Valentino Plummer,OR,Single-ply,1
B,M,Masters 40-46,100,137.5,,,,137.5,George Price,WA,Single-ply,1
B,M,Masters 40-46,117.5,275,,,,275,Troy Chun,OR,Single-ply,1
B,M,Masters 40-46,125,182.5,,,,182.5,Dawane Harris,OR,Single-ply,1
B,M,Masters 40-46,140+,355,,,,355,Sam Aumavae,OR,Single-ply,1
B,M,Masters 47-53,75,145,,,,145,Keith Cunningham,WA,Multi-ply,1
B,M,Masters 47-53,90,182.5,,,,182.5,Alonzo Belen,WA,Single-ply,1
B,M,Masters 47-53,100,240,,,,240,James Noblit,OR,Multi-ply,1
B,M,Masters 47-53,100,229,,,,229,Brian Reynolds,WA,Single-ply,1
B,M,Masters 47-53,100,187.5,,,,187.5,George Merrill,OR,Multi-ply,2
B,M,Masters 47-53,100,172.5,,,,172.5,Dave Shockman,OR,Single-ply,2
B,M,Masters 47-53,125,202.5,,,,202.5,Joe Garcia,OR,Single-ply,1
B,M,Masters 54-60,90,150,,,,150,Eric Georgeon,OR,Single-ply,1
B,M,Masters 54-60,100,157.5,,,,157.5,James Spainhower,WA,Single-ply,1
B,M,Masters 61-67,82.5,170,177.5,,,170,Perry Plush,WA,Multi-ply,1
B,M,Masters 61-67,125,317.5,,,,317.5,Willard Crossen Jr,WA,Single-ply,1
B,M,Masters 61-67,140,147.5,160.5,,,147.5,Larry Riskey,OR,Single-ply,1
B,M,Masters 68-74,90,160,165,,,160,Joe Beteta,OR,Multi-ply,1
B,M,Masters 85-89,75,85,87.5,,,85,Roger Moore,OR,Single-ply,1
B,M,Masters 85-89,82.5,60,,,,60,Nixon Munly,OR,Single-ply,1
B,M,Masters 40-46,75,60,,,,60,Michele Plummer,OR,Single-ply,1
B,M,Open,75,215,,,,215,Willard Crossen III,WA,Single-ply,1
B,M,Open,117.5,275,,,,275,Troy Chun,OR,Single-ply,1
B,M,Open,125,317.5,,,,317.5,Willard Crossen Jr,WA,Single-ply,1
B,M,Open,140+,355,,,,355,Sam Aumavae,OR,Single-ply,1
B,M,Special Olympian,82.5,152.5,,,,152.5,Dylan Kuehl,WA,Single-ply,1
B,M,Submasters 33-39,67.5,140,,,,140,Jake Fiscus,OR,Single-ply,1
B,M,Submasters 33-39,75,215,,,,215,Willard Crossen III,WA,Single-ply,1
B,M,Submasters 33-39,117.5,252.5,,,,252.5,Kegan Engelke,WA,Single-ply,1
B,M,Teen 12-13,48,63.5,,,,63.5,Kaison Uehara,OR,Single-ply,1
B,M,Teen 12-13,56,37.5,,,,37.5,Gage Garner,OR,Single-ply,1
B,M,Teen 12-13,67.5,32.5,,,,32.5,Liam Moore,OR,Single-ply,1
B,M,Teen 14-15,67.5,120,,,,120,Mason Nakamura,OR,Single-ply,1
B,M,Teen 16-17,90,100,,,,100,Nathaniel Baker #2,WA,Single-ply,1
B,M,Teen 18-19,44,80,,,,80,Michael Pearson,WA,Multi-ply,1
D,M,Class 1,82.5,,,190,,190,Tyler Stephens,OR,Single-ply,1
D,M,Class 1,82.5,,,190,,190,Anthony Stratton,OR,Single-ply,2
D,M,Class 1,82.5,,,170,,170,Dylan Kuehl,WA,Single-ply,3
D,M,Class 1,90,,,202.5,,202.5,Ray Segura,WA,Single-ply,1
D,M,Class 1,90,,,195,,195,Juan Martinez,OR,Single-ply,2
D,M,Class 1,100,,,240,,240,Nicholas Cole,WA,Single-ply,1
D,M,Class 1,125,,,272.5,,272.5,Joe Garcia,OR,Single-ply,1
D,M,Class 1,140,,,237.5,,237.5,Nick Livesey,OR,Single-ply,1
D,M,Class 1,140+,,,245,,245,Dan Moore,OR,Single-ply,1
D,M,Disabled 1 13-19,52,,,67.5,70,67.5,Justin Naramor,WA,Single-ply,1
D,M,Disabled 1 13-19,60,,,82.5,,82.5,Adam Reed,WA,Single-ply,1
D,M,Disabled 1 13-19,60,,,75,,75,Damian Parra,WA,Single-ply,2
D,M,Disabled 1 13-19,60,,,47.5,,47.5,Husai Sanchez,WA,Single-ply,3
D,M,Disabled 1 20-39,110,,,207.5,,207.5,Matthew Ross,OR,Single-ply,1
D,M,Disabled 2 20-39,48,,,98,100,98,Todd Moore,Canada,Single-ply,1
D,M,Disabled 2 40-59,125,,,227.5,237.5,227.5,Dawane Harris,OR,Single-ply,1
D,M,Juniors 20-25,110,,,332.5,338,332.5,Danny Grigsby,OR,Single-ply,1
D,M,Law-Fire 40-47,117.5,,,230,,230,Bill Splawn,WA,Single-ply,1
D,M,Law-Fire 64,100,,,255,,255,Jon Wolbers,Canada,Single-ply,1
D,M,Masters 40-46,100,,,227.5,,227.5,George Price,WA,Single-ply,1
D,M,Masters 47-53,56,,,212.5,,212.5,Marc Morishige,WA,Single-ply,1
D,M,Masters 47-53,125,,,317.5,,317.5,Joe Fernandez,OR,Single-ply,1
D,M,Masters 47-53,125,,,237.5,,237.5,Joe Garcia,OR,Single-ply,2
D,M,Masters 54-60,75,,,230,,230,Alfredo Evangelista,OR,Single-ply,1
D,M,Masters 54-60,82.5,,,285,,285,Leamon Woodley,WA,Single-ply,1
D,M,Masters 61-67,75,,,182.5,,182.5,Dave Budlong,OR,Single-ply,1
D,M,Masters 61-67,140,,,147.5,152.5,147.5,Larry Riskey,OR,Single-ply,1
D,M,Open,56,,,212.5,,212.5,Marc Morishige,WA,Single-ply,1
D,M,Open,75,,,230,,230,Alfredo Evangelista,OR,Single-ply,1
D,M,Open,82.5,,,285,,285,Leamon Woodley,WA,Single-ply,1
D,M,Open,110,,,292.5,,292.5,John Anthony,OR,Single-ply,1
D,M,Open,117.5,,,337.5,,337.5,Travis Mc Cormick,OR,Single-ply,1
D,M,Open,125,,,317.5,,317.5,Joe Fernandez,OR,Single-ply,1
D,M,Special Olympian,82.5,,,170,,170,Dylan Kuehl,WA,Single-ply,1
D,M,Submasters 33-39,117.5,,,337.5,,337.5,Travis Mc Cormick,OR,Single-ply,1
D,M,Submasters 33-39,117.5,,,288,,288,Kegan Engelke,WA,Single-ply,2
D,M,Submasters 33-39,140+,,,245,,245,Dan Moore,OR,Single-ply,1
D,M,Teen 12-13,44,,,47.5,,47.5,Derek McCormick,OR,Single-ply,1
D,M,Teen 12-13,48,,,115.5,,115.5,Kaison Uehara,OR,Single-ply,1
D,M,Teen 12-13,56,,,105,,105,Gage Garner,OR,Single-ply,1
D,M,Teen 12-13,67.5,,,70,,70,Liam Moore,OR,Single-ply,1
D,M,Teen 14-15,67.5,,,192.5,205.5,192.5,Mason Nakamura,OR,Single-ply,1
D,M,Teen 14-15,100,,,192.5,,192.5,Isaac Moore,OR,Single-ply,1
D,M,Teen 16-17,90,,,150,,150,Nathaniel Baker #2,WA,Single-ply,1
BD,M,Class 1,82.5,145,,190,,335,Anthony Stratton,OR,Single-ply,1
BD,M,Class 1,140+,,,,,325,Joshua Koch,OR,Single-ply,1
BD,M,Law-Fire 40-47,117.5,177.5,,230,,407.5,Bill Splawn,WA,Single-ply,1
BD,M,Masters 47-53,100,,,,,375,Eric Leland,WA,Single-ply,1
BD,M,Masters 54-60,82.5,157.5,,285,,442.5,Leamon Woodley,WA,Single-ply,1
BD,M,Submasters 33-39,117.5,252.5,,288,,540.5,Kegan Engelke,WA,Single-ply,1
B,F,Class 1,67.5,67.5,,,,67.5,Marya Tracer,OR,Single-ply,1
B,F,Class 1,90+,60,,,,60,Kay Kadoun,WA,Single-ply,1
B,F,Disabled 1 13-19,56,40,,,,40,Ella Donaghey,WA,Single-ply,1
B,F,Disabled 1 13-19,75,37.5,,,,37.5,Alexann Tureman,WA,Single-ply,1
B,F,Juniors,82.5,110,112.5,,,110,Kayla Sua,WA,Multi-ply,1
B,F,Law-Fire Open,90,147.5,,,,147.5,Alisha Howard,WA,Single-ply,1
B,F,Masters 61-67,90+,72.5,,,,72.5,Christine Burk,OR,Single-ply,1
B,F,Masters 40-46,82.5,80,82.5,,,80,Patricia Beasock,WA,Multi-ply,1
B,F,Masters 47-53,67.5,72.5,,,,72.5,Nancie Ryan,OR,Single-ply,1
B,F,Masters 47-53,75,145,156.5,,,145,Cindy Shockman,OR,Single-ply,1
B,F,Masters 47-53,90,103,,,,103,Linda Gerking,WA,Multi-ply,1
B,F,Masters 54-60,67.5,107.5,110,,,107.5,Nadine Brack,WA,Single-ply,1
B,F,Masters 68-74,82.5,100.5,105,,,100.5,Pat Robey,WA,Single-ply,1
B,F,Masters 85-89,67.5,30,,,,30,Catherine Kuehn,OR,Single-ply,1
B,F,Masters 85-89,90,20,,,,20,Gloria Mighell,OR,Single-ply,1
B,F,Open,67.5,120,,,,120,Christie Luehrs,OR,Single-ply,1
B,F,Open,67.5,77.5,,,,77.5,Kimberly Phanthavong,WA,Single-ply,2
B,F,Open,75,145,156.5,,,145,Cindy Shockman,OR,Single-ply,1
B,F,Open,90,120,,,,120,Mary Denning,WA,Multi-ply,1
B,F,Submasters,67.5,120,,,,120,Christie Luehrs,OR,Single-ply,1
B,F,Submasters,90,120,,,,120,Mary Denning,WA,Multi-ply,1
B,F,Submasters,90,147.5,,,,147.5,Alisha Howard,WA,Single-ply,1
B,F,Teen 12-13,44,20,,,,20,Risa Chrestensen,OR,Single-ply,1
B,F,Teen 12-13,60,45,,,,45,Olivia Snoke,OR,Single-ply,1
B,F,Teen 12-13,67.5,45,,,,45,Molly Moore,OR,Single-ply,1
B,F,Teen 16-17,56,42.5,,,,42.5,Mc Kenna Holmes,OR,Single-ply,1
B,F,Teen 18-19,67.5,42.5,,,,42.5,Shana Newton,WA,Single-ply,1
D,F,Class 1,52,,,100,,100,Jeanne Morris,WA,Single-ply,1
D,F,Class 1,67.5,,,150,,150,Marya Tracer,OR,Single-ply,1
D,F,Class 1,67.5,,,132.5,142.5,132.5,Joni Texeira,OR,Single-ply,2
D,F,Class 1,82.5,,,112.5,115,112.5,Aimee Priest,OR,Single-ply,1
D,F,Class 1,90,,,150,155,150,Moses Enos,WA,Single-ply,1
D,F,Class 1,90+,,,142.5,145,142.5,Kay Kadoun,WA,Single-ply,1
D,F,Disabled 1 13-19,56,,,95,100,95,Ella Donaghey,WA,Single-ply,1
D,F,Disabled 1 13-19,75,,,90,92.5,90,Alexann Tureman,WA,Single-ply,1
D,F,Disabled 1 13-19,90+,,,70,75,70,Alexis Payne,WA,Single-ply,1
D,F,Law-Fire Open,90,,,210,,210,Alisha Howard,WA,Single-ply,1
D,F,Masters 61-67,90+,,,125,,125,Christine Burk,OR,Single-ply,1
D,F,Masters 47-53,90,,,200,,200,Jennifer Taylor,OR,Single-ply,1
D,F,Masters 54-60,52,,,100,,100,Jeanne Morris,WA,Single-ply,1
D,F,Masters 54-60,82.5,,,145,,145,Margie Huston,WA,Single-ply,1
D,F,Masters 54-60,90,,,105,,105,Elaine May,OR,Single-ply,1
D,F,Masters 68-74,75,,,140.5,,140.5,Judith Petray,California,Single-ply,1
D,F,Masters 75-79,75,,,102.5,107.5,102.5,Judy Madsen,OR,Single-ply,1
D,F,Masters 85-89,67.5,,,60.5,,60.5,Catherine Kuehn,OR,Single-ply,1
D,F,Open,67.5,,,170,,170,Kimberly Phanthavong,WA,Single-ply,1
D,F,Open,67.5,,,132.5,142.5,132.5,Joni Texeira,OR,Single-ply,2
D,F,Open,90,,,200,,200,Jennifer Taylor,OR,Single-ply,1
D,F,Submasters,90,,,210,,210,Alisha Howard,WA,Single-ply,1
D,F,Teen 12-13,60,,,102.5,105,102.5,Olivia Snoke,OR,Single-ply,1
D,F,Teen 12-13,67.5,,,105,107.5,105,Molly Moore,OR,Single-ply,1
D,F,Teen 16-17,56,,,97.5,100,97.5,Mc Kenna Holmes,OR,Single-ply,1
D,F,Teen 18-19,67.5,,,87.5,,87.5,Shana Newton,WA,Single-ply,1
BD,F,Class 1,67.5,67.5,,150,,217.5,Marya Tracer,OR,Single-ply,1
BD,F,Masters 54-60,90,52.5,,105,,157.5,Elaine May,OR,Single-ply,1
