Name,Sex,BodyweightKg,WeightClassKg,BirthDate,Squat1Kg,Squat2Kg,Squat3Kg,Best3SquatKg,Bench1Kg,Bench2Kg,Bench3Kg,Best3BenchKg,Deadlift1Kg,Deadlift2Kg,Deadlift3Kg,Best3DeadliftKg,TotalKg,Place,Equipment,Division,Event
Anja Schreiner,F,45.2,47,1993-07-30,125,130,-135,130,77.5,85,90,90,105,115,-120,115,335,2,Single-ply,Open,SBD
Catrin Resch,F,49.3,52,1965-01-08,110,120,130,130,72.5,77.5,82.5,82.5,110,120,130,130,342.5,10,Single-ply,Open,SBD
Susann Cichon,F,56,57,1987-05-22,137.5,147.5,,147.5,75,-77.5,-80,75,140,147.5,152.5,152.5,375,4,Single-ply,Open,SBD
Sonja Stefanie Krüger,F,66.35,72,1999-12-04,180,192.5,-205,192.5,115,125,132.5,132.5,145,152.5,-157.5,152.5,477.5,9,Single-ply,Open,SBD
Elke Erbs,F,68.2,72,1984-08-15,185,200,-212.5,200,-95,95,-105,95,175,185,-195,185,480,7,Single-ply,Open,SBD
Katja Broxtermann,F,70.4,72,1986-02-03,162.5,167.5,170,170,117.5,120,122.5,122.5,157.5,-162.5,,157.5,450,5,Single-ply,Open,SBD
Yosef Aziz,M,64.1,66,1998-10-23,210,-220,,210,100,110,117.5,117.5,205,225,-232.5,225,552.5,3,Single-ply,Open,SBD
Daniel Zehnle,M,66.5,74,1998-01-23,165,175,,175,-100,100,105,105,195,207.5,-215,207.5,487.5,4,Single-ply,Open,SBD
Clemens Lück,M,69.9,74,1991-10-19,155,165,172.5,172.5,117.5,122.5,-125,122.5,200,210,215,215,510,8,Single-ply,Open,SBD
Marc Bielau,M,70.9,74,1986-05-05,230,245,-255,245,140,147.5,-152.5,147.5,220,235,242.5,242.5,635,2,Single-ply,Open,SBD
Marcel Boegelin,M,73.5,74,1992-01-26,190,202.5,207.5,207.5,142.5,150,-152.5,150,230,245,252.5,252.5,610,10,Single-ply,Open,SBD
Christian Henneberger,M,73.95,74,1973-07-02,220,230,-240,230,125,135,142.5,142.5,215,227.5,237.5,237.5,610,14,Single-ply,Open,SBD
Marius Milla,M,75.7,83,1993-06-16,250,260,,260,150,160,-170,160,240,270,,270,690,3,Single-ply,Open,SBD
André Weißmann,M,77.25,83,1991-02-19,-200,-200,-200,,,,,,,,,,,DQ,Single-ply,Open,SBD
Matthias Siegle,M,79.95,83,1963-07-11,225,240,,240,150,170,-180,170,225,240,-252.5,240,650,15,Single-ply,Open,SBD
Patrick Hobner,M,82.55,83,1988-11-24,185,195,200,200,122.5,130,135,135,200,217.5,227.5,227.5,562.5,14,Single-ply,Open,SBD
Ron Kronschwitz,M,82.7,83,1981-02-08,220,240,250,250,182.5,187.5,192.5,192.5,240,250,,250,692.5,5,Single-ply,Open,SBD
Ricardo Schunk,M,83.1,93,1970-02-06,230,-240,250,250,170,175,-180,175,220,230,235,235,660,12,Single-ply,Open,SBD
Thomas Korell,M,83.2,93,1983-07-29,240,252.5,260,260,177.5,185,-190,185,225,235,245,245,690,6,Single-ply,Open,SBD
Marco Dömling,M,83.3,93,1976-08-23,215,230,240,240,140,147.5,152.5,152.5,200,215,222.5,222.5,615,14,Single-ply,Open,SBD
Eduard Tepper,M,83.4,93,1979-11-27,270,290,300,300,210,217.5,225,225,275,295,-305,295,820,1,Single-ply,Open,SBD
János Geerhardt,M,83.8,93,1967-08-15,190,205,-215,205,130,145,-150,145,230,245,-252.5,245,595,14,Single-ply,Open,SBD
Hannes Haase,M,84.6,93,1998-04-05,275,285,-295,285,-170,180,-190,180,215,235,250,250,715,1,Single-ply,Open,SBD
Francesco Virzi,M,85.5,93,1983-07-25,280,,,280,170,175,-177.5,175,230,260,285,285,740,3,Single-ply,Open,SBD
Jens Gersdorf,M,86.5,93,1976-06-02,220,230,240,240,162.5,167.5,170,170,240,250,260,260,670,7,Single-ply,Open,SBD
Thomas Ranft,M,89,93,1968-02-22,220,240,250,250,140,-145,145,145,210,220,225,225,620,16,Single-ply,Open,SBD
Sebastian Heger,M,91.15,93,1992-07-04,270,280,-290,280,170,,,170,215,230,-240,230,680,2,Single-ply,Open,SBD
Volker Dell,M,91.3,93,1957-03-07,210,230,-250,230,130,140,145,145,200,220,227.5,227.5,602.5,9,Single-ply,Open,SBD
Patrick Lösel,M,91.9,93,2000-07-30,250,260,270,270,-150,-155,155,155,240,250,-255,250,675,6,Single-ply,Open,SBD
Marc James,M,92.5,93,1993-12-29,180,195,207.5,207.5,120,130,-140,130,250,260,-275,260,597.5,13,Single-ply,Open,SBD
Christian Flueras,M,92.5,93,1996-03-16,270,-277.5,-277.5,270,200,210,-220,210,240,250,260,260,740,5,Single-ply,Open,SBD
Ronny Schröder,M,93.3,105,1979-10-26,250,280,300,300,200,210,-220,210,250,275,-290,275,785,8,Single-ply,Open,SBD
Sven Rogalski,M,94.1,105,1974-12-21,260,275,285,285,185,192.5,-200,192.5,250,262.5,-270,262.5,740,6,Single-ply,Open,SBD
Nico Ruhland,M,94.5,105,1977-01-14,250,260,265,265,165,170,175,175,230,240,245,245,685,7,Single-ply,Open,SBD
Ronny Berndt,M,94.5,105,1979-03-23,270,290,305,305,242.5,252.5,,252.5,245,257.5,,257.5,815,4,Single-ply,Open,SBD
Sascha Wandrei,M,95.1,105,1986-03-20,160,170,-180,170,105,115,-125,115,180,190,-200,190,475,16,Single-ply,Open,SBD
Sascha Calleger,M,95.3,105,1983-08-03,195,207.5,217.5,217.5,162.5,167.5,-172.5,167.5,235,250,260,260,645,12,Single-ply,Open,SBD
Mario Schnurr,M,97,105,1966-07-28,230,260,,260,202.5,-212.5,212.5,212.5,267.5,285,300,300,772.5,4,Single-ply,Open,SBD
Sven Schröder,M,97.2,105,1983-07-06,190,210,230,230,125,-180,-180,125,190,210,220,220,575,8,Single-ply,Open,SBD
Joshua Neurohr,M,99.15,105,1990-01-13,180,200,210,210,150,165,-175,165,220,230,242.5,242.5,617.5,9,Single-ply,Open,SBD
René Ullerich,M,99.8,105,1978-04-07,255,280,300,300,190,-205,-205,190,250,275,-285,275,765,8,Single-ply,Open,SBD
Sven Saiko,M,102,105,1991-12-16,240,250,262.5,262.5,195,205,210,210,255,270,-280,270,742.5,13,Single-ply,Open,SBD
Jan Thurn,M,103,105,1988-01-21,240,250,255,255,195,-202.5,-202.5,195,235,245,-250,245,695,7,Single-ply,Open,SBD
Markus Hinz,M,103,105,1971-10-11,250,270,285,285,232.5,242.5,-247.5,242.5,200,220,,220,747.5,13,Single-ply,Open,SBD
Tobias Persen,M,105.3,120,1990-10-07,315,330,-342.5,330,250,260,-265,260,-275,275,290,290,880,1,Single-ply,Open,SBD
Sascha Krause,M,105.8,120,1990-06-22,260,275,285,285,-185,185,200,200,230,255,265,265,750,10,Single-ply,Open,SBD
Alexander Geitner,M,107,120,1978-01-02,-255,255,265,265,180,-185,,180,275,290,300,300,745,11,Single-ply,Open,SBD
Steven Podas,M,107.4,120,1989-08-19,290,305,-320,305,165,-175,175,175,250,262.5,-270,262.5,742.5,16,Single-ply,Open,SBD
Dr. Hans Müller,M,109,120,1979-06-22,195,205,215,215,135,-145,,135,225,245,-255,245,595,13,Single-ply,Open,SBD
Stefan Rzehak,M,109.5,120,1991-02-28,310,317.5,-322.5,317.5,185,190,195,195,300,315,317.5,317.5,830,11,Single-ply,Open,SBD
David Sinn,M,109.65,120,1997-03-21,220,240,255,255,120,127.5,-135,127.5,240,260,,260,642.5,15,Single-ply,Open,SBD
Felix Kappmeyer,M,111,120,1996-06-26,-235,,,,170,177.5,,177.5,,,,,,DQ,Single-ply,Open,SBD
Knut Arnold,M,111.3,120,1971-02-27,200,210,217.5,217.5,145,150,152.5,152.5,215,225,230,230,600,5,Single-ply,Open,SBD
Mateusz Volk,M,113.65,120,1992-09-24,240,255,-270,255,140,147.5,-152.5,147.5,280,300,310,310,712.5,15,Single-ply,Open,SBD
Adrian Peist,M,118.2,120,1995-02-26,170,190,-202.5,190,115,122.5,-127.5,122.5,190,205,212.5,212.5,525,16,Single-ply,Open,SBD
Roman Reinbold,M,119.35,120,1972-02-19,260,280,300,300,222.5,230,237.5,237.5,250,265,272.5,272.5,810,12,Single-ply,Open,SBD
Sven Neuendorf,M,119.4,120,1990-06-07,-260,260,,260,180,195,200,200,200,-215,215,215,675,1,Single-ply,Open,SBD
Kevin Jäger #1,M,124.45,120+,1964-08-22,225,-375,-400,225,300,-360,-360,300,240,280,-307.5,280,805,9,Single-ply,Open,SBD
Dennis Rohmann,M,137.4,120+,1993-06-20,250,-270,275,275,180,190,200,200,-240,250,260,260,735,10,Single-ply,Open,SBD
Kücük Yasar,M,147,120+,1973-09-07,260,275,-285,275,170,-180,,170,260,275,,275,720,11,Single-ply,Open,SBD
Tobias Zinserling,M,151,120+,1978-02-08,350,370,-400,370,240,-250,,240,340,360,,360,970,2,Single-ply,Open,SBD
Oleg Gerats,M,166,120+,1991-09-04,365,-380,-380,365,-265,-265,265,265,230,250,-270,250,880,3,Single-ply,Open,SBD
Jan Grigat,M,169.8,120+,1993-07-03,315,335,-350,335,195,205,215,215,260,270,277.5,277.5,827.5,6,Single-ply,Open,SBD
