Place,Name,Sex,BodyweightKg,Event,Equipment,WeightClassKg,Best3SquatKg,Best3BenchKg,Best3DeadliftKg,TotalKg,Division
1,Brooke Mackenzie,F,76,SBD,Raw,82.5,90,65,110,265,Open
1,Gayleen Walker,F,86,SBD,Raw,90,105,62.5,165,332.5,Open
1,Steven Cooney,M,64,SBD,Raw,67.5,130,70,160,360,Open
1,Ossie Hookway,M,81,SBD,Raw,82.5,55,40,95,190,Open
DQ,James Stackhouse,M,88.3,SBD,Raw,90,,,,,Open
1,Dennis Hay,M,88,SBD,Raw,90,215,160,225,600,Open
2,Todd Hodgetts,M,109.5,SBD,Raw,110,160,80,185,425,Open
1,Max O'Toole,M,108,SBD,Raw,110,190,210,240,640,Open
1,Adam Pinkard,M,177,SBD,Single-ply,125+,360,230,320,910,Open
