Division,WeightClassKg,Place,Name,Team,BodyweightKg,Best3SquatKg,Best3BenchKg,Best3DeadliftKg,TotalKg,Equipment,Event,Sex
Juniors Varsity,56,1,Justin St Aubin,Newton,55.79,86.18,52.16,102.06,240.4,Single-ply,SBD,M
Juniors Varsity,60,1,Jacob Fowler,Newton,59.87,108.86,74.84,154.22,337.93,Single-ply,SBD,M
Juniors Varsity,60,2,Matthew Caswell,Newton,58.06,106.59,68.04,127.01,301.64,Single-ply,SBD,M
Juniors Varsity,82.5,1,Isiah Toussaint,Newton,81.65,174.63,95.25,188.24,458.13,Single-ply,SBD,M
Juniors Varsity,82.5,2,Jadrian McGraw,Newton,79.38,133.81,90.72,158.76,383.29,Single-ply,SBD,M
Juniors Varsity,90,1,Cameron Stewart,Newton,85.28,170.1,97.52,192.78,460.4,Single-ply,SBD,M
Juniors Varsity,100,1,William Steel,Newton,96.62,183.7,117.93,213.19,514.83,Single-ply,SBD,M
Juniors Varsity,100,2,Mark Gaona,Newton,96.16,188.24,95.25,158.76,442.25,Single-ply,SBD,M
Juniors Varsity,100,3,Colt Burnett,Newton,98.43,133.81,72.57,145.15,351.53,Single-ply,SBD,M
Juniors Varsity,100,4,Dylan Reeves,Kirbyville,99.79,136.08,72.57,142.88,351.53,Single-ply,SBD,M
Juniors Varsity,110,1,Jonah Hammaker,Newton,108.41,165.56,108.86,165.56,439.98,Single-ply,SBD,M
Juniors Varsity,110,2,Patrick Davis,Newton,100.24,172.37,97.52,142.88,412.77,Single-ply,SBD,M
Juniors Varsity,125+,1,Yavin Shankle,Newton,133.81,208.65,113.4,199.58,521.63,Single-ply,SBD,M
Varsity,52,1,Justin Booth,Newton,43.09,81.65,40.82,104.33,226.8,Single-ply,SBD,M
Varsity,56,1,Joseph Tarver,Joaquin,55.34,136.08,79.38,122.47,337.93,Single-ply,SBD,M
Varsity,56,2,DeAndre Limbrick,Jasper,52.16,111.13,61.23,136.08,308.44,Single-ply,SBD,M
Varsity,56,3,Peyton Samuel,Jasper,54.43,108.86,61.23,117.93,288.03,Single-ply,SBD,M
Varsity,60,1,Nathan Trevino,Buna,58.97,142.88,65.77,149.69,358.34,Single-ply,SBD,M
Varsity,60,2,Cade Pellerin,Buna,58.51,108.86,72.57,154.22,335.66,Single-ply,SBD,M
Varsity,60,3,Anthony Gray,Kirbyville,59.69,111.13,65.77,122.47,299.37,Single-ply,SBD,M
Varsity,67.5,1,Kelton Johnson,Newton,60.33,165.56,95.25,172.37,433.18,Single-ply,SBD,M
Varsity,67.5,2,Preston Ervine,Kirbyville,64.41,138.35,77.11,158.76,374.21,Single-ply,SBD,M
Varsity,67.5,3,Kristian Paulette,Newton,63.96,136.08,81.65,154.22,371.95,Single-ply,SBD,M
Varsity,67.5,4,Tre Burns,Joaquin,66.22,124.74,74.84,156.49,356.07,Single-ply,SBD,M
Varsity,67.5,5,Caleb Colon,Newton,63.96,124.74,77.11,149.69,351.53,Single-ply,SBD,M
Varsity,75,1,Jerkerion Simmons,Jasper,67.59,208.65,117.93,226.8,553.38,Single-ply,SBD,M
Varsity,75,2,Davian Smith,Beaumont Central,74.84,181.44,131.54,204.12,517.1,Single-ply,SBD,M
Varsity,75,3,Jaron Hanks,Newton,73.48,195.04,102.06,199.58,496.68,Single-ply,SBD,M
Varsity,75,4,Cam Ballard,Kirbyville,72.76,181.44,97.52,188.24,467.2,Single-ply,SBD,M
Varsity,75,5,Darwin Barlow,Newton,74.84,167.83,108.86,181.44,458.13,Single-ply,SBD,M
Varsity,75,6,Harold Redo,Beaumont Central,74.84,170.1,97.52,181.44,449.06,Single-ply,SBD,M
Varsity,75,7,Elijah Mays,Jasper,72.57,149.69,74.84,163.29,387.82,Single-ply,SBD,M
Varsity,75,8,Colt Head,Jasper,74.84,136.08,74.84,163.29,374.21,Single-ply,SBD,M
Varsity,75,DQ,Scott Bartlett,Kirbyville,74.75,140.61,81.65,,,Single-ply,SBD,M
Varsity,82.5,1,James Castille,Jasper,77.11,192.78,86.18,197.31,476.27,Single-ply,SBD,M
Varsity,82.5,2,Theo Foster,Beaumont Central,79.83,172.37,104.33,176.9,453.59,Single-ply,SBD,M
Varsity,82.5,3,Mitchell Roseman,Kirbyville,79.56,140.61,115.67,185.97,442.25,Single-ply,SBD,M
Varsity,82.5,4,Justin Odom,Kirbyville,77.11,174.63,99.79,163.29,437.72,Single-ply,SBD,M
Varsity,82.5,5,Calvin Williams,Beaumont Central,75.75,147.42,86.18,142.88,376.48,Single-ply,SBD,M
Varsity,82.5,DQ,Camden McClain,Jasper,81.65,149.69,120.2,,,Single-ply,SBD,M
Varsity,90,1,Chris Conner,Newton,87.09,172.37,95.25,190.51,458.13,Single-ply,SBD,M
Varsity,90,2,Hunter Holt,Joaquin,87.09,183.7,99.79,170.1,453.59,Single-ply,SBD,M
Varsity,90,3,Glenn Bingham,Buna,86.64,167.83,99.79,163.29,430.91,Single-ply,SBD,M
Varsity,90,4,Tyson Dominy,Kirbyville,83.91,142.88,70.31,167.83,381.02,Single-ply,SBD,M
Varsity,90,5,Hunter McGraw,Jasper,85.73,138.35,72.57,154.22,365.14,Single-ply,SBD,M
Varsity,100,1,Robert Wood,Newton,95.71,254.01,133.81,233.6,621.42,Single-ply,SBD,M
Varsity,100,2,Antwaine Hunter,Newton,93.89,217.72,133.81,215.46,566.99,Single-ply,SBD,M
Varsity,100,3,Keenen Myers,Newton,97.07,219.99,145.15,197.31,562.45,Single-ply,SBD,M
Varsity,100,4,Matthew Gardner,Kirbyville,97.52,188.24,90.72,213.19,492.15,Single-ply,SBD,M
Varsity,100,5,Jace Lowe,Hemphill,99.34,170.1,117.93,174.63,462.66,Single-ply,SBD,M
Varsity,100,DQ,Tajhwan Denson,Newton,92.08,204.12,104.33,,,Single-ply,SBD,M
Varsity,110,1,Colton Liles,Kirbyville,108.86,226.8,197.31,238.14,662.24,Single-ply,SBD,M
Varsity,110,2,Sean Gates,Kirbyville,102.97,181.44,90.72,179.17,451.32,Single-ply,SBD,M
Varsity,125,1,Dwayne Robertson,Beaumont Central,119.75,260.82,149.69,240.4,650.91,Single-ply,SBD,M
Varsity,125,2,Janathaen Ezidore,Newton,119.29,263.08,136.08,244.94,644.1,Single-ply,SBD,M
Varsity,125,3,Lloyd Allums,Beaumont Central,120.2,222.26,174.63,215.46,612.35,Single-ply,SBD,M
Varsity,125,4,Matt Powers,Jasper,124.28,199.58,124.74,188.24,512.56,Single-ply,SBD,M
Varsity,125,DQ,Trac DeLeon,Hemphill,113.4,213.19,,,,Single-ply,SBD,M
Varsity,125,DQ,Reese McGraw,Hemphill,120.2,140.61,,,,Single-ply,SBD,M
Varsity,125+,1,Cardrae Brown,Joaquin,147.42,306.17,165.56,215.46,687.19,Single-ply,SBD,M
Varsity,125+,2,Richard Bennett,Hemphill,129.27,233.6,154.22,217.72,605.55,Single-ply,SBD,M
Varsity,125+,3,Zach Bell,Joaquin,129.27,226.8,140.61,226.8,594.21,Single-ply,SBD,M
Varsity,125+,4,Ryan Logan,Jasper,146.96,204.12,113.4,204.12,521.63,Single-ply,SBD,M
Varsity,125+,5,Kaleb Barnett,Jasper,133.36,170.1,90.72,192.78,453.59,Single-ply,SBD,M
