Name,Age,Event,Sex,Equipment,Division,BodyweightKg,WeightClassKg,Squat1Kg,Squat2Kg,Squat3Kg,Best3SquatKg,Bench1Kg,Bench2Kg,Bench3Kg,Best3BenchKg,Deadlift1Kg,Deadlift2Kg,Deadlift3Kg,Best3DeadliftKg,TotalKg,Place
Baillee Heitkamp,16,SBD,F,Multi-ply,F_OEM_APF,47,48,-60,85,-95,85,35,42.5,-50,42.5,85,102.5,-105,102.5,230,1
Baillee Heitkamp,16,SBD,F,Single-ply,F_TES_2_APF,47,48,-60,85,-95,85,35,42.5,-50,42.5,85,102.5,-105,102.5,230,1
Ann Lenz,38,SBD,F,Multi-ply,F_OEM_APF,74.8,75,147.5,-160,160,160,97.5,105,-112.5,105,122.5,142.5,-152.5,142.5,407.5,1
Kayla Forcier,22,SBD,F,Wraps,F_OCR_AAPF,47.2,48,97.5,110,-120,110,60,62.5,65,65,107.5,117.5,122.5,122.5,297.5,1
Cathy Brenan,61,SBD,F,Wraps,F_OCR_AAPF,59.6,60,90,-95,-95,90,60,-62.5,-62.5,60,100,102.5,105,105,255,1
Olivia Rovig,20,SBD,F,Wraps,F_OCR_AAPF,57.8,60,65,67.5,77.5,77.5,35,37.5,-42.5,37.5,92.5,102.5,115,115,230,2
Erin Westby,23,SBD,F,Wraps,F_OCR_AAPF,62.8,67.5,97.5,112.5,127.5,127.5,52.5,57.5,-65,57.5,107.5,117.5,127.5,127.5,312.5,1
Kathy Nordness,50,SBD,F,Wraps,F_OCR_AAPF,79.4,82.5,72.5,85,-92.5,85,65,-67.5,-67.5,65,97.5,107.5,120,120,270,1
Clara Pazour,18,SBD,F,Wraps,F_OCR_APF,58.8,60,60,72.5,-87.5,72.5,40,-47.5,-47.5,40,-90,95,102.5,102.5,215,1
Angie Lowe,42,SBD,F,Wraps,F_OCR_APF,63.6,67.5,80,90,97.5,97.5,42.5,-45,-47.5,42.5,105,115,120,120,260,1
Yvonne Hanley,67,SBD,F,Wraps,F_OCR_APF,66,67.5,75,85,-90,85,47.5,50,-52.5,50,105,-117.5,117.5,117.5,252.5,2
Yvonne Hanley,67,SBD,F,Wraps,F_MCR_6_APF,66,67.5,75,85,-90,85,47.5,50,-52.5,50,105,-117.5,117.5,117.5,252.5,1
Wendy Clem,42,SBD,F,Wraps,F_OCR_APF,79.2,82.5,-90,90,-92.5,90,62.5,-65,,62.5,92.5,-105,-115,92.5,245,1
Wendy Clem,42,SBD,F,Raw,F_MR_1_APF,79.2,82.5,-90,90,-92.5,90,62.5,-65,,62.5,92.5,-105,-115,92.5,245,1
Jordan Klemmer,23,SBD,F,Wraps,F_OCR_APF,81.2,82.5,80,85,-95,85,42.5,-45,-45,42.5,55,60,87.5,87.5,215,2
Christian Fite,33,SBD,M,Multi-ply,M_OEM_AAPF,88.6,90,-295,-295,-295,,-155,-155,,,-265,,,,,DQ
Jake Daake,23,SBD,M,Multi-ply,M_OEM_AAPF,96.6,100,260,-277.5,277.5,277.5,165,-172.5,172.5,172.5,230,245,250,250,700,1
Noah Remily,18,SBD,M,Multi-ply,M_OEM_APF,74,75,170,-207.5,-207.5,170,-102.5,102.5,-137.5,102.5,150,205,-220,205,477.5,1
Brandon Thiel,18,SBD,M,Multi-ply,M_OEM_APF,81.8,82.5,-142.5,182.5,-190,182.5,-102.5,-102.5,-105,,142.5,167.5,185,185,,DQ
Eddie Lone Eagle,34,SBD,M,Multi-ply,M_OEM_APF,88.4,90,-355,-355,365,365,182.5,197.5,-205,197.5,250,272.5,-290,272.5,835,1
Brian Ericksen,46,SBD,M,Multi-ply,M_OEM_APF,98,100,275,-287.5,-302.5,275,-200,-200,-200,,-220,,,,,DQ
Tom Fahy,52,SBD,M,Multi-ply,M_OEM_APF,107.6,110,275,-297.5,297.5,297.5,210,-247.5,-247.5,210,265,285,295,295,802.5,1
Brian Durham,41,SBD,M,Multi-ply,M_OEM_APF,136,140,420,-455,-455,420,202.5,227.5,,227.5,275,307.5,-320,307.5,955,1
Jadyn Steiner,14,SBD,M,Wraps,M_OCR_AAPF,54.6,56,62.5,70,87.5,87.5,40,47.5,50,50,82.5,97.5,105,105,242.5,1
Jadyn Steiner,14,SBD,M,Wraps,M_TCR_1_AAPF,54.6,56,62.5,70,87.5,87.5,40,47.5,50,50,82.5,97.5,105,105,242.5,1
Chase Steiner,14,SBD,M,Wraps,M_OCR_AAPF,56.6,60,62.5,70,87.5,87.5,40,-47.5,-47.5,40,82.5,97.5,105,105,232.5,1
Chase Steiner,14,SBD,M,Wraps,M_TCR_1_AAPF,56.6,60,62.5,70,87.5,87.5,40,-47.5,-47.5,40,82.5,97.5,105,105,232.5,1
Sean Leadbetter,26,SBD,M,Wraps,M_OCR_AAPF,66,67.5,137.5,145,150,150,92.5,97.5,-105,97.5,185,195,205,205,452.5,1
Tyler Yanez,15,SBD,M,Wraps,M_OCR_AAPF,64.8,67.5,110,132.5,145,145,85,112.5,-122.5,112.5,120,162.5,175,175,432.5,2
Tyler Yanez,15,SBD,M,Wraps,M_TCR_1_AAPF,64.8,67.5,110,132.5,145,145,85,112.5,-122.5,112.5,120,162.5,175,175,432.5,1
Matt Dahl,25,SBD,M,Wraps,M_OCR_AAPF,73,75,165,185,190,190,115,125,-130,125,197.5,210,-215,210,525,1
Greg Smith,40,SBD,M,Raw,M_OR_AAPF,73.2,75,165,182.5,190,190,100,107.5,-110,107.5,205,227.5,-247.5,227.5,525,2
Greg Smith,40,SBD,M,Raw,M_MR_1_AAPF,73.2,75,165,182.5,190,190,100,107.5,-110,107.5,205,227.5,-247.5,227.5,525,1
Susie Knopp,36,SBD,F,Wraps,F_OCR_AAPF,73.4,75,80,87.5,-92.5,87.5,42.5,-45,45,45,107.5,115,120,120,252.5,3
Nick Klawon,26,SBD,M,Wraps,M_OCR_AAPF,82.4,82.5,-200,205,-220,205,117.5,-130,-130,117.5,245,255,-272.5,255,577.5,1
Tah Safadi,23,SBD,M,Wraps,M_OCR_AAPF,79.4,82.5,175,180,-187.5,180,-120,-120,-120,,185,187.5,195,195,,DQ
Christopher Grahn,29,SBD,M,Wraps,M_OCR_AAPF,98.8,100,165,185,200,200,102.5,112.5,-120,112.5,182.5,205,215,215,527.5,1
Dave Baker,63,SBD,M,Wraps,M_OCR_AAPF,98.4,100,165,175,185,185,60,65,67.5,67.5,165,175,185,185,437.5,2
Dave Baker,63,SBD,M,Wraps,M_MCR_5_AAPF,98.4,100,165,175,185,185,60,65,67.5,67.5,165,175,185,185,437.5,1
Justin Perez,25,SBD,M,Wraps,M_OCR_AAPF,108,110,-327.5,327.5,-365,327.5,175,-182.5,,175,265,275,285,285,787.5,1
Douglas Steiner,38,SBD,M,Wraps,M_OCR_AAPF,108.4,110,147.5,-160,175,175,112.5,122.5,-137.5,122.5,147.5,182.5,195,195,492.5,2
Douglas Steiner,38,SBD,M,Wraps,M_SCR_AAPF,108.4,110,147.5,-160,175,175,112.5,122.5,-137.5,122.5,147.5,182.5,195,195,492.5,1
Todd Sammons,40,SBD,M,Wraps,M_OCR_AAPF,134.4,140,152.5,175,202.5,202.5,102.5,112.5,-120,112.5,185,202.5,-220,202.5,517.5,1
Brittany Wells,32,SBD,F,Wraps,M_OCR_APF,63.6,67.5,87.5,97.5,-107.5,97.5,45,-50,-50,45,102.5,120,-137.5,120,262.5,1
Katelyn Schrenk,20,SBD,F,Wraps,F_OCR_APF,67.4,67.5,-75,77.5,82.5,82.5,52.5,-55,-60,52.5,70,77.5,95,95,230,2
Ian Connors,30,SBD,M,Wraps,M_OCR_APF,71.4,75,105,122.5,-132.5,122.5,85,95,-97.5,95,135,145,147.5,147.5,365,1
Austin Hutzenbiler,19,SBD,M,Wraps,M_OCR_APF,80,82.5,207.5,-230,-232.5,207.5,125,132.5,-140,132.5,195,215,-232.5,215,555,1
Julie Brandon,27,SBD,M,Wraps,M_OCR_APF,81,82.5,62.5,72.5,85,85,52.5,62.5,65,65,92.5,102.5,110,110,260,2
Kevin Smith,34,SBD,M,Wraps,M_OCR_APF,89,90,180,207.5,227.5,227.5,-150,165,172.5,172.5,180,210,220,220,620,1
David Stensland,32,SBD,M,Wraps,M_OCR_APF,97.6,100,225,230,-235,230,137.5,142.5,152.5,152.5,220,227.5,232.5,232.5,615,1
Mike Dempsey,57,SBD,M,Wraps,M_OCR_APF,98.8,100,142.5,-182.5,-182.5,142.5,110,142.5,-147.5,142.5,-182.5,,,,,DQ
Curtis Krump,26,SBD,M,Wraps,M_OCR_APF,108.6,110,227.5,242.5,257.5,257.5,167.5,180,-185,180,270,290,-305,290,727.5,1
Shawn Dirkes,33,SBD,M,Wraps,M_OCR_APF,107.4,110,215,227.5,-240,227.5,175,182.5,-207.5,182.5,217.5,235,250,250,660,2
Quinten Ulschmid,26,SBD,M,Wraps,M_OCR_APF,104,110,185,197.5,-212.5,197.5,142.5,147.5,-155,147.5,-227.5,250,265,265,610,3
Casey Saunders,24,SBD,M,Wraps,M_OCR_APF,116.6,125,265,285,300,300,167.5,175,182.5,182.5,272.5,290,302.5,302.5,785,1
Matt Klemmer,26,SBD,M,Wraps,M_OCR_APF,122.8,125,250,-277.5,-277.5,250,185,-200,-200,185,287.5,-320,320,320,755,2
Dave Clem,45,SBD,M,Wraps,M_OCR_APF,116,125,265,280,-297.5,280,-170,170,,170,257.5,-272.5,-272.5,257.5,707.5,3
Dave Clem,45,SBD,M,Wraps,M_MCR_2_APF,116,125,265,280,-297.5,280,-170,170,,170,257.5,-272.5,-272.5,257.5,707.5,1
Josh Benson,35,SBD,M,Wraps,M_OCR_APF,116,125,170,175,180,180,115,125,-135,125,175,195,220,220,525,4
Calvin Honl,23,SBD,M,Wraps,M_OCR_APF,131,140,237.5,255,-275,255,137.5,147.5,-162.5,147.5,237.5,250,275,275,677.5,1
Leo Zubiate,21,SBD,M,Raw,M_OR_APF,91.4,100,142.5,-167.5,-190,142.5,125,-137.5,-137.5,125,152.5,185,205,205,472.5,1
Cody Campbell,33,D,M,Single-ply,M_OES_APF,106.2,110,,,,,,,,,250,-285,-285,250,250,1
Cody Campbell,33,D,M,Multi-ply,M_OEM_APF,106.2,110,,,,,,,,,230,-277.5,-277.5,230,230,1
Thuy Le,35,BD,F,Raw,F_OR_AAPF,71.8,75,,,,,55,57.5,-60,57.5,130,137.5,140,140,197.5,1
Kyra Baker,44,BD,F,Raw,F_OR_APF,88.4,90,,,,,30,32.5,-35,32.5,62.5,70,82.5,82.5,115,1
Ed May,57,BD,M,Multi-ply,M_OEM_AAPF,112.4,125,,,,,125,130,137.5,137.5,170,180,185,185,322.5,1
Jesse Canton,38,BD,M,Multi-ply,M_OEM_APF,97,100,,,,,192.5,202.5,207.5,207.5,265,-290,-290,265,472.5,1
Keith Berger,69,BD,M,Raw,M_OR_AAPF,77.2,82.5,,,,,100,102.5,-105,102.5,130,140,-142.5,140,242.5,1
Keith Berger,69,BD,M,Raw,M_MR_6_AAPF,77.2,82.5,,,,,100,102.5,-105,102.5,130,140,-142.5,140,242.5,1
Michael Stiel,47,BD,M,Raw,M_OCR_APF,140.2,140+,,,,,165,-182.5,-182.5,165,-165,,,,,DQ
